[
    [
        "L S S L S S L S S L L",
        "ἅρματα μὲν τάδε λαμπρὰ τεθρίππων·",
        [
            "82",
            "an2"
        ]
    ],
    [
        "L S S L L L L S S L",
        "Ἥλιοϲ ἤδη λάμπει κατὰ γῆν,",
        [
            "83",
            "an2"
        ]
    ],
    [
        "L S S L L S S L L S S",
        "ἄϲτρα δὲ φεύγει πυρὶ τῶιδʼ αἰθέροϲ",
        [
            "84",
            "an2"
        ]
    ],
    [
        "L L S S L",
        "ἐϲ νύχθʼ ἱεράν·",
        [
            "85",
            "an"
        ]
    ],
    [
        "L L S S L S S L S S L",
        "Παρναϲιάδεϲ δʼ ἄβατοι κορυφαὶ",
        [
            "86",
            "an2"
        ]
    ],
    [
        "S S L S S L L L S S L",
        "καταλαμπόμεναι τὴν ἡμερίαν",
        [
            "87",
            "an2"
        ]
    ],
    [
        "L L S S L S S L L",
        "ἁψῖδα βροτοῖϲι δέχονται.",
        [
            "88",
            "par"
        ]
    ],
    [
        "L L S S L S S L S S L",
        "ϲμύρνηϲ δʼ ἀνύδρου καπνὸϲ εἰϲ ὀρόφουϲ",
        [
            "89",
            "an2"
        ]
    ],
    [
        "L L S S L",
        "Φοίβου πέτεται.",
        [
            "90",
            "an"
        ]
    ],
    [
        "L L S S L S S L S S L",
        "θάϲϲει δὲ γυνὴ τρίποδα ζάθεον",
        [
            "91",
            "an2"
        ]
    ],
    [
        "L S S L L L L S S L",
        "Δελφίϲ, ἀείδουϲʼ Ἕλληϲι βοάϲ,",
        [
            "92",
            "an2"
        ]
    ],
    [
        "L S S L L S S L L",
        "ἃϲ ἂν Ἀπόλλων κελαδήϲηι.",
        [
            "93",
            "an2"
        ]
    ],
    [
        "L L L L L L S S L",
        "ἀλλʼ, ὦ Φοίβου Δελφοὶ θέραπεϲ,",
        [
            "94",
            "an2"
        ]
    ],
    [
        "L L S S L L S S L L",
        "τὰϲ Καϲταλίαϲ ἀργυροειδεῖϲ",
        [
            "95",
            "an2"
        ]
    ],
    [
        "L S S L L S S L S S L",
        "βαίνετε δίναϲ, καθαραῖϲ δὲ δρόϲοιϲ",
        [
            "96",
            "an2"
        ]
    ],
    [
        "S S L S S L L S S L L",
        "ἀφυδρανάμενοι ϲτείχετε ναούϲ·",
        [
            "97",
            "an2"
        ]
    ],
    [
        "S S L L L L L S S L",
        "ϲτόμα τʼ εὔφημοι φρουρεῖτʼ ἀγαθόν,",
        [
            "98",
            "an2"
        ]
    ],
    [
        "L L S S L",
        "φήμαϲ ἀγαθὰϲ",
        [
            "99",
            "an"
        ]
    ],
    [
        "L S S L L L L L L",
        "τοῖϲ ἐθέλουϲιν μαντεύεϲθαι",
        [
            "100",
            "an2"
        ]
    ],
    [
        "L L S S L S S L L",
        "γλώϲϲηϲ ἰδίαϲ ἀποφαίνειν.",
        [
            "101",
            "par"
        ]
    ],
    [
        "L L S S L L L L L",
        "ἡμεῖϲ δέ, πόνουϲ οὓϲ ἐκ παιδὸϲ",
        [
            "102",
            "an2"
        ]
    ],
    [
        "L L S S L L L S S L",
        "μοχθοῦμεν ἀεί, πτόρθοιϲι δάφνηϲ",
        [
            "103",
            "an2"
        ]
    ],
    [
        "S S L S S L S S L L L",
        "ϲτέφεϲίν θʼ ἱεροῖϲ ἐϲόδουϲ Φοίβου",
        [
            "104",
            "an2"
        ]
    ],
    [
        "S S L L S S L L S S L",
        "καθαρὰϲ θήϲομεν ὑγραῖϲ τε πέδον",
        [
            "105",
            "an2"
        ]
    ],
    [
        "S S L S S L L L S S L",
        "ῥανίϲιν νοτερόν· πτηνῶν τʼ ἀγέλαϲ,",
        [
            "106",
            "an2"
        ]
    ],
    [
        "L L L L L S S L S S",
        "αἳ βλάπτουϲιν ϲένμʼ ἀναθήματα",
        [
            "107",
            "an2"
        ]
    ],
    [
        "L L S S L S S L L S S",
        "τόξοιϲιν ἐμοῖϲ φυγάδαϲ θήϲομεν·",
        [
            "108",
            "an2"
        ]
    ],
    [
        "L S S L L S S L S S L",
        "ὡϲ γὰρ ἀμήτωρ ἀπάτωρ τε γεγὼϲ",
        [
            "109",
            "an2"
        ]
    ],
    [
        "L L L L",
        "τοὺϲ θρέψανταϲ",
        [
            "110",
            "an"
        ]
    ],
    [
        "L L L L S S L L",
        "Φοίβου ναοὺϲ θεραπεύω.",
        [
            "111",
            "par"
        ]
    ],
    [
        "S L S L S S L",
        "ἄγʼ, ὦ νεηθαλὲϲ ὦ",
        [
            "112",
            "hept"
        ]
    ],
    [
        "L L L S S L S L",
        "καλλίϲταϲ προπόλευμα δάφ-",
        [
            "113",
            "gly∫"
        ]
    ],
    [
        "L L L L L S S L",
        "ναϲ, ἃ τὰν Φοίβου θυμέλαν",
        [
            "114",
            "wil"
        ]
    ],
    [
        "L L S S L L",
        "ϲαίρειϲ ὑπὸ ναοῖϲ,",
        [
            "115",
            "reiz"
        ]
    ],
    [
        "L L L L S S L",
        "κάπων ἐξ ἀθανάτων,",
        [
            "116",
            "hept"
        ]
    ],
    [
        "S S S L L L S S L",
        "ἵνα δρόϲοι τέγγουϲʼ ἱεραί,",
        [
            "117",
            "wil"
        ]
    ],
    [
        "L L S S S",
        "†τὰν† ἀέναον",
        [
            "118",
            "?[^1]"
        ]
    ],
    [
        "L L L S S L L",
        "παγὰν ἐκπροϊεῖϲαι,",
        [
            "119",
            "ph"
        ]
    ],
    [
        "L L L S S L S L",
        "μυρϲίναϲ ἱερὰν φόβαν·",
        [
            "120",
            "gly"
        ]
    ],
    [
        "L L L S S L S L",
        "ἇι ϲαίρω δάπεδον θεοῦ",
        [
            "121",
            "gly"
        ]
    ],
    [
        "S L S S S S L S L S S S S L",
        "παναμέριοϲ ἅμʼ ἁλίου πτέρυγι θοᾶι",
        [
            "122-3",
            "ia3"
        ]
    ],
    [
        "L L L S S L L",
        "λατρεύων τὸ κατʼ ἦμαρ.",
        [
            "124",
            "ph"
        ]
    ],
    [
        "L L L L L L",
        "ὦ Παιὰν ὦ Παιάν,",
        [
            "125",
            "mol2[^2]"
        ]
    ],
    [
        "L L L L L L",
        "εὐαίων εὐαίων",
        [
            "126",
            "mol2"
        ]
    ],
    [
        "L L L L L L",
        "εἴηϲ, ὦ Λατοῦϲ παῖ.",
        [
            "127",
            "mol2"
        ]
    ],
    [
        "S L S L S S L",
        "καλόν γε τὸν πόνον, ὦ",
        [
            "128",
            "hept"
        ]
    ],
    [
        "L S L S S L S L",
        "Φοῖβε, ϲοὶ πρὸ δόμων λατρεύ-",
        [
            "129",
            "gly∫"
        ]
    ],
    [
        "L L L L L S S L",
        "ω, τιμῶν μαντεῖον ἕδραν·",
        [
            "130",
            "wil"
        ]
    ],
    [
        "L L S S L L",
        "κλεινὸϲ δʼ ὁ πόνοϲ μοι",
        [
            "131",
            "reiz"
        ]
    ],
    [
        "L L L L S S L",
        "θεοῖϲιν δούλαν χέρʼ ἔχειν,",
        [
            "132",
            "hept"
        ]
    ],
    [
        "L L L L L S S L",
        "οὐ θνατοῖϲ ἀλλʼ ἀθανάτοιϲ·",
        [
            "133",
            "wil"
        ]
    ],
    [
        "L L L S S L",
        "εὐφάμουϲ δὲ πόνουϲ",
        [
            "134",
            "hex"
        ]
    ],
    [
        "L L L S S L L",
        "μοχθεῖν οὐκ ἀποκάμνω.",
        [
            "135",
            "ph"
        ]
    ],
    [
        "L L L S S L S L",
        "Φοῖβόϲ μοι γενέτωρ πατήρ·",
        [
            "136",
            "gly"
        ]
    ],
    [
        "L L L S S L S L",
        "τὸν βόϲκοντα γὰρ εὐλογῶ,",
        [
            "137",
            "gly"
        ]
    ],
    [
        "L L S S S S L S S S S S S S L",
        "τὸν δʼ ὠφέλιμον ἐμοὶ πατέροϲ ὄνομα λέγω",
        [
            "138-9",
            "ia3[^3]"
        ]
    ],
    [
        "L L L S S L N",
        "Φοῖβον τὸν κατὰ ναόν.",
        [
            "140",
            "pher"
        ]
    ],
    [
        "L L L L L L",
        "ὦ Παιὰν ὦ Παιάν,",
        [
            "141",
            "mol2"
        ]
    ],
    [
        "L L L L L L",
        "εὐαίων εὐαίων",
        [
            "142",
            "mol2"
        ]
    ],
    [
        "L L L L L L",
        "εἴηϲ, ὦ Λατοῦϲ παῖ.",
        [
            "143",
            "mol2"
        ]
    ],
    [
        "L L L L L L L",
        "ἀλλʼ ἐκπαύϲω γὰρ μόχθουϲ",
        [
            "144",
            "par"
        ]
    ],
    [
        "L L L L",
        "δάφναϲ ὁλκοῖϲ,",
        [
            "145",
            "an"
        ]
    ],
    [
        "L L L L L L L",
        "χρυϲέων δʼ ἐκ τευχέων ῥίψω",
        [
            "146",
            "par"
        ]
    ],
    [
        "L L L L",
        "γαίαϲ παγάν,",
        [
            "147",
            "an"
        ]
    ],
    [
        "L S S L L L",
        "ἃν ἀποχεύονται",
        [
            "148a",
            "doc"
        ]
    ],
    [
        "L S S L L L",
        "Καϲταλίαϲ δῖναι,",
        [
            "148b",
            "doc"
        ]
    ],
    [
        "S S S S L L L",
        "νοτερὸν ὕδωρ βάλλων,",
        [
            "149",
            "ia",
            "+",
            "sp"
        ]
    ],
    [
        "S S S S L L L",
        "ὅϲιοϲ ἀπʼ εὐνᾶϲ ὤν.",
        [
            "150",
            "ia",
            "+",
            "sp"
        ]
    ],
    [
        "L L L L L L L",
        "εἴθʼ οὕτωϲ αἰεὶ Φοίβωι",
        [
            "151",
            "par"
        ]
    ],
    [
        "L L L L L L L",
        "λατρεύων μὴ παυϲαίμαν,",
        [
            "152",
            "par"
        ]
    ],
    [
        "L L L L S S L L L",
        "ἢ παυϲαίμαν ἀγαθᾶι μοίραι.",
        [
            "153a",
            "an2||H"
        ]
    ],
    [
        "S L S L",
        "ἔα ἔα·",
        [
            "153b[^4]",
            "e.m."
        ]
    ],
    [
        "L L L L L L L L",
        "φοιτῶϲʼ ἤδη λείπουϲίν τε",
        [
            "154",
            "an2"
        ]
    ],
    [
        "L L L L L L L",
        "πτανοὶ Παρναϲοῦ κοίταϲ.",
        [
            "155",
            "par"
        ]
    ],
    [
        "L L L L L L L",
        "αὐδῶ μὴ χρίμπτειν θριγκοῖϲ",
        [
            "156",
            "par"
        ]
    ],
    [
        "L L L L L L L",
        "μηδʼ ἐϲ χρυϲήρειϲ οἴκουϲ.",
        [
            "157",
            "par"
        ]
    ],
    [
        "L L L L L L L L",
        "μάρψω ϲʼ αὖ τόξοιϲ, ὦ Ζηνὸϲ",
        [
            "158",
            "an2"
        ]
    ],
    [
        "L L L L L L L L",
        "κῆρυξ, ὀρνίθων γαμφηλαῖϲ",
        [
            "159",
            "an2"
        ]
    ],
    [
        "L L L L",
        "ἰϲχὺν νικῶν.",
        [
            "160",
            "an"
        ]
    ],
    [
        "S S L S S L L S S L L",
        "ὅδε πρὸϲ θυμέλαϲ ἄλλοϲ ἐρέϲϲει",
        [
            "161",
            "an2"
        ]
    ],
    [
        "S S L L L L L S S L",
        "κύκνοϲ· οὐκ ἄλλαι φοινικοφαῆ",
        [
            "162",
            "an2"
        ]
    ],
    [
        "S S L L L",
        "πόδα κινήϲειϲ;",
        [
            "163",
            "an"
        ]
    ],
    [
        "L L L L L L L L",
        "οὐδέν ϲʼ ἁ φόρμιγξ ἁ Φοίβου",
        [
            "164",
            "an2"
        ]
    ],
    [
        "L L L L L L L L",
        "ϲύμμολποϲ τόξων ῥύϲαιτʼ ἄν.",
        [
            "165",
            "an2"
        ]
    ],
    [
        "S S L S S L",
        "πάραγε πτέρυγαϲ·",
        [
            "166",
            "an"
        ]
    ],
    [
        "L L S S L L L L S N",
        "λίμναϲ ἐπίβα τᾶϲ Δηλιάδοϲ·",
        [
            "167",
            "an2||B"
        ]
    ],
    [
        "L L L L L L L",
        "αἰάξειϲ, εἰ μὴ πείϲηι,",
        [
            "168",
            "par"
        ]
    ],
    [
        "L L L L L L L",
        "τὰϲ καλλιφθόγγουϲ ὠιδάϲ·",
        [
            "169",
            "par"
        ]
    ],
    [
        "S L S L",
        "ἔα ἔα·",
        [
            "170a[^5]",
            "e.m."
        ]
    ],
    [
        "S S L L L L L S S L",
        "τίϲ ὅδʼ ὀρνίθων καινὸϲ προϲέβα;",
        [
            "170b",
            "an2"
        ]
    ],
    [
        "L S S L L L L L",
        "μῶν ὑπὸ θριγκοὺϲ εὐναίαϲ",
        [
            "171",
            "par"
        ]
    ],
    [
        "L L L L L L L",
        "καρφυρὰϲ θήϲων τέκνοιϲ;",
        [
            "172",
            "par"
        ]
    ],
    [
        "L L L L L L L",
        "ψαλμοί ϲʼ εἴρξουϲιν τόξων.",
        [
            "173",
            "par"
        ]
    ],
    [
        "L L L L L L L",
        "οὐ πείϲηι; χωρῶν δίναϲ",
        [
            "174",
            "par"
        ]
    ],
    [
        "L L L L L L L",
        "τὰϲ Ἀλφειοῦ παιδούργει",
        [
            "175",
            "par||H"
        ]
    ],
    [
        "L S S L S S",
        "ἢ νάποϲ Ἴϲθμιον,",
        [
            "176",
            "an"
        ]
    ],
    [
        "L S S L S S L L L L",
        "ὡϲ ἀναθήματα μὴ βλάπτηται",
        [
            "177",
            "an2"
        ]
    ],
    [
        "L L L L L",
        "ναοί θʼ οἱ Φοίβου 〈            〉.",
        [
            "178",
            "?"
        ]
    ],
    [
        "L L L L L L L",
        "κτείνειν δʼ ὑμᾶϲ αἰδοῦμαι",
        [
            "179",
            "par"
        ]
    ],
    [
        "L L L L L L L L",
        "τοὺϲ θεῶν ἀγγέλλονταϲ φήμαϲ",
        [
            "180",
            "an2"
        ]
    ],
    [
        "L L L L L L L L",
        "θνατοῖϲ· οἷϲ δʼ ἔγκειμαι μόχθοιϲ",
        [
            "181",
            "an2"
        ]
    ],
    [
        "L L L L L L L L",
        "Φοίβωι δουλεύϲω κοὐ λήξω",
        [
            "182",
            "an2"
        ]
    ],
    [
        "L L L L S S L L",
        "τοὺϲ βόϲκονταϲ θεραπεύων.",
        [
            "183",
            "par"
        ]
    ],
    [
        "L L L S S L S L",
        "οὐκ ἐν ταῖϲ ζαθέαιϲ Ἀθά-",
        [
            "184",
            "gly∫"
        ]
    ],
    [
        "L L L S S L S L",
        "ναιϲ εὐκίονεϲ ἦϲαν αὐ-",
        [
            "185",
            "gly∫"
        ]
    ],
    [
        "L S L S S L S L",
        "λαὶ θεῶν μόνον οὐδʼ ἀγυι-",
        [
            "186",
            "gly∫"
        ]
    ],
    [
        "L S L S S L L",
        "άτιδεϲ θεραπεῖαι·",
        [
            "187",
            "ph||H"
        ]
    ],
    [
        "L S L S S L S L",
        "ἀλλὰ καὶ παρὰ Λοξίαι",
        [
            "188a",
            "gly"
        ]
    ],
    [
        "L L L S S L S L",
        "τῶι Λατοῦϲ διδύμων προϲώ-",
        [
            "188b",
            "gly∫"
        ]
    ],
    [
        "L L L S S L L",
        "πων καλλιβλέφαρον φῶϲ.",
        [
            "189",
            "ph||"
        ]
    ],
    [
        "S L L S L L",
        "—    ἰδού, τᾶιδʼ ἄθρηϲον·",
        [
            "190",
            "ba2[^6]"
        ]
    ],
    [
        "L L S S L S L L",
        "Λερναῖον ὕδραν ἐναίρει",
        [
            "191",
            "hag"
        ]
    ],
    [
        "L L L L S S L L",
        "χρυϲέαιϲ ἅρπαιϲ ὁ Διὸϲ παῖϲ·",
        [
            "192",
            "oct"
        ]
    ],
    [
        "S L S S L L",
        "φίλα, πρόϲιδʼ ὄϲϲοιϲ.",
        [
            "193",
            "reiz"
        ]
    ],
    [
        "S L L S S L S L",
        "—    ὁρῶ. καὶ πέλαϲ ἄλλοϲ αὐ-",
        [
            "194",
            "gly∫"
        ]
    ],
    [
        "L L L S S L S L",
        "τοῦ πανὸν πυρίφλεκτον αἴ-",
        [
            "195",
            "gly∫"
        ]
    ],
    [
        "L S L S S L S L",
        "ρει τιϲ· ἆρʼ ὃϲ ἐμαῖϲι μυ-",
        [
            "196",
            "gly∫"
        ]
    ],
    [
        "L S L S S L L",
        "θεύεται παρὰ πήναιϲ,",
        [
            "197",
            "ph||Hs"
        ]
    ],
    [
        "L L L S S L S L",
        "ἀϲπιϲτὰϲ Ἰόλαοϲ, ὃϲ",
        [
            "198",
            "gly"
        ]
    ],
    [
        "L L L S S L S L",
        "κοινοὺϲ αἰρόμενοϲ πόνουϲ",
        [
            "199",
            "gly"
        ]
    ],
    [
        "S L L S S L L",
        "Δίωι παιδὶ ϲυναντλεῖ;",
        [
            "200",
            "ph||"
        ]
    ],
    [
        "L L L S L L",
        "〈—〉καὶ μὰν τόνδʼ ἄθρηϲον",
        [
            "201",
            "mol",
            "+",
            "ba"
        ]
    ],
    [
        "S L S S L S L L",
        "πτεροῦντοϲ ἔφεδρον ἵππου·",
        [
            "202",
            "hag"
        ]
    ],
    [
        "L L S L S S L L",
        "τὰν πῦρ πνέουϲαν ἐναίρει",
        [
            "203",
            "oct"
        ]
    ],
    [
        "S L S S L L",
        "τριϲώματον ἀλκάν.",
        [
            "204",
            "reiz"
        ]
    ],
    [
        "L L L S S L S L",
        "Χο. — πάνται τοι βλέφαρον διώ-",
        [
            "205",
            "gly∫"
        ]
    ],
    [
        "L L L S S L L L",
        "κω. ϲκέψαι κλόνον ἐν τείχεϲ-",
        [
            "206",
            "gly∫"
        ]
    ],
    [
        "S L S L S S L L",
        "ϲι λαΐνοιϲι Γιγάντων.",
        [
            "207",
            "oct"
        ]
    ],
    [
        "L S L S L L S L",
        "—    †ὧδε δερκόμεϲθʼ, ὦ φίλαι.†",
        [
            "208",
            "?"
        ]
    ],
    [
        "L L L S L S S L",
        "—    λεύϲϲειϲ οὖν ἐπʼ Ἐγκελάδωι",
        [
            "209",
            "wil"
        ]
    ],
    [
        "L L L L L S S L",
        "γοργωπὸν πάλλουϲαν ἴτυν …;",
        [
            "210",
            "wil"
        ]
    ],
    [
        "L L L S S L L",
        "—    λεύϲϲω Παλλάδʼ, ἐμὰν θεόν.",
        [
            "211",
            "ph||Ha"
        ]
    ],
    [
        "S L S L S L S S S",
        "—    τί γάρ; κεραυνὸν ἀμφίπυρον",
        [
            "212",
            "ia2"
        ]
    ],
    [
        "L S S L S N",
        "ὄβριμον ἐν Διὸϲ",
        [
            "213a",
            "doc||B"
        ]
    ],
    [
        "S L S L S L N",
        "ἑκηβόλοιϲι χερϲίν;",
        [
            "213b",
            "ia",
            "+",
            "ba||B"
        ]
    ],
    [
        "S L L L S L",
        "〈—    ὁρῶ· τὸν δάιον",
        [
            "214",
            "ba",
            "+",
            "cr"
        ]
    ],
    [
        "S L S S S S L S L",
        "Μίμαντα πυρὶ καταιθαλοῖ.",
        [
            "215",
            "ia2"
        ]
    ],
    [
        "L S S S L S S S S L",
        "〈—〉    καὶ Βρόμιοϲ ἄλλον ἀπολέμοι-",
        [
            "216",
            "ia2"
        ]
    ],
    [
        "S L S L S L L",
        "ϲι κιϲϲίνοιϲι βάκτροιϲ",
        [
            "217",
            "ia",
            "+",
            "ba"
        ]
    ],
    [
        "S L L L S L S L L",
        "ἐναίρει Γᾶϲ τέκνων ὁ Βακχεύϲ.",
        [
            "218",
            "ba",
            "+",
            "ith"
        ]
    ],
    [
        "S L L S S L S L",
        "〈—〉    ϲέ τοι, τὸν παρὰ ναὸν αὐ-",
        [
            "219",
            "gly∫"
        ]
    ],
    [
        "L S L S S L S L",
        "δῶ· θέμιϲ γυάλων ὑπερ-",
        [
            "220",
            "gly∫"
        ]
    ],
    [
        "L L L L S S L N",
        "βῆναι λευκῶι ποδί γʼ〈οὐδόν〉;",
        [
            "221a",
            "oct||"
        ]
    ],
    [
        "L S L S S L S L L L L",
        "†οὐδʼ ἂν ἐκ ϲέθεν ἂν πυθοίμαν αὐδάν;†",
        [
            "222",
            "?[^9]"
        ]
    ],
    [
        "S S L S S L",
        "Ιω. τίνα τήνδε θέλειϲ;",
        [
            "223a",
            "an"
        ]
    ],
    [
        "L L L S S L S L",
        "—    ἆρʼ ὄντωϲ μέϲον ὀμφαλὸν",
        [
            "223b",
            "gly"
        ]
    ],
    [
        "L L L S S L S L",
        "γᾶϲ Φοίβου κατέχει δόμοϲ;",
        [
            "223c",
            "gly"
        ]
    ],
    [
        "L S S L S S L S S L S S",
        "Ιω. ϲτέμμαϲί γʼ ἐνδυτόν, ἀμφὶ δὲ Γοργόνεϲ.",
        [
            "224",
            "an2"
        ]
    ],
    [
        "L L L S S L L",
        "—    οὕτω καὶ φάτιϲ αὐδᾶι.",
        [
            "225",
            "ph||Ha"
        ]
    ],
    [
        "L S S L S S S S L S S L",
        "Ιω. εἰ μὲν ἐθύϲατε πελανὸν πρὸ δόμων",
        [
            "226",
            "an2"
        ]
    ],
    [
        "L S S L L L S S L L",
        "καί τι πυθέϲθαι χρήιζετε Φοίβου,",
        [
            "227",
            "an2"
        ]
    ],
    [
        "S S L S S L S S L L L",
        "πάριτʼ ἐϲ θυμέλαϲ· ἐπὶ δʼ ἀϲφάκτοιϲ",
        [
            "228",
            "an2"
        ]
    ],
    [
        "L L S S L L S S L S S",
        "μήλοιϲι δόμων μὴ πάριτʼ ἐϲ μυχόν.",
        [
            "229",
            "an2"
        ]
    ],
    [
        "S L S L S L S S S",
        "—    ἔχω μαθοῦϲα· θεοῦ δὲ νόμον",
        [
            "230",
            "ia2"
        ]
    ],
    [
        "L S S L S N",
        "οὐ παραβαίνομεν,",
        [
            "231a",
            "doc||B"
        ]
    ],
    [
        "S L S L S L L",
        "ἃ δʼ ἐκτὸϲ ὄμμα τέρψει.",
        [
            "231b",
            "ia",
            "+",
            "ba"
        ]
    ],
    [
        "L S S L S S L S S L S S",
        "Ιω. πάντα θεᾶϲθʼ, ὅτι καὶ θέμιϲ, ὄμμαϲι.",
        [
            "232",
            "an2"
        ]
    ],
    [
        "S L L L S L",
        "—    μεθεῖϲαν δεϲπόται",
        [
            "233a",
            "ba",
            "+",
            "cr"
        ]
    ],
    [
        "S L S S S L S L",
        "με θεοῦ γύαλα τάδʼ εἰϲιδεῖν.",
        [
            "233b",
            "ia2"
        ]
    ],
    [
        "L L S S L L L S S L",
        "Ιω. δμωαὶ δὲ τίνων κλήιζεϲθε δόμων;",
        [
            "234",
            "an2"
        ]
    ],
    [
        "L S S S L S S S S S S",
        "—    Παλλάδι ϲύνοικα τρόφιμα μέλα-",
        [
            "235a",
            "ia2∫"
        ]
    ],
    [
        "S L S L S L L",
        "θρα τῶν ἐμῶν τυράννων·",
        [
            "235b",
            "ia",
            "+",
            "ba"
        ]
    ],
    [
        "S L L L S L S L L",
        "παρούϲαϲ δʼ ἀμφὶ τᾶϲδʼ ἐρωτᾶιϲ.",
        [
            "236",
            "ba",
            "+",
            "ith"
        ]
    ],
    [
        "S L L L L S S L",
        "Χο. ϲὲ τὰν ὠδίνων λοχιᾶν",
        [
            "452",
            "wil"
        ]
    ],
    [
        "S L L L S S L",
        "ἀνειλείθυιαν, ἐμὰν",
        [
            "453",
            "hept"
        ]
    ],
    [
        "S L L S S L L",
        "Ἀθάναν, ἱκετεύω,",
        [
            "454",
            "ph"
        ]
    ],
    [
        "S L L L L S S L",
        "Προμηθεῖ Τιτᾶνι λοχευ-",
        [
            "455",
            "wil∫"
        ]
    ],
    [
        "L L S L S S L",
        "θεῖϲαν κατʼ ἀκροτάταϲ",
        [
            "456",
            "hept"
        ]
    ],
    [
        "S S L S S L S L S L L",
        "κορυφᾶϲ Διόϲ, ὦ †μάκαιρα† Νίκα,",
        [
            "457",
            "?"
        ]
    ],
    [
        "S S L S S L N",
        "μόλε Πύθιον οἶκον,",
        [
            "458",
            "reiz||B"
        ]
    ],
    [
        "S L L L L S S L",
        "Ὀλύμπου χρυϲέων θαλάμων",
        [
            "459",
            "wil"
        ]
    ],
    [
        "S S L S S L L",
        "πταμένα πρὸϲ ἀγυιάϲ,",
        [
            "460",
            "reiz"
        ]
    ],
    [
        "L L S S L S L",
        "Φοιβήιοϲ ἔνθα γᾶϲ",
        [
            "461",
            "tel"
        ]
    ],
    [
        "S L S S L S L",
        "μεϲόμφαλοϲ ἑϲτία",
        [
            "462",
            "tel"
        ]
    ],
    [
        "S S S L S S L S S S",
        "παρὰ χορευομένωι τρίποδι",
        [
            "463",
            "gly"
        ]
    ],
    [
        "L L S S L L",
        "μαντεύματα κραίνει,",
        [
            "464",
            "reiz||"
        ]
    ],
    [
        "S L L L L S S L",
        "ϲὺ καὶ παῖϲ ἁ Λατογενήϲ,",
        [
            "465",
            "wil"
        ]
    ],
    [
        "S S S L S S L S L",
        "δύο θεαὶ δύο παρθένοι,",
        [
            "466",
            "gly"
        ]
    ],
    [
        "S L L L L L L L",
        "καϲίγνηται †ϲεμναὶ Φοίβου†.",
        [
            "467",
            "?[^10]"
        ]
    ],
    [
        "S S L S S L S L",
        "ἱκετεύϲατε δʼ, ὦ κόραι,",
        [
            "468",
            "T"
        ]
    ],
    [
        "S S L S S L S L",
        "τὸ παλαιὸν Ἐρεχθέωϲ",
        [
            "469",
            "T"
        ]
    ],
    [
        "S S L S S L S S L S S L",
        "γένοϲ εὐτεκνίαϲ χρονίου καθαροῖϲ",
        [
            "470",
            "A"
        ]
    ],
    [
        "L L S S L L",
        "μαντεύμαϲι κῦρϲαι.",
        [
            "471",
            "reiz"
        ]
    ],
    [
        "S L L L L S S L",
        "ὑπερβαλλούϲαϲ γὰρ ἔχει",
        [
            "472",
            "wil"
        ]
    ],
    [
        "L L L L S S L",
        "θνατοῖϲ εὐδαιμονίαϲ",
        [
            "473",
            "hept"
        ]
    ],
    [
        "S L L S S L L",
        "ἀκίνητον ἀφορμάν,",
        [
            "474",
            "ph"
        ]
    ],
    [
        "S L L L L S S L",
        "τέκνων οἷϲ ἂν καρποφόροι",
        [
            "475",
            "wil"
        ]
    ],
    [
        "L L S L S S L",
        "λάμπωϲιν ἐν θαλάμοιϲ",
        [
            "476",
            "hept"
        ]
    ],
    [
        "S S L S S L S S L L",
        "πατρίοιϲι νεάνιδεϲ ἧβαι,",
        [
            "477",
            "par"
        ]
    ],
    [
        "S S L S S L L",
        "διαδέκτορα πλοῦτον",
        [
            "478",
            "reiz||"
        ]
    ],
    [
        "L L L S L S S L",
        "ὡϲ ἕξοντεϲ ἐκ πατέρων",
        [
            "479",
            "wil"
        ]
    ],
    [
        "S S L S S L L",
        "ἑτέροιϲ ἐπὶ τέκνοιϲ.",
        [
            "480",
            "reiz"
        ]
    ],
    [
        "L L S S L S L",
        "ἄλκαρ τε γὰρ ἐν κακοῖϲ",
        [
            "481",
            "tel"
        ]
    ],
    [
        "L L S S L S L",
        "ϲύν τʼ εὐτυχίαιϲ φίλον",
        [
            "482",
            "tel"
        ]
    ],
    [
        "S S S L S S L S L",
        "δορί τε γᾶι πατρίαι φέρει",
        [
            "483",
            "gly"
        ]
    ],
    [
        "L L S S L L",
        "ϲωτήριον ἀλκάν.",
        [
            "484",
            "reiz||"
        ]
    ],
    [
        "S L L L L S S L",
        "ἐμοὶ μὲν πλούτου τε πάροϲ",
        [
            "485",
            "wil"
        ]
    ],
    [
        "S S S L L L S S L",
        "βαϲιλικῶν τʼ εἶεν θαλάμων",
        [
            "486",
            "wil"
        ]
    ],
    [
        "S L L L L L L S L L",
        "†τροφαὶ κήδειοι κεδνῶν γε τέκνων†.",
        [
            "487",
            "?[^11]"
        ]
    ],
    [
        "S S L S S L S L",
        "τὸν ἄπαιδα δʼ ἀποϲτυγῶ",
        [
            "488",
            "T"
        ]
    ],
    [
        "S S L S S L S L",
        "βίον, ὧι τε δοκεῖ ψέγω·",
        [
            "489",
            "T"
        ]
    ],
    [
        "S S L S S L S S L S S L",
        "μετὰ δὲ κτεάνων μετρίων βιοτᾶϲ",
        [
            "490",
            "A"
        ]
    ],
    [
        "L L S S L L",
        "εὔπαιδοϲ ἐχοίμαν.",
        [
            "491",
            "reiz"
        ]
    ],
    [
        "L L L L L S S L",
        "ὦ Πανὸϲ θακήματα καὶ",
        [
            "492",
            "wil"
        ]
    ],
    [
        "S L L L S S L",
        "παραυλίζουϲα πέτρα",
        [
            "493",
            "hept"
        ]
    ],
    [
        "L L S S L L",
        "μυχώδεϲι Μακραῖϲ,",
        [
            "494",
            "reiz||"
        ]
    ],
    [
        "S S S L L L S S L",
        "ἵνα χοροὺϲ ϲτείβουϲι ποδοῖν",
        [
            "495",
            "wil"
        ]
    ],
    [
        "L L L S L S S L",
        "Ἀγλαύρου κόραι τρίγονοι",
        [
            "496",
            "wil"
        ]
    ],
    [
        "S S S S S S S L S L",
        "ϲτάδια χλοερὰ πρὸ Παλλάδοϲ",
        [
            "497",
            "ia2"
        ]
    ],
    [
        "L L L L L",
        "ναῶν ϲυρίγγων",
        [
            "498",
            "doc?"
        ]
    ],
    [
        "S L S L S S L",
        "ὑπʼ αἰόλαϲ ἰαχᾶϲ",
        [
            "499",
            "hept"
        ]
    ],
    [
        "L L S S L S L",
        "†ὕμνων† ὅτʼ ἀναλίοιϲ",
        [
            "500",
            "tel?"
        ]
    ],
    [
        "L L L L L",
        "ϲυρίζειϲ, ὦ Πάν,",
        [
            "501",
            "doc?"
        ]
    ],
    [
        "L S L S L L",
        "τοῖϲι ϲοῖϲ ἐν ἄντροιϲ,",
        [
            "502",
            "ith||"
        ]
    ],
    [
        "S S S L S L",
        "ἵνα τεκοῦϲά τιϲ",
        [
            "503a",
            "hypodoc?"
        ]
    ],
    [
        "L S L S S L S L",
        "παρθένοϲ μελέα βρέφοϲ",
        [
            "503b",
            "gly"
        ]
    ],
    [
        "L L L L L S S L",
        "Φοίβωι πτανοῖϲ ἐξόριϲεν",
        [
            "504",
            "wil"
        ]
    ],
    [
        "L L L S S L S L",
        "θοίναν θηρϲί τε φοινίαν",
        [
            "505",
            "gly"
        ]
    ],
    [
        "L S S L S L S L",
        "δαῖτα, πικρῶν γάμων ὕβριν.",
        [
            "506",
            "ch",
            "+",
            "ia"
        ]
    ],
    [
        "L S S L S S L S S L S S",
        "οὔτʼ ἐπὶ κερκίϲιν οὔτε λόγων φάτιν",
        [
            "507",
            "da4"
        ]
    ],
    [
        "L S S L S S L S S L S S L S S L L",
        "ἄιον εὐτυχίαϲ μετέχειν θεόθεν τέκνα θνατοῖϲ.",
        [
            "508-9",
            "da6"
        ]
    ],
    [
        "S L S S S L L S L",
        "Χο. ὁρῶ δάκρυα καὶ πενθίμουϲ",
        [
            "676",
            "doc",
            "+",
            "cr"
        ]
    ],
    [
        "S S S L S L S L L S L",
        "〈ἀλαλαγὰϲ〉 ϲτεναγμάτων τʼ ἐϲβολάϲ,",
        [
            "677",
            "doc2[^12]"
        ]
    ],
    [
        "S S S L S L S L L S L",
        "ὅταν ἐμὰ τύραννοϲ εὐπαιδίαν",
        [
            "678",
            "doc2"
        ]
    ],
    [
        "S S S L L L",
        "πόϲιν ἔχοντʼ εἰδῆι,",
        [
            "679",
            "doc||Hs"
        ]
    ],
    [
        "L L S L L L S L S L S L",
        "αὐτὴ δʼ ἄπαιϲ ἦι καὶ λελειμμένη τέκνων.",
        [
            "680",
            "ia3"
        ]
    ],
    [
        "S L L S L S L L S L",
        "τίνʼ, ὦ παῖ πρόμαντι Λατοῦϲ, ἔχρη-",
        [
            "681",
            "doc2∫"
        ]
    ],
    [
        "S L L S L",
        "ϲαϲ ὑμνωιδίαν;",
        [
            "682",
            "doc"
        ]
    ],
    [
        "S S S L S L S L L S L",
        "πόθεν ὁ παῖϲ ὅδʼ ἀμφὶ ναοὺϲ ϲέθεν",
        [
            "683",
            "doc2"
        ]
    ],
    [
        "S S S L S L S L L S N",
        "τρόφιμοϲ ἐξέβα; γυναικῶν τίνοϲ;",
        [
            "684",
            "doc2||"
        ]
    ],
    [
        "L L S L L L S S L S S L S L",
        "οὐ γάρ με ϲαίνει θέϲφατα μή τινʼ ἔχηι δόλον.",
        [
            "685-6",
            "‒e‒ibyc"
        ]
    ],
    [
        "L L L L S L",
        "δειμαίνω ϲυμφοράν,",
        [
            "687-8",
            "mol",
            "+",
            "cr"
        ]
    ],
    [
        "S S S S S L S L",
        "ἐφʼ ὅ〈τι〉 ποτὲ βάϲεται.",
        [
            "689",
            "cr2?||Hs"
        ]
    ],
    [
        "S S S S S S L S S S L S L",
        "ἄτοποϲ ἄτοπα γὰρ παραδίδωϲί μοι",
        [
            "690",
            "doc2"
        ]
    ],
    [
        "S S S L L L",
        "τάδε θεοῦ φήμα.",
        [
            "691",
            "doc"
        ]
    ],
    [
        "S L S L S L S L",
        "πλέκει δόλον τέχναν θʼ ὁ παῖϲ",
        [
            "692",
            "ia2||"
        ]
    ],
    [
        "L L S L L L S L",
        "ἄλλων τραφεὶϲ ἐξ αἱμάτων.",
        [
            "693",
            "ia2"
        ]
    ],
    [
        "S L S L S L S L",
        "τίϲ οὐ τάδε ξυνοίϲεται;",
        [
            "694",
            "ia2|||"
        ]
    ],
    [
        "S L S S S L L L L",
        "φίλαι, πότερʼ ἐμᾶι δεϲποίναι",
        [
            "695",
            "doc",
            "+",
            "mol"
        ]
    ],
    [
        "S S S L S L S L L S L",
        "τάδε τορῶϲ ἐϲ οὖϲ γεγωνήϲομεν",
        [
            "696",
            "doc2"
        ]
    ],
    [
        "S S S L S L S L L S L",
        "†πόϲιν ἐν ὧι τὰ πάντʼ ἔχουϲʼ ἐλπίδων",
        [
            "697",
            "?[^13]"
        ]
    ],
    [
        "S S S L L L",
        "μέτοχοϲ ἦν τλάμων†;",
        [
            "698",
            "?"
        ]
    ],
    [
        "L L S L L L S L S L S L",
        "νῦν δʼ ἡ μὲν ἔρρει ϲυμφοραῖϲ, ὁ δʼ εὐτυχεῖ,",
        [
            "699",
            "ia3"
        ]
    ],
    [
        "S S S L S L S L L S L",
        "πόλιον ἐϲπεϲοῦϲα γῆραϲ, πόϲιϲ δʼ",
        [
            "700",
            "doc2"
        ]
    ],
    [
        "S S S L S L",
        "ἀτίετοϲ φίλων.",
        [
            "701",
            "doc"
        ]
    ],
    [
        "S S S L S L S L L S L",
        "μέλεοϲ, ὃϲ θυραῖοϲ ἐλθὼν δόμουϲ",
        [
            "702",
            "doc2"
        ]
    ],
    [
        "S S S L S L S L L S L",
        "μέγαν ἐϲ ὄλβον οὐκ ἴϲωϲεν τύχαϲ.",
        [
            "703-4",
            "doc2||"
        ]
    ],
    [
        "S L S L S L S S L S S L S L",
        "ὄλοιτʼ ὄλοιτο πότνιαν ἐξαπαφὼν ἐμάν,",
        [
            "705",
            "⏑e⏑ibyc"
        ]
    ],
    [
        "L L L L S L",
        "καὶ θεοῖϲιν μὴ τύχοι",
        [
            "706",
            "mol",
            "+",
            "cr"
        ]
    ],
    [
        "L S S S S S S S S",
        "καλλίφλογα πελανὸν ἐπὶ",
        [
            "707",
            "cr2?||Hs"
        ]
    ],
    [
        "S S S L S L S S S L S L",
        "πυρὶ καθαγνίϲαϲ· τὸ δʼ ἐμὸν εἴϲεται",
        [
            "708-9",
            "doc2"
        ]
    ],
    [
        "S L S L S L",
        "〉 τυραννίδοϲ φίλα.",
        [
            "710",
            "||H"
        ]
    ],
    [
        "L L S L L L S L",
        "ἤδη πέλαϲ δεινῶν κυρεῖ",
        [
            "711",
            "ia2"
        ]
    ],
    [
        "L L S L S L S L",
        "παῖϲ καὶ πατὴρ νέοϲ νέου.",
        [
            "712",
            "ia2"
        ]
    ],
    [
        "S L L S L L L L S L",
        "ἰὼ δειράδεϲ Παρναϲοῦ πέτραϲ",
        [
            "713-4",
            "doc2"
        ]
    ],
    [
        "S L L S S S L S S L S L",
        "ἔχουϲαι ϲκόπελον οὐράνιόν θʼ ἕδραν,",
        [
            "715",
            "doc2"
        ]
    ],
    [
        "S S L S S L S S L S S L L L",
        "ἵνα Βάκχιοϲ ἀμφιπύρουϲ ἀνέχων πεύκαϲ",
        [
            "716",
            "A",
            "+",
            "sp"
        ]
    ],
    [
        "L L S L L L S S L S S L L L",
        "λαιψηρὰ πηδᾶι νυκτιπόλοιϲ ἅμα ϲὺν Βάκχαιϲ.",
        [
            "717-8",
            "‒e‒ibyc^chol^"
        ]
    ],
    [
        "L S S L S L S S S L S L",
        "μή 〈τί〉 ποτʼ εἰϲ ἐμὰν πόλιν ἵκοιθʼ ὁ παῖϲ,",
        [
            "719",
            "doc2"
        ]
    ],
    [
        "S L L S L S S S L S L",
        "νέαν δʼ ἁμέραν ἀπολιπὼν θάνοι.",
        [
            "720",
            "doc2"
        ]
    ],
    [
        "S S S L S L S S S L L L",
        "ϲτεγομένα γὰρ ἂν πόλιϲ ἔχοι ϲκῆψιν",
        [
            "721",
            "doc2"
        ]
    ],
    [
        "S S S L S L",
        "ξενικὸν ἐϲβολάν 〈",
        [
            "722a",
            "doc2"
        ]
    ],
    [
        "S S L S S S L L S L",
        "†ἁλίϲαϲ† ὁ πάροϲ ἀρχαγὸϲ ὢν",
        [
            "723",
            "?"
        ]
    ],
    [
        "S L L S L",
        "Ἐρεχθεὺϲ ἄναξ.",
        [
            "724",
            "doc"
        ]
    ],
    [
        "S L L S",
        "Χο. ἰὼ τλᾶμον.",
        [
            "754",
            "e.m.[^16]"
        ]
    ],
    [
        "L L S L L L S L S L S L",
        "Κρ. ἀλλʼ ἦ τι θεϲφάτοιϲι δεϲποτῶν νοϲεῖ;",
        [
            "755",
            "ia3"
        ]
    ],
    [
        "L L S L L S S S L L L S N",
        "Χο. αἰαῖ· τί δρῶμεν θάνατοϲ ὧν κεῖται πέρι;",
        [
            "756",
            "ia3"
        ]
    ],
    [
        "S L S L S L S L S L S N",
        "Κρ. τίϲ ἥδε μοῦϲα χὠ φόβοϲ τίνων πέρι;",
        [
            "757",
            "ia3"
        ]
    ],
    [
        "L L S L S L S L S L S N",
        "Χο. εἴπωμεν ἢ ϲιγῶμεν ἢ τί δράϲομεν;",
        [
            "758",
            "ia3||B"
        ]
    ],
    [
        "L L S L S L S L S L S N",
        "Κρ. εἴφʼ· ὡϲ ἔχειϲ γε ϲυμφοράν τινʼ εἰϲ ἐμέ.",
        [
            "759",
            "ia3||BH"
        ]
    ],
    [
        "L L S L L L S L L L S L",
        "Χο. εἰρήϲεταί τοι, κεἰ θανεῖν μέλλω διπλῆι.",
        [
            "760",
            "ia3"
        ]
    ],
    [
        "L L S L L L S L L L S L",
        "οὐκ ἔϲτι ϲοι, δέϲποινʼ, ἐπʼ ἀγκάλαιϲ λαβεῖν",
        [
            "761",
            "ia3"
        ]
    ],
    [
        "L L S L L L S L S L S N",
        "τέκνʼ οὐδὲ μαϲτῶι ϲῶι προϲαρμόϲαι ποτέ.",
        [
            "762",
            "ia3||BH"
        ]
    ],
    [
        "L L S L N",
        "Κρ. ὤμοι θάνοιμι.",
        [
            "763a",
            "pe[^17]"
        ]
    ],
    [
        "S L L S L S S S S S S S S",
        "ἐγὼ ϲυμφορᾶϲ, ἔλαβον ἔπαθον ἄχοϲ",
        [
            "764a",
            "doc2"
        ]
    ],
    [
        "S S S L S L",
        "ἀβίοτον, φίλαι.",
        [
            "764b",
            "doc"
        ]
    ],
    [
        "S L S L S L N",
        "διοιχόμεϲθα. Πρ. τέκνον.",
        [
            "765",
            "ia",
            "+",
            "ba||"
        ]
    ],
    [
        "S L S L",
        "Κρ. αἰαῖ αἰαῖ·",
        [
            "766",
            "ia"
        ]
    ],
    [
        "S L L S S S S S S L S L",
        "διανταῖοϲ ἔτυπεν ὀδύνα με πλευ-",
        [
            "767",
            "doc2∫"
        ]
    ],
    [
        "S L L S L",
        "μόνων τῶνδʼ ἔϲω.",
        [
            "768",
            "doc"
        ]
    ],
    [
        "L L S L L L S S L S S L",
        "Πρ. μήπω ϲτενάξηιϲ Κρ. ἀλλὰ πάρειϲι γόοι.",
        [
            "769",
            "‒e‒D"
        ]
    ],
    [
        "S L S L S L S S L S S L",
        "Πρ. πρὶν ἂν μάθωμεν Κρ. ἀγγελίαν τίνα μοι;",
        [
            "770",
            "⏑e⏑D"
        ]
    ],
    [
        "L L S L L L S L L L S L",
        "Πρ. εἰ ταὐτὰ πράϲϲων δεϲπότηϲ τῆϲ ϲυμφορᾶϲ",
        [
            "771",
            "ia3"
        ]
    ],
    [
        "L L S L S L S L S L S L",
        "κοινωνόϲ ἐϲτιν ἢ μόνη ϲὺ δυϲτυχεῖϲ.",
        [
            "772-3",
            "ia3"
        ]
    ],
    [
        "L L S L S L S L S L S L",
        "Χο. κείνωι μέν, ὦ γεραιέ, παῖδα Λοξίαϲ",
        [
            "774",
            "ia3"
        ]
    ],
    [
        "S L S S S L L S L L L S L",
        "ἔδωκεν, ἰδίαι δʼ εὐτυχεῖ ταύτηϲ δίχα.",
        [
            "775",
            "ia3"
        ]
    ],
    [
        "S S S L S S S S S S S S S S S",
        "Κρ. τόδʼ ἐπὶ τῶιδε κακὸν ἄκρον ἔλακεϲ 〈ἔλακεϲ〉",
        [
            "776",
            "doc2"
        ]
    ],
    [
        "S S S L S L",
        "ἄχοϲ ἐμοὶ ϲτένειν.",
        [
            "777",
            "doc"
        ]
    ],
    [
        "S S S S L L L S L S L S L",
        "Πρ. πότερα δὲ φῦναι δεῖ γυναικὸϲ ἔκ τινοϲ",
        [
            "778",
            "ia3"
        ]
    ],
    [
        "L L S L S L S L S L S N",
        "τὸν παῖδʼ ὃν εἶπαϲ ἢ γεγῶτʼ ἐθέϲπιϲεν;",
        [
            "779",
            "ia3"
        ]
    ],
    [
        "L L S L S L S L S L S L",
        "Χο. ἤδη πεφυκότʼ ἐκτελῆ νεανίαν",
        [
            "780",
            "ia3"
        ]
    ],
    [
        "S L S L L L S L S L S L",
        "δίδωϲιν αὐτῶι Λοξίαϲ· παρῆ δʼ ἐγώ.",
        [
            "781",
            "ia3"
        ]
    ],
    [
        "L L S S S S S S S L L L",
        "Κρ. πῶϲ φήιϲ; †ἄφατον ἄφατον† ἀναύδητον",
        [
            "782-3",
            "?"
        ]
    ],
    [
        "S S S L S L",
        "λόγον ἑμοὶ θροεῖϲ.",
        [
            "784",
            "doc"
        ]
    ],
    [
        "L L S L S L S L S L S L",
        "Πρ. κἄμοιγε. πῶϲ δʼ ὁ χρηϲμὸϲ ἐκπεραίνεται",
        [
            "785",
            "ia3"
        ]
    ],
    [
        "S L S L L L S L S L S L",
        "ϲαφέϲτερόν μοι φράζε χὤϲτιϲ ἔϲθʼ ὁ παῖϲ.",
        [
            "786",
            "ia3"
        ]
    ],
    [
        "S L S L L L S L S L S L",
        "Χο. ὅτωι ξυναντήϲειεν ἐκ θεοῦ ϲυθεὶϲ",
        [
            "787",
            "ia3"
        ]
    ],
    [
        "L L S L L L S L L L S N",
        "πρώτωι πόϲιϲ ϲόϲ, παῖδʼ ἔδωκʼ αὐτῶι θεόϲ.",
        [
            "788-9",
            "ia3"
        ]
    ],
    [
        "S S S L S S S S S S S S S S S",
        "Κρ. ὀτοτοτοῖ· τὸν ἐμὸν ἄτεκνον ἄτεκνον ἔλακʼ",
        [
            "790",
            "doc2"
        ]
    ],
    [
        "S S S S S S L S L L S L",
        "ἄρα βίοτον, ἐρημίαι δʼ ὀρφανοὺϲ",
        [
            "791a",
            "doc2"
        ]
    ],
    [
        "S L L L L",
        "δόμουϲ οἰκήϲω.",
        [
            "791b",
            "doc"
        ]
    ],
    [
        "S L S L L L S L L L S L",
        "Πρ. τίϲ οὖν ἐχρήϲθη; τῶι ϲυνῆψʼ ἵχνοϲ ποδὸϲ",
        [
            "792",
            "ia3"
        ]
    ],
    [
        "S L S L L L S L S L S L",
        "πόϲιϲ ταλαίνηϲ; πῶϲ δὲ ποῦ νιν εἰϲιδών;",
        [
            "793",
            "ia3"
        ]
    ],
    [
        "L L S L L L S L S L S L",
        "Χο. οἶϲθʼ, ὦ φίλη δέϲποινα, τὸν νεανίαν",
        [
            "794",
            "ia3"
        ]
    ],
    [
        "L L S L S L S L S L S L",
        "ὃϲ τόνδʼ ἔϲαιρε ναόν; οὗτόϲ ἐϲθʼ ὁ παῖϲ.",
        [
            "795",
            "ia3"
        ]
    ],
    [
        "S S S L L L L S S L L L",
        "Κρ. ἀνʼ ὑγρὸν ἀμπταίην αἰθέρα πόρϲω γαί-",
        [
            "796",
            "doc2∫"
        ]
    ],
    [
        "L L L S L L S S L S L",
        "αϲ Ἑλλανίαϲ ἀϲτέραϲ ἑϲπέρουϲ,",
        [
            "797-8",
            "doc2"
        ]
    ],
    [
        "L S L S L S S S L S L",
        "οἷον οἷον ἄλγοϲ ἔπαθον, φίλαι.",
        [
            "799",
            "hypodoc",
            "+",
            "doc"
        ]
    ],
    [
        "L L L L L L L",
        "Κρ. ὦ ψυχά, πῶϲ ϲιγάϲω;",
        [
            "859",
            "par"
        ]
    ],
    [
        "L L S S L S S L L",
        "πῶϲ δὲ ϲκοτίαϲ ἀναφήνω",
        [
            "860",
            "par||H"
        ]
    ],
    [
        "L L L L S S L L",
        "εὐνάϲ, αἰδοῦϲ δʼ ἀπολειφθῶ;",
        [
            "861",
            "par"
        ]
    ],
    [
        "S S L S S L L L S S L",
        "τί γὰρ ἐμπόδιον κώλυμʼ ἔτι μοι;",
        [
            "862",
            "an2"
        ]
    ],
    [
        "L S S L L S S L S S L",
        "πρὸϲ τίνʼ ἀγῶναϲ τιθέμεϲθʼ ἀρετῆϲ;",
        [
            "863",
            "an2"
        ]
    ],
    [
        "L S S L L S S L S S L",
        "οὐ πόϲιϲ ἡμῶν προδότηϲ γέγονεν;",
        [
            "864",
            "an2"
        ]
    ],
    [
        "S S L L L S S L L L",
        "ϲτέρομαι δʼ οἴκων, ϲτέρομαι παίδων,",
        [
            "865",
            "an2"
        ]
    ],
    [
        "L L L S S L S S L L",
        "φροῦδαι δʼ ἐλπίδεϲ, ἃϲ διαθέϲθαι",
        [
            "866",
            "an2"
        ]
    ],
    [
        "L L S S L L S S L L",
        "χρήιζουϲα καλῶϲ οὐκ ἐδυνήθην,",
        [
            "867",
            "an2"
        ]
    ],
    [
        "L L S S L",
        "ϲιγῶϲα γάμουϲ,",
        [
            "868",
            "an"
        ]
    ],
    [
        "L L S S L S S L L",
        "ϲιγῶϲα τόκουϲ πολυκλαύτουϲ.",
        [
            "869",
            "par"
        ]
    ],
    [
        "L L S S L S S L S S L",
        "ἀλλʼ οὐ τὸ Διὸϲ πολύαϲτρον ἕδοϲ.",
        [
            "870",
            "an2"
        ]
    ],
    [
        "L L S S L S S L S S L",
        "καὶ τὴν ἐπʼ ἐμοῖϲ ϲκοπέλοιϲι θεὰν",
        [
            "871",
            "an2"
        ]
    ],
    [
        "L L S S L L L S S L",
        "λίμνηϲ τʼ ἐνύδρου Τριτωνιάδοϲ",
        [
            "872",
            "an2"
        ]
    ],
    [
        "S S L L L",
        "πότνιαν ἀκτήν,",
        [
            "873",
            "an"
        ]
    ],
    [
        "L S S L L S S L L L",
        "οὐκέτι κρύψω λέχοϲ, ὃ ϲτέρνων",
        [
            "874",
            "an2"
        ]
    ],
    [
        "S S L S S L L L S S L",
        "ἀπονηϲαμένη ῥάιων ἔϲομαι.",
        [
            "875",
            "an2"
        ]
    ],
    [
        "L L S S L S S L S S L",
        "ϲτάζουϲι κόραι δακρύοιϲιν ἐμαί,",
        [
            "876",
            "an2"
        ]
    ],
    [
        "L L L L S S L L L",
        "ψυχὴ δʼ ἀλγεῖ κακοβουληθεῖϲʼ",
        [
            "877",
            "an2"
        ]
    ],
    [
        "L L L L L L S S L",
        "ἔκ τʼ ἀνθρώπων ἔκ τʼ ἀθανάτων,",
        [
            "878",
            "an2"
        ]
    ],
    [
        "L S S L L",
        "οὓϲ ἀποδείξω",
        [
            "879",
            "an"
        ]
    ],
    [
        "L L S S L S S L L",
        "λέκτρων προδόταϲ ἀχαρίϲτουϲ.",
        [
            "880",
            "par"
        ]
    ],
    [
        "L L L L L L L L",
        "ὦ τᾶϲ ἑπταφθόγγου μέλπων",
        [
            "881",
            "an2"
        ]
    ],
    [
        "S S L S S L L L L L",
        "κιθάραϲ ἐνοπάν, ἅτʼ ἀγραύλοιϲ",
        [
            "882",
            "an2"
        ]
    ],
    [
        "S S L S S L L L L L",
        "κεράεϲϲιν ἐν ἀψύχοιϲ ἀχεῖ",
        [
            "883",
            "an2"
        ]
    ],
    [
        "L L L L L L L L",
        "μουϲᾶν ὕμνουϲ εὐαχήτουϲ,",
        [
            "884",
            "an2"
        ]
    ],
    [
        "L L L L L L L",
        "ϲοὶ μομφάν, ὦ Λατοῦϲ παῖ,",
        [
            "885",
            "par"
        ]
    ],
    [
        "L L L L L L L",
        "πρὸϲ τάνδʼ αὐγὰν αὐδάϲω.",
        [
            "886",
            "par||H"
        ]
    ],
    [
        "L L L L L L L",
        "ἦλθέϲ μοι χρυϲῶι χαίταν",
        [
            "887",
            "par"
        ]
    ],
    [
        "L L L L L L L",
        "μαρμαίρων, εὖτʼ ἐϲ κόλπουϲ",
        [
            "888",
            "par"
        ]
    ],
    [
        "S S S S S S S S S S S S",
        "κρόκεα πέταλα φάρεϲιν ἔδρεπον",
        [
            "889",
            "ia2"
        ]
    ],
    [
        "L L L L L L L",
        "†ἀνθίζειν† χρυϲανταυγῆ·",
        [
            "890",
            "par?[^20]"
        ]
    ],
    [
        "L L L L L L L",
        "λευκοῖϲ δʼ ἐμφὺϲ καρποῖϲιν",
        [
            "891",
            "par"
        ]
    ],
    [
        "L L L L L L L",
        "χειρῶν εἰϲ ἄντρου κοίταϲ",
        [
            "892",
            "par"
        ]
    ],
    [
        "L L L L L L L L",
        "κραυγὰν Ὦ μᾶτέρ μʼ αὐδῶϲαν",
        [
            "893",
            "an2"
        ]
    ],
    [
        "S S S L S L",
        "θεὸϲ ὁμευνέταϲ",
        [
            "894",
            "doc"
        ]
    ],
    [
        "L S S L L L",
        "ἆγεϲ ἀναιδείαι",
        [
            "895",
            "doc"
        ]
    ],
    [
        "S S S S L L L",
        "Κύπριδι χάριν πράϲϲων.",
        [
            "896",
            "doc"
        ]
    ],
    [
        "L L L L L L L",
        "τίκτω δʼ ἁ δύϲτανόϲ ϲοι",
        [
            "897",
            "par"
        ]
    ],
    [
        "L L L L L L L",
        "κοῦρον, τὸν φρίκαι ματρὸϲ",
        [
            "898",
            "par"
        ]
    ],
    [
        "L L L L L L L",
        "βάλλω τὰν ϲὰν εἰϲ εὐνάν,",
        [
            "899",
            "par"
        ]
    ],
    [
        "S S L S S L S S L S S L",
        "ἵνα μʼ ἐν λέχεϲιν μελέαν μελέοιϲ",
        [
            "900",
            "an2"
        ]
    ],
    [
        "L L L L L L N",
        "ἐζεύξω τὰν δύϲτανον.",
        [
            "901",
            "par"
        ]
    ],
    [
        "L L L L L L L",
        "οἴμοι μοι· καὶ νῦν ἔρρει",
        [
            "902",
            "par"
        ]
    ],
    [
        "L L L L L L L",
        "πτανοῖϲ ἁρπαϲθεὶϲ θοίνα",
        [
            "903",
            "par"
        ]
    ],
    [
        "L L L L",
        "παῖϲ μοι καὶ ϲοί.",
        [
            "904",
            "an"
        ]
    ],
    [
        "L L S S L S S L L L",
        "τλᾶμον, ϲὺ δὲ 〈καὶ〉 κιθάραι κλάζειϲ",
        [
            "905",
            "an2"
        ]
    ],
    [
        "L L L L L",
        "παιᾶναϲ μέλπων.",
        [
            "906",
            "doc"
        ]
    ],
    [
        "L L L L L L L",
        "ὠή, τὸν Λατοῦϲ αὐδῶ,",
        [
            "907",
            "par||H"
        ]
    ],
    [
        "L L L L L",
        "ὅϲτʼ ὀμφὰν κληροῖϲ",
        [
            "908",
            "doc"
        ]
    ],
    [
        "L L S L L L",
        "†πρὸϲ χρυϲέουϲ θάκουϲ†",
        [
            "909",
            "?"
        ]
    ],
    [
        "L L L L L L L L",
        "καὶ γαίαϲ μεϲϲήρειϲ ἕδραϲ.",
        [
            "910",
            "an2"
        ]
    ],
    [
        "L L L L L L L",
        "ἐϲ φῶϲ αὐδὰν καρύξω·",
        [
            "911",
            "par"
        ]
    ],
    [
        "L L L L S S L L L",
        "Ἰὼ 〈ἰὼ〉 κακὸϲ εὐνάτωρ,",
        [
            "912",
            "an2"
        ]
    ],
    [
        "L L S S L L L L",
        "ὃϲ τῶι μὲν ἐμῶι νυμφεύται",
        [
            "913",
            "par"
        ]
    ],
    [
        "S S L S S L",
        "χάριν οὐ προλαβὼν",
        [
            "914",
            "an"
        ]
    ],
    [
        "L L L L L L L",
        "παῖδʼ εἰϲ οἴκουϲ οἰκίζειϲ·",
        [
            "915",
            "par"
        ]
    ],
    [
        "S S L S S L L S S S L",
        "ὁ δʼ ἐμὸϲ γενέταϲ καὶ ϲὸϲ †ἀμαθὴϲ†",
        [
            "916",
            "?"
        ]
    ],
    [
        "L L L L L L L L",
        "οἰωνοῖϲ ἔρρει ϲυλαθείϲ,",
        [
            "917",
            "an2"
        ]
    ],
    [
        "L S S L S S L L L L",
        "ϲπάργανα ματέροϲ ἐξαλλάξαϲ.",
        [
            "918",
            "an2"
        ]
    ],
    [
        "L L L L L L L L",
        "μιϲεῖ ϲʼ ἁ Δᾶλοϲ καὶ δάφναϲ",
        [
            "919",
            "an2"
        ]
    ],
    [
        "L S S L S S S L S S L",
        "ἔρνεα φοίνικα παρʼ ἁβροκόμαν,",
        [
            "920",
            "an2"
        ]
    ],
    [
        "L S S L S S L S S L S S",
        "ἔνθα λοχεύματα ϲέμνʼ ἐλοχεύϲατο",
        [
            "921",
            "an2"
        ]
    ],
    [
        "L L L L S S L L",
        "Λατὼ Δίοιϲί ϲε κάποιϲ.",
        [
            "922",
            "par"
        ]
    ],
    [
        "L S S L S S L L L S L L",
        "Χο. Εἰνοδία θύγατερ Δάματροϲ, ἃ τῶν",
        [
            "1048",
            "D‒e‒"
        ]
    ],
    [
        "L S S L S S L S L L",
        "νυκτιπόλων ἐφόδων ἀνάϲϲειϲ,",
        [
            "1049",
            "decasyll"
        ]
    ],
    [
        "L S L S S L",
        "καὶ μεθαμερίων",
        [
            "1050",
            "hex"
        ]
    ],
    [
        "S L L L S S L",
        "ὅδωϲον δυϲθανάτων",
        [
            "1051",
            "hept"
        ]
    ],
    [
        "L L L L L S S L S L L",
        "κρατήρων πληρώματʼ ἐφʼ οἷϲι πέμπει",
        [
            "1052-3",
            "wil",
            "+",
            "ba||"
        ]
    ],
    [
        "S S S S S S L S S L",
        "πότνια πότνιʼ ἐμὰ χθονίαϲ",
        [
            "1054",
            "ia",
            "+",
            "ch"
        ]
    ],
    [
        "L L L S S L S L S L L",
        "Γοργοῦϲ λαιμοτόμων ἀπὸ ϲταλαγμῶν",
        [
            "1055",
            "phal"
        ]
    ],
    [
        "L L S L S S L",
        "τῶι τῶν Ἐρεχθεϊδᾶν",
        [
            "1056",
            "hept"
        ]
    ],
    [
        "S L S L S S L",
        "δόμων ἐφαπτομένωι·",
        [
            "1057",
            "hept"
        ]
    ],
    [
        "L S S L S L",
        "μηδέ ποτʼ ἄλλοϲ ἥ-",
        [
            "1058",
            "dod∫"
        ]
    ],
    [
        "L S L S L L",
        "κων πόλεωϲ ἀνάϲϲοι",
        [
            "1059",
            "ar"
        ]
    ],
    [
        "L L L S S L S L L L",
        "πλὴν τῶν εὐγενετᾶν Ἐρεχθειδᾶν.",
        [
            "1060",
            "gly",
            "+",
            "sp"
        ]
    ],
    [
        "L S S L S S L L L S L L",
        "εἰ δʼ ἀτελὴϲ θάνατοϲ ϲπουδαί τε δεϲποί-",
        [
            "1061",
            "D‒e‒∫"
        ]
    ],
    [
        "L S S L S S L S L L",
        "ναϲ ὅ τε καιρὸϲ ἄπειϲι τόλμαϲ,",
        [
            "1062",
            "decasyll"
        ]
    ],
    [
        "L L L S S L",
        "ἇι νῦν ἐλπὶϲ ἐφαί-",
        [
            "1063",
            "hex∫"
        ]
    ],
    [
        "S L L L S S L",
        "νετʼ, ἢ θηκτὸν ξίφοϲ ἢ",
        [
            "1064",
            "hept"
        ]
    ],
    [
        "L L L L L S S L S L L",
        "λαιμῶν ἐξάψει βροχὸν ἀμφὶ δειράν,",
        [
            "1065-6",
            "wil",
            "+",
            "ba||"
        ]
    ],
    [
        "S S S S S S L S S L",
        "πάθεϲι πάθεα δʼ ἐξανύτουϲʼ",
        [
            "1067",
            "ia",
            "+",
            "ch"
        ]
    ],
    [
        "L L L S S L S L S L L",
        "εἰϲ ἄλλαϲ βιότου κάτειϲι μορφάϲ.",
        [
            "1068",
            "phal"
        ]
    ],
    [
        "L L S L S S L",
        "οὐ γὰρ δόμων γʼ ἑτέρουϲ",
        [
            "1069",
            "hept"
        ]
    ],
    [
        "L L S L S S L",
        "ἄρχονταϲ ἀλλοδαποὺϲ",
        [
            "1070",
            "hept"
        ]
    ],
    [
        "L S S L S L",
        "ζῶϲά ποτʼ 〈ἐν〉 φαεν-",
        [
            "1071",
            "dod∫"
        ]
    ],
    [
        "L S S L S L L",
        "ναῖϲ ἀνέχοιτʼ ἂν αὐγαῖϲ",
        [
            "1072",
            "ar"
        ]
    ],
    [
        "L L L S S L S L L L",
        "ἁ τῶν εὐπατριδᾶν γεγῶϲ̓ οἴκων.",
        [
            "1073",
            "gly",
            "+",
            "sp"
        ]
    ],
    [
        "L L S L L S S L",
        "αἰϲχύνομαι τὸν πολύυ-",
        [
            "1074",
            "ia",
            "+",
            "ch∫"
        ]
    ],
    [
        "L S S L S S L S S L S L L",
        "μνον θεόν, εἰ παρὰ Καλλιχόροιϲι παγαῖϲ",
        [
            "1075",
            "prax"
        ]
    ],
    [
        "L S S S L S L S L",
        "λαμπάδα θεωρὸϲ εἰκάδων",
        [
            "1076",
            "ia2"
        ]
    ],
    [
        "L S S S S S S L S L",
        "ἐννύχιον ἄυπνοϲ ὄψεται,",
        [
            "1077",
            "ia2||H"
        ]
    ],
    [
        "S S L S S L S L S",
        "ὅτε καὶ Διὸϲ ἀϲτερωπὸϲ",
        [
            "1078",
            "diom"
        ]
    ],
    [
        "S S S L S L L",
        "ἀνεχόρευϲεν αἰθήρ,",
        [
            "1079",
            "ith||"
        ]
    ],
    [
        "S L L S S L L",
        "χορεύει δὲ ϲελάνα",
        [
            "1080",
            "ph"
        ]
    ],
    [
        "L L L L S S L",
        "καὶ πεντήκοντα κόραι",
        [
            "1081",
            "hept"
        ]
    ],
    [
        "L S S L S S L S",
        "†Νηρέοϲ αἱ κατὰ πόντον",
        [
            "1082",
            "?"
        ]
    ],
    [
        "L S S L S S S L",
        "ἀεναῶν τε ποταμῶν†",
        [
            "1083",
            "?[^23]"
        ]
    ],
    [
        "S L S L S S L",
        "δίναϲ χορευόμεναι",
        [
            "1084",
            "hept"
        ]
    ],
    [
        "L L L S S L S L",
        "τὰν χρυϲοϲτέφανον κόραν",
        [
            "1085",
            "gly"
        ]
    ],
    [
        "L L S S L L",
        "καὶ ματέρα ϲεμνάν·",
        [
            "1086",
            "reiz"
        ]
    ],
    [
        "S L L L S S L",
        "ἵνʼ ἐλπίζει βαϲιλεύ-",
        [
            "1087",
            "hept∫"
        ]
    ],
    [
        "L L L S S L S L",
        "ϲειν ἄλλων πόνον ἐϲπεϲὼν",
        [
            "1088",
            "gly"
        ]
    ],
    [
        "S L L S S L L",
        "〈ὁ〉 Φοίβειοϲ ἀλάταϲ",
        [
            "1089",
            "ph"
        ]
    ],
    [
        "S L S L L S S L",
        "ὁρᾶθʼ, ὅϲοι δυϲκελάδοι-",
        [
            "1090",
            "ia",
            "+",
            "ch∫"
        ]
    ],
    [
        "L S S L S S L S S L S L L",
        "ϲιν κατὰ μοῦϲαν ἰόντεϲ ἀείδεθʼ ὕμνοιϲ",
        [
            "1091",
            "prax"
        ]
    ],
    [
        "L S S S S S S L S L",
        "ἁμέτερα λέχεα καὶ γάμουϲ",
        [
            "1092",
            "ia2"
        ]
    ],
    [
        "S S S S S S S S S S L",
        "Κύπριδοϲ ἀθέμιτοϲ ἀνοϲίουϲ,",
        [
            "1093",
            "ia2||Hs"
        ]
    ],
    [
        "S S L S S L S L S",
        "ὅϲον εὐϲεβίαι κρατοῦμεν",
        [
            "1094",
            "diom"
        ]
    ],
    [
        "S S S S S S L L",
        "ἄδικον ἄροτον ἀνδρῶν.",
        [
            "1095",
            "ith||"
        ]
    ],
    [
        "S L L S S L L",
        "παλίμφαμοϲ ἀοιδὰ",
        [
            "1096",
            "ph"
        ]
    ],
    [
        "L L L L S S L",
        "καὶ μοῦϲʼ εἰϲ ἄνδραϲ ἴτω",
        [
            "1097",
            "hept"
        ]
    ],
    [
        "L S S S L S S L",
        "†δυϲκέλαδοϲ ἀμφὶ λέκτρων.",
        [
            "1098",
            "?"
        ]
    ],
    [
        "L S S S S S S L",
        "δείκνυϲι γὰρ ὁ Διὸϲ ἐκ",
        [
            "1099",
            "?"
        ]
    ],
    [
        "L L L L S S L",
        "παίδων† ἀμνημοϲύναν,",
        [
            "1100",
            "hept?"
        ]
    ],
    [
        "L L L S S L S L",
        "οὐ κοινὰν τεκέων τύχαν",
        [
            "1101",
            "gly"
        ]
    ],
    [
        "L L S S L L",
        "οἴκοιϲι φυτεύϲαϲ",
        [
            "1102",
            "reiz"
        ]
    ],
    [
        "L L L L S S L",
        "δεϲποίναι· πρὸϲ δʼ Ἀφροδί-",
        [
            "1103",
            "hept∫"
        ]
    ],
    [
        "L L L S S L S L",
        "ταν ἄλλαν θέμενοϲ χάριν",
        [
            "1104",
            "gly"
        ]
    ],
    [
        "S L L S S L L",
        "νόθου παιδὸϲ ἔκυρϲεν.",
        [
            "1105",
            "ph"
        ]
    ],
    [
        "L L L L L S S L",
        "Χο. οὐκ ἔϲτʼ οὐκ ἔϲτιν θανάτου",
        [
            "1229",
            "wil"
        ]
    ],
    [
        "S S S L S S L L",
        "παρατροπὰ μελέαι μοι·",
        [
            "1230",
            "ph||"
        ]
    ],
    [
        "S S S S S S S L L",
        "φανερὰ φανερὰ τάδʼ ἤδη",
        [
            "1231",
            "ia",
            "+",
            "ba"
        ]
    ],
    [
        "L L L S S L L",
        "†ϲπονδὰϲ ἐκ Διονύϲου",
        [
            "1232",
            "ph?"
        ]
    ],
    [
        "S S L S L S S L",
        "βοτρύων θοᾶϲ ἐχίδναϲ",
        [
            "1233",
            "?"
        ]
    ],
    [
        "S S S L S S L S L",
        "ϲταγόϲι μειγνυμέναϲ φόνωι†.",
        [
            "1234",
            "gly?"
        ]
    ],
    [
        "S S S L S S L S L",
        "φανερὰ θύματα νερτέρων,",
        [
            "1235",
            "gly"
        ]
    ],
    [
        "L S L S S L S L",
        "ϲυμφοραὶ μὲν ἐμῶι βίωι,",
        [
            "1236",
            "gly"
        ]
    ],
    [
        "L S L S S L S L L L L",
        "λεύϲιμοι δὲ καταφθοραὶ δεϲποίναι.",
        [
            "1237",
            "gly",
            "+",
            "mol||"
        ]
    ],
    [
        "S S S L S S L S L",
        "τίνα φυγὰν πτερόεϲϲαν ἢ",
        [
            "1238",
            "gly"
        ]
    ],
    [
        "S S S L S S L S L S L L",
        "χθονὸϲ ὑπὸ ϲκοτίουϲ μυχοὺϲ πορευθῶ,",
        [
            "1239",
            "phal||"
        ]
    ],
    [
        "S S L L S S L L",
        "θανάτου λεύϲιμον ἄταν",
        [
            "1240",
            "io2"
        ]
    ],
    [
        "S S L L S S L L",
        "ἀποφεύγουϲα, τεθρίππων",
        [
            "1241",
            "io2"
        ]
    ],
    [
        "L L L L L S S L",
        "ὠκιϲτᾶν χαλᾶν ἐπιβᾶϲʼ",
        [
            "1242",
            "wil"
        ]
    ],
    [
        "L L L S S L L",
        "ἢ πρύμναϲ ἔπι ναῶν;",
        [
            "1243",
            "ph"
        ]
    ],
    [
        "L L S S L S S L L L",
        "οὐκ ἔϲτι λαθεῖν ὅτε μὴ χρήιζων",
        [
            "1244",
            "an2"
        ]
    ],
    [
        "S S L L L",
        "θεὸϲ ἐκκλέπτει.",
        [
            "1245",
            "an"
        ]
    ],
    [
        "S S L S S L L L S S L",
        "τί ποτʼ, ὦ μελέα δέϲποινα, μένει",
        [
            "1246",
            "an2"
        ]
    ],
    [
        "L L S S L L S S L L",
        "ψυχῆι ϲε παθεῖν; ἆρα θέλουϲαι",
        [
            "1247",
            "an2"
        ]
    ],
    [
        "L L S S L L S S L L",
        "δρᾶϲαί τι κακὸν τοὺϲ πέλαϲ αὐταὶ",
        [
            "1248",
            "an2"
        ]
    ],
    [
        "L S S L L S S L L",
        "πειϲόμεθʼ ὥϲπερ τὸ δίκαιον;",
        [
            "1249",
            "par"
        ]
    ],
    [
        "L L S L L L S L S L S L",
        "Κρ. ὦ τέκνον, ὦ φῶϲ μητρὶ κρεῖϲϲον ἡλίου",
        [
            "1439",
            "ia3"
        ]
    ],
    [
        "L L S L S S S S L S L S L",
        "(ϲυγγνώϲεται γὰρ ὁ θεόϲ), ἐν χεροῖν ϲʼ ἔχω,",
        [
            "1440",
            "ia3"
        ]
    ],
    [
        "S L S L L L S S L S S L",
        "ἄελπτον εὕρημʼ, ὃν κατὰ γᾶϲ ἐνέρων",
        [
            "1441",
            "⏑e‒D"
        ]
    ],
    [
        "S S L S S L S S L S S L L L",
        "χθονίων μέτα Περϲεφόναϲ τʼ ἐδόκουν ναίειν.",
        [
            "1442",
            "A",
            "+",
            "sp"
        ]
    ],
    [
        "L L S L L L S L S L S N",
        "Ιω. ἀλλʼ, ὦ φίλη μοι μῆτερ, ἐν χεροῖν ϲέθεν",
        [
            "1443",
            "ia3"
        ]
    ],
    [
        "S L S L S L S L L L S L",
        "ὁ κατθανών τε κοὐ θανὼν φαντάζομαι.",
        [
            "1444",
            "ia3"
        ]
    ],
    [
        "S S S L L L L S S L S L",
        "Κρ. ἰὼ ἰὼ λαμπρᾶϲ αἰθέροϲ ἀμπτυχαί,",
        [
            "1445",
            "doc2[^24]"
        ]
    ],
    [
        "S L L S L L S L L S L L",
        "τίνʼ αὐδὰν ἀύϲω βοάϲω; πόθεν μοι",
        [
            "1446-7",
            "ba2"
        ]
    ],
    [
        "S S L S S L S L S L",
        "ϲυνέκυρϲʼ ἀδόκητοϲ ἡδονά;",
        [
            "1448",
            "cyren"
        ]
    ],
    [
        "S S S S S L S L",
        "πόθεν ἐλάβομεν χαράν;",
        [
            "1449",
            "cr2"
        ]
    ],
    [
        "S L S L L L S L S L S N",
        "Ιω. ἐμοὶ γενέϲθαι πάντα μᾶλλον ἄν ποτε,",
        [
            "1450",
            "ia3"
        ]
    ],
    [
        "L L S L L L S L S L S L",
        "μῆτερ, παρέϲτη τῶνδʼ, ὅπωϲ ϲόϲ εἰμʼ ἐγώ.",
        [
            "1451",
            "ia3"
        ]
    ],
    [
        "S S S L S L",
        "Κρ. ἔτι φόβωι τρέμω.",
        [
            "1452",
            "doc"
        ]
    ],
    [
        "L L S L S L S L S L S L",
        "Ιω. μῶν οὐκ ἔχειν μʼ ἔχουϲα; Κρ. τὰϲ γὰρ ἐλπίδαϲ",
        [
            "1453a",
            "ia3"
        ]
    ],
    [
        "S S S L S L",
        "ἀπέβαλον πρόϲω.",
        [
            "1453b",
            "doc"
        ]
    ],
    [
        "S L S L S L S S S S S S L",
        "ἰὼ 〈ἰὼ〉 γύναι, πόθεν ἔλαβεϲ ἐμὸν",
        [
            "1454a",
            "ia2",
            "+",
            "cr"
        ]
    ],
    [
        "S S S L S L",
        "βρέφοϲ ἐϲ ἀγκάλαϲ;",
        [
            "1454b",
            "doc"
        ]
    ],
    [
        "S S S S S S L S L L S L",
        "τίνʼ ἀνὰ χέρα δόμουϲ ἔβα Λοξίου;",
        [
            "1455",
            "doc2"
        ]
    ],
    [
        "L L S L S L S L S L S L",
        "Ιω. θεῖον τόδʼ· ἀλλὰ τἀπίλοιπα τῆϲ τύχηϲ",
        [
            "1456",
            "ia3"
        ]
    ],
    [
        "L L S L S L S L S L S L",
        "εὐδαιμονοῖμεν, ὡϲ τὰ πρόϲθʼ ἐδυϲτύχει.",
        [
            "1457",
            "ia3"
        ]
    ],
    [
        "S S L S S L S L S L L",
        "Κρ. τέκνον, οὐκ ἀδάκρυτοϲ ἐκλοχεύηι,",
        [
            "1458",
            "T",
            "+",
            "ba"
        ]
    ],
    [
        "S L S L S L S L S L L",
        "γόοιϲ δὲ ματρὸϲ ἐκ χερῶν ὁρίζηι.",
        [
            "1459",
            "ia2",
            "+",
            "ba"
        ]
    ],
    [
        "L S S L S L S S S L S L",
        "νῦν δὲ γενειάϲιν πάρα ϲέθεν πνέω",
        [
            "1460",
            "doc2"
        ]
    ],
    [
        "S S S L S L S L L S L",
        "μακαριωτάταϲ τυχοῦϲʼ ἡδονᾶϲ.",
        [
            "1461",
            "doc2"
        ]
    ],
    [
        "L L S L S L S L L L S L",
        "Ιω. τοὐμὸν λέγουϲα καὶ τὸ ϲὸν κοινῶϲ λέγειϲ.",
        [
            "1462",
            "ia3"
        ]
    ],
    [
        "S L S L S L S L S L L",
        "Κρ. ἄπαιδεϲ οὐκέτʼ ἐϲμὲν οὐδʼ ἄτεκνοι·",
        [
            "1463",
            "ia2",
            "+",
            "ba"
        ]
    ],
    [
        "L L S L L L S L S L L",
        "δῶμʼ ἑϲτιοῦται, γᾶ δʼ ἔχει τυράννουϲ,",
        [
            "1464",
            "ia2",
            "+",
            "ba"
        ]
    ],
    [
        "S L L S L L",
        "ἀνηβᾶι δʼ Ἐρεχθεύϲ·",
        [
            "1465",
            "ba2"
        ]
    ],
    [
        "S S L S S L S S L S S L S L S L",
        "ὅ τε γηγενέταϲ δόμοϲ οὐκέτι νύκτα δέρκεται,",
        [
            "1466",
            "A",
            "+",
            "ia||"
        ]
    ],
    [
        "L S S L S L S L L S L",
        "ἀελίου δʼ ἀναβλέπει λαμπάϲιν.",
        [
            "1467",
            "doc2"
        ]
    ],
    [
        "L L S L L L S L S L S L",
        "Ιω. μῆτερ, παρών μοι καὶ πατὴρ μεταϲχέτω",
        [
            "1468",
            "ia3"
        ]
    ],
    [
        "L L S L L L S L S L S L",
        "τῆϲ ἡδονῆϲ τῆϲδʼ ἧϲ ἔδωχʼ ὑμῖν ἐγώ.",
        [
            "1469",
            "ia3"
        ]
    ],
    [
        "L S L",
        "Κρ. ὦ τέκνον,",
        [
            "1470",
            "cr"
        ]
    ],
    [
        "S L L S L S S S L S L",
        "τί φήιϲ; οἷον οἷον ἀνελέγχομαι.",
        [
            "1471",
            "doc2"
        ]
    ],
    [
        "L L S L S L S L S L S N",
        "Ιω. ὤμοι· νόθον με παρθένευμʼ ἔτικτε ϲόν;",
        [
            "1473",
            "ia3"
        ]
    ],
    [
        "L S S L S L L S S L S L",
        "Κρ. οὐχ ὑπὸ λαμπάδων οὐδὲ χορευμάτων",
        [
            "1474",
            "doc2"
        ]
    ],
    [
        "S S L S S L",
        "ὑμέναιοϲ ἐμόϲ,",
        [
            "1475",
            "an"
        ]
    ],
    [
        "S S S L S L S N",
        "τέκνον, ἔτικτε ϲὸν κάρα.",
        [
            "1476",
            "lek||BH"
        ]
    ],
    [
        "L L S L S L S L L L S N",
        "Ιω. αἰαῖ· πέφυκα δυϲγενήϲ, μῆτερ; πόθεν;",
        [
            "1477",
            "ia3"
        ]
    ],
    [
        "L L L S S L S L S L L",
        "Κρ. ἴϲτω Γοργοφόνα Ιω. τί τοῦτʼ ἔλεξαϲ;",
        [
            "1478",
            "D^contr^⏑e‒"
        ]
    ],
    [
        "L S S L S S L",
        "Κρ. ἃ ϲκοπέλοιϲ ἐπʼ ἐμοῖϲ",
        [
            "1479",
            "D"
        ]
    ],
    [
        "S S L S S L S L",
        "τὸν ἐλαιοφυῆ πάγον",
        [
            "1480",
            "T"
        ]
    ],
    [
        "L L S L L S S S L S L S N",
        "θάϲϲει Ιω. λέγειϲ μοι ϲκολιὰ κοὐ ϲαφῆ τάδε.",
        [
            "1481",
            "ia3"
        ]
    ],
    [
        "S S L S S L S L",
        "Κρ. παρʼ ἀηδόνιον πέτραν",
        [
            "1482",
            "T"
        ]
    ],
    [
        "L L S L S L L",
        "Φοίβωι. Ιω. τί Φοῖβον αὐδᾶιϲ;",
        [
            "1483",
            "ia",
            "+",
            "ba"
        ]
    ],
    [
        "L S S L S S L L L",
        "Κρ. κρυπτόμενον λέχοϲ ηὐνάϲθην",
        [
            "1484",
            "ibyc^chol^"
        ]
    ],
    [
        "S L S L S L S L S L S L",
        "Ιω. λέγʼ· ὡϲ ἐρεῖϲ τι κεδνὸν εὐτυχέϲ τέ μοι.",
        [
            "1485",
            "ia3"
        ]
    ],
    [
        "S S L S S L S L",
        "Κρ. δεκάτωι δέ ϲε μηνὸϲ ἐν",
        [
            "1486",
            "T"
        ]
    ],
    [
        "S L S S S L L S S L L L",
        "κύκλωι κρύφιον ὠδῖνʼ ἔτεκον Φοίβωι.",
        [
            "1487",
            "doc2"
        ]
    ],
    [
        "L L S L L L S L S L S N",
        "Ιω. ὦ φίλτατʼ εἰποῦϲʼ, εἰ λέγειϲ ἐτήτυμα.",
        [
            "1488",
            "ia3"
        ]
    ],
    [
        "L S S S S L L S L",
        "Κρ. παρθένια δʼ †ἐμᾶϲ ματέροϲ†",
        [
            "1489",
            "?"
        ]
    ],
    [
        "L S L S S S L S S L S L",
        "ϲπάργανʼ ἀμφίβολά ϲοι τάδʼ ἀνῆψα κερ-",
        [
            "1490",
            "hypodoc2∫"
        ]
    ],
    [
        "S S S L S L",
        "κίδοϲ ἐμᾶϲ πλάνουϲ.",
        [
            "1491",
            "doc"
        ]
    ],
    [
        "S L S L S L S L S L L",
        "γάλακτι δʼ οὐκ ἐπέϲχον οὐδὲ μαϲτῶι",
        [
            "1492",
            "ia2",
            "+",
            "ba"
        ]
    ],
    [
        "S L S L S L S L S L L",
        "τροφεῖα ματρὸϲ οὐδὲ λουτρὰ χειροῖν,",
        [
            "1493",
            "ia2",
            "+",
            "ba"
        ]
    ],
    [
        "S S L S S L S S L L",
        "ἀνὰ δʼ ἄντρον ἔρημον οἰωνῶν",
        [
            "1494",
            "par"
        ]
    ],
    [
        "L L L S L S L L S L",
        "γαμφηλαῖϲ φόνευμα θοίναμά τʼ εἰϲ",
        [
            "1495",
            "doc2"
        ]
    ],
    [
        "L L L L L",
        "Ἅιδαν ἐκβάλληι.",
        [
            "1496",
            "doc"
        ]
    ],
    [
        "L L S L S L S L S L S L",
        "Ιω. ὦ δεινὰ τλᾶϲα, μῆτερ. Κρ. ἐν φόβωι, τέκνον,",
        [
            "1497",
            "ia3"
        ]
    ],
    [
        "S S S L S L S S S L L L",
        "καταδεθεῖϲα ϲὰν ἀπέβαλον ψυχάν.",
        [
            "1498",
            "doc2"
        ]
    ],
    [
        "L L S L L L S L L S S",
        "ἔκτεινά ϲʼ ἄκουϲʼ. Ιω. †ἐξ ἐμοῦ τʼ οὐχ ὅϲιʼ",
        [
            "1500-1",
            "?"
        ]
    ],
    [
        "L L S S S S L L L S L S S S L",
        "ἔθνηιϲκεϲ†. Κρ. ἰὼ 〈ἰώ〉· δειναὶ μὲν 〈αἱ〉 τότε τύχαι,",
        [
            "1502-3",
            "doc2"
        ]
    ],
    [
        "L S S L S S L S L S L S",
        "δεινὰ δὲ καὶ τάδʼ· ἑλιϲϲόμεϲθʼ ἐκεῖθεν",
        [
            "1504",
            "D⏑e⏑"
        ]
    ],
    [
        "L S S L S S L S L S S L S S L",
        "ἐνθάδε δυϲτυχίαιϲιν εὐτυχίαιϲ τε πάλιν,",
        [
            "1505-6",
            "D⏑D"
        ]
    ],
    [
        "S L S L S L S N",
        "μεθίϲταται δὲ πνεύματα.",
        [
            "1507",
            "2",
            "ia",
            "||B"
        ]
    ],
    [
        "S S L S S L S S L S S L",
        "μενέτω· τὰ πάροιθεν ἅλιϲ κακά· νῦν",
        [
            "1508",
            "A"
        ]
    ],
    [
        "S S L S S L S L S L L L",
        "δὲ γένοιτό τιϲ οὖροϲ ἐκ κακῶν, ὦ παῖ.",
        [
            "1509",
            "cyren",
            "+sp"
        ]
    ],
    [
        "S S S L S L S S S L S",
        "[^",
        [
            "13]:",
            "L.",
            "does",
            "not",
            "scan",
            "697-698"
        ]
    ],
    [
        "S",
        "[^",
        [
            "16]:",
            "L.",
            "does",
            "not",
            "name",
            "this",
            "line"
        ]
    ],
    [
        "L L L S S S S L L L",
        "[^",
        [
            "20]:",
            "L.",
            "adds",
            "an",
            "unnumbered",
            "line",
            "below",
            "this:",
            "“‒",
            "‒",
            "⏑⏑‒",
            "‒",
            "‒",
            "‒",
            "‒”"
        ]
    ],
    [
        "L L S S L L L L L",
        "[^",
        [
            "21]:",
            "L.",
            "is",
            "missing",
            "this",
            "syllable."
        ]
    ],
    [
        "S S L L S S S L",
        "[^",
        [
            "24]:",
            "L.’s",
            "footnote:",
            "“For",
            "ἰὼ",
            "ἰὼ",
            "scanned",
            "⏑⏑⏑‒,",
            "see",
            "Willink",
            "(2010:",
            "377,"
        ]
    ],
    [
        "L L L",
        "[^",
        [
            "28]:",
            "L.",
            "does",
            "not",
            "print",
            "these",
            "three",
            "syllables."
        ]
    ]
]