[
    [
        "L L S S L L S S L L",
        "Ὦ πρέϲβυ, δόμων τῶνδε πάροιθεν",
        [
            "1",
            "an2"
        ]
    ],
    [
        "L L L L S S L L L",
        "ϲτεῖχε. ΠΡΕϹΒΥΤΗϹ ϲτείχω. τί δὲ καινουργεῖϲ,",
        [
            "2",
            "an2"
        ]
    ],
    [
        "S S L S S L L L L L",
        "Ἀγάμεμνον ἄναξ; ΑΓ. ϲπεῦδε. ΠΡ. ϲπεύδω.",
        [
            "3",
            "an2"
        ]
    ],
    [
        "S S L L L L S S L L",
        "μάλα τοι γῆραϲ τοὐμὸν ἄυπνον",
        [
            "4",
            "an2"
        ]
    ],
    [
        "S S L L L L S S L L",
        "καὶ ἐπʼ ὀφθαλμοῖϲ ὀξὺ πάρεϲτιν.",
        [
            "5",
            "an2"
        ]
    ],
    [
        "L S S L L S S L L L",
        "ΑΓ. τίϲ ποτʼ ἄρʼ ἀϲτὴρ ὅδε πορθμεύει",
        [
            "6",
            "an2"
        ]
    ],
    [
        "L S S L L L L S S L",
        "ϲείριοϲ ἐγγὺϲ τῆϲ ἑπταπόρου",
        [
            "7",
            "an2"
        ]
    ],
    [
        "L S S L L S S L L L",
        "Πλειάδοϲ ἄιϲϲων ἔτι μεϲϲήρηϲ;",
        [
            "8",
            "an2"
        ]
    ],
    [
        "L L L L L L L L",
        "οὔκουν φθόγγοϲ γʼ οὔτʼ ὀρνίθων",
        [
            "9",
            "an2"
        ]
    ],
    [
        "L S S L L L L S S L",
        "οὔτε θαλάϲϲηϲ· ϲιγαὶ δʼ ἀνέμων",
        [
            "10",
            "an2"
        ]
    ],
    [
        "L S S L L S S L L",
        "τόνδε κατʼ Εὔριπον ἔχουϲιν.",
        [
            "11",
            "par"
        ]
    ],
    [
        "S S L L L L S S L L",
        "ΠΡ. τί δὲ ϲὺ ϲκηνῆϲ ἐκτὸϲ ἀίϲϲειϲ,",
        [
            "12",
            "an2"
        ]
    ],
    [
        "S S L S S L",
        "Ἀγάμεμνον ἄναξ;",
        [
            "13",
            "an"
        ]
    ],
    [
        "S S L S S L L S S L L",
        "ἔτι δʼ ἡϲυχία τήνδε κατʼ Αὖλιν",
        [
            "14",
            "an2"
        ]
    ],
    [
        "L S S L L S S L L L",
        "καὶ ἀκίνητοι φυλακαὶ τειχέων.",
        [
            "15",
            "an2"
        ]
    ],
    [
        "L L S S L L L S S L",
        "ϲτείχωμεν ἔϲω. ΑΓ. ζηλῶ ϲέ, γέρον,",
        [
            "16",
            "an2"
        ]
    ],
    [
        "L L L L S S L L L",
        "ζηλῶ δʼ ἀνδρῶν ὃϲ ἀκίνδυνον",
        [
            "17",
            "an2"
        ]
    ],
    [
        "S S L S S L L L S S L",
        "βίον ἐξεπέραϲʼ ἀγνὼϲ ἀκλεήϲ·",
        [
            "18",
            "an2"
        ]
    ],
    [
        "L L L L L L L L",
        "τοὺϲ δʼ ἐν τιμαῖϲ ἧϲϲον ζηλῶ.",
        [
            "19",
            "an2"
        ]
    ],
    [
        "L L S S L L L S S L",
        "ΠΡ. καὶ μὴν τὸ καλόν γʼ ἐνταῦθα βίου.",
        [
            "20",
            "an2"
        ]
    ],
    [
        "L S S L L S S L S S L",
        "ΑΓ. τοῦτο δέ γʼ ἐϲτὶν τὸ καλὸν ϲφαλερόν,",
        [
            "21",
            "an2"
        ]
    ],
    [
        "L S S L L",
        "καὶ τὸ πρότιμον",
        [
            "22",
            "an2"
        ]
    ],
    [
        "S S L L L S S L S S L",
        "γλυκὺ μέν, λυπεῖ δὲ προϲιϲτάμενον.",
        [
            "23",
            "an2"
        ]
    ],
    [
        "S S L S S L L L L L",
        "τοτὲ μὲν τὰ θεῶν οὐκ ὀρθωθέντʼ",
        [
            "24",
            "an2"
        ]
    ],
    [
        "S S L S S L S S L L L",
        "ἀνέτρεψε βίον, τοτὲ δʼ ἀνθρώπων",
        [
            "25",
            "an2"
        ]
    ],
    [
        "L L L L",
        "γνῶμαι πολλαὶ",
        [
            "26",
            "an2"
        ]
    ],
    [
        "L S S L L S S L L",
        "καὶ δυϲάρεϲτοι διέκναιϲαν.",
        [
            "27",
            "par||"
        ]
    ],
    [
        "L S S L L L S S L L",
        "ΠΡ. οὐκ ἄγαμαι ταῦτʼ ἀνδρὸϲ ἀριϲτέωϲ.",
        [
            "28",
            "an2"
        ]
    ],
    [
        "L S S L L S S L S S L",
        "οὐκ ἐπὶ πᾶϲίν ϲʼ ἐφύτευϲʼ ἀγαθοῖϲ,",
        [
            "29",
            "an2"
        ]
    ],
    [
        "S S L S S L",
        "Ἀγάμεμνον, Ἀτρεύϲ.",
        [
            "30",
            "an"
        ]
    ],
    [
        "L S S L L L L L L",
        "δεῖ δέ ϲε χαίρειν καὶ λυπεῖϲθαι·",
        [
            "31",
            "an2"
        ]
    ],
    [
        "L L S S L L L S S L",
        "θνητὸϲ γὰρ ἔφυϲ. κἂν μὴ ϲὺ θέληιϲ,",
        [
            "32",
            "an2"
        ]
    ],
    [
        "S S L L L L S S L L",
        "τὰ θεῶν οὕτω βουλόμενʼ ἔϲται.",
        [
            "33",
            "an2"
        ]
    ],
    [
        "S S L L L S S L S S L",
        "ϲὺ δὲ λαμπτῆροϲ φάοϲ ἀμπετάϲαϲ",
        [
            "34",
            "an2"
        ]
    ],
    [
        "L L S S L",
        "δέλτον τε γράφειϲ",
        [
            "35",
            "an"
        ]
    ],
    [
        "L L S S L S S L L L",
        "τήνδʼ ἣν πρὸ χερῶν ἔτι βαϲτάζειϲ,",
        [
            "36",
            "an2"
        ]
    ],
    [
        "L L S S L L S S L L",
        "καὶ ταὐτὰ πάλιν γράμματα ϲυγχεῖϲ",
        [
            "37",
            "an2"
        ]
    ],
    [
        "L L L L L L S S L",
        "καὶ ϲφραγίζειϲ λύειϲ τʼ ὀπίϲω",
        [
            "38",
            "an2"
        ]
    ],
    [
        "L L S S L L L S S L",
        "ῥίπτειϲ τε πέδωι πεύκην, θαλερὸν",
        [
            "39",
            "an2"
        ]
    ],
    [
        "S S L S S L",
        "κατὰ δάκρυ χέων,",
        [
            "40",
            "an"
        ]
    ],
    [
        "L L S S L L S S L L",
        "κἀκ τῶν ἀπόρων οὐδενὸϲ ἐνδεῖϲ",
        [
            "41",
            "an2"
        ]
    ],
    [
        "L L L L",
        "μὴ οὐ μαίνεϲθαι.",
        [
            "42",
            "an"
        ]
    ],
    [
        "S S L S S L S S L S S L",
        "τί πονεῖϲ; τί νέον παρὰ ϲοί, βαϲιλεῦ;",
        [
            "43",
            "an2"
        ]
    ],
    [
        "S S L L L L S S L L",
        "φέρε κοίνωϲον μῦθον ἐϲ ἡμᾶϲ.",
        [
            "44",
            "an2"
        ]
    ],
    [
        "L L S S L L L S S L",
        "πρὸϲ 〈δʼ〉 ἄνδρʼ ἀγαθὸν πιϲτόν τε φράϲειϲ·",
        [
            "45",
            "an2"
        ]
    ],
    [
        "L L S S L S S L S S L",
        "ϲῆι γάρ μʼ ἀλόχωι ποτὲ Τυνδάρεωϲ",
        [
            "46",
            "an2"
        ]
    ],
    [
        "L L L L",
        "πέμπει φερνὴν",
        [
            "47",
            "an"
        ]
    ],
    [
        "L L S S L S S L N",
        "ϲυννυμφοκόμον τε δίκαιον.",
        [
            "48",
            "par||B"
        ]
    ],
    [
        "S S L L L S S L L L",
        "ΠΡ. λέγε καὶ ϲήμαινʼ, ἵνα καὶ γλώϲϲηι",
        [
            "117",
            "an2"
        ]
    ],
    [
        "L S S L L L S S L L",
        "ϲύντονα τοῖϲ ϲοῖϲ γράμμαϲιν αὐδῶ.",
        [
            "118",
            "an2"
        ]
    ],
    [
        "L L L L L L L",
        "ΑΓ. πέμπω ϲοι πρὸϲ ταῖϲ πρόϲθεν",
        [
            "115",
            "par"
        ]
    ],
    [
        "L L L L L L L",
        "δέλτουϲ, ὦ Λήδαϲ ἔρνοϲ,",
        [
            "116",
            "par"
        ]
    ],
    [
        "L L L L L L L L",
        "μὴ ϲτέλλειν τὰν ϲὰν ἶνιν πρὸϲ",
        [
            "119",
            "an2"
        ]
    ],
    [
        "L L L L S S L L L",
        "τὰν κολπώδη πτέρυγʼ Εὐβοίαϲ",
        [
            "120",
            "an2"
        ]
    ],
    [
        "L S S L L",
        "Αὖλιν ἀκλύϲταν.",
        [
            "121",
            "an"
        ]
    ],
    [
        "L L L L L L L",
        "εἰϲ ἄλλαϲ ὥραϲ γὰρ δὴ",
        [
            "122",
            "par"
        ]
    ],
    [
        "L L L S S S S L L",
        "παιδὸϲ δαίϲομεν ὑμεναίουϲ.",
        [
            "123",
            "par"
        ]
    ],
    [
        "L L S S L L L S S L",
        "ΠΡ. καὶ πῶϲ Ἀχιλεὺϲ λέκτρων ἀπλακὼν",
        [
            "124",
            "par"
        ]
    ],
    [
        "L S S L L L S S L L",
        "οὐ μέγα φυϲῶν θυμὸν ἐπαρεῖ",
        [
            "125",
            "an2"
        ]
    ],
    [
        "L L S S L",
        "ϲοὶ ϲῆι τʼ ἀλόχωι;",
        [
            "126",
            "an"
        ]
    ],
    [
        "S S L L L L L S S L",
        "τόδε καὶ δεινόν. ϲήμαινʼ ὅτι φήιϲ.",
        [
            "127",
            "an2"
        ]
    ],
    [
        "S S L L L S S L S S L",
        "ΑΓ. ὄνομʼ, οὐκ ἔργον, παρέχων Ἀχιλεὺϲ",
        [
            "128",
            "an2"
        ]
    ],
    [
        "L L S S L L S S L S S",
        "οὐκ οἶδε γάμουϲ, οὐδʼ ὅτι πράϲϲομεν,",
        [
            "129",
            "an2"
        ]
    ],
    [
        "L S S L L L S S L S S",
        "οὐδʼ ὅτι κείνωι παῖδʼ ἐπεφήμιϲα",
        [
            "130",
            "an2"
        ]
    ],
    [
        "L L L L L L L",
        "νυμφείουϲ εἰϲ ἀγκώνων",
        [
            "131",
            "par"
        ]
    ],
    [
        "L L L L L L L",
        "εὐνὰϲ ἐκδώϲειν λέκτροιϲ.",
        [
            "132",
            "par||"
        ]
    ],
    [
        "L S S L L S S L S S L",
        "ΠΡ. δεινά γʼ ἐτόλμαϲ, Ἀγάμεμνον ἄναξ,",
        [
            "133",
            "an2"
        ]
    ],
    [
        "L L L L L L S S L",
        "ὃϲ τῶι τῆϲ θεᾶϲ ϲὴν παῖδʼ ἄλοχον",
        [
            "134",
            "an2"
        ]
    ],
    [
        "S S L L L S S L S S L",
        "φατίϲαϲ ἦγεϲ ϲφάγιον Δαναοῖϲ.",
        [
            "135",
            "an2"
        ]
    ],
    [
        "L L L L L L L",
        "ΑΓ. οἴμοι, γνώμαϲ ἐξέϲταν,",
        [
            "136",
            "par"
        ]
    ],
    [
        "L L L L L L L",
        "αἰαῖ, πίπτω δʼ εἰϲ ἄταν.",
        [
            "137",
            "par"
        ]
    ],
    [
        "L S S L L L S S L L",
        "ἀλλʼ ἴθʼ ἐρέϲϲων ϲὸν πόδα, γήραι",
        [
            "139",
            "an2"
        ]
    ],
    [
        "L S S L L L L S S L",
        "μηδὲν ὑπείκων. ΠΡ. ϲπεύδω, βαϲιλεῦ.",
        [
            "140",
            "an2"
        ]
    ],
    [
        "L L L L L L L L",
        "ΑΓ. μή νυν μήτʼ ἀλϲώδειϲ ἵζου",
        [
            "141",
            "an2"
        ]
    ],
    [
        "L L L L L L L",
        "κρήναϲ μήθʼ ὕπνωι θελχθῆιϲ.",
        [
            "142",
            "par"
        ]
    ],
    [
        "L L S S L",
        "ΠΡ. εὔφημα θρόει.",
        [
            "143",
            "an"
        ]
    ],
    [
        "L L S S L L S S L L",
        "ΑΓ. πάντηι δὲ πόρον ϲχιϲτὸν ἀμείβων",
        [
            "144",
            "an2"
        ]
    ],
    [
        "L S S L L L L S S L",
        "λεῦϲϲε, φυλάϲϲων μή τίϲ ϲε λάθηι",
        [
            "145",
            "an2"
        ]
    ],
    [
        "S S L S S L S S L S S L",
        "τροχαλοῖϲιν ὄχοιϲ παραμειψαμένη",
        [
            "146",
            "an2"
        ]
    ],
    [
        "L S S L L L S S L L",
        "παῖδα κομίζουϲʼ ἐνθάδʼ ἀπήνη",
        [
            "147",
            "an2"
        ]
    ],
    [
        "S S L L L",
        "Δαναῶν πρὸϲ ναῦϲ.",
        [
            "148",
            "an"
        ]
    ],
    [
        "L L L L L L L",
        "ΠΡ. ἔϲται. ΑΓ. κλήιθρων δʼ †ἐξόρμα",
        [
            "149",
            "par"
        ]
    ],
    [
        "L L L L L L L",
        "ἤν νιν πομπαῖϲ ἀντῆϲηιϲ,",
        [
            "150",
            "par"
        ]
    ],
    [
        "S S L L L L S L L",
        "πάλιν ἐξορμάϲειϲ χαλινούϲ,†",
        [
            "151",
            "?"
        ]
    ],
    [
        "S S L L L L L S S L",
        "ἐπὶ Κυκλώπων ἱεὶϲ θυμέλαϲ.",
        [
            "152",
            "an2"
        ]
    ],
    [
        "L L S S L S S L S S L",
        "ΠΡ. πιϲτὸϲ δὲ φράϲαϲ τάδε πῶϲ ἔϲομαι,",
        [
            "153",
            "an2"
        ]
    ],
    [
        "S S L S S L L L S S L",
        "λέγε, παιδὶ ϲέθεν τῆι ϲῆι τʼ ἀλόχωι;",
        [
            "154",
            "an2"
        ]
    ],
    [
        "L L S S L L S S L L",
        "ΑΓ. ϲφραγῖδα φύλαϲϲʼ ἣν ἐπὶ δέλτωι",
        [
            "155",
            "an2"
        ]
    ],
    [
        "L S S L L S S L L L",
        "τῆιδε κομίζειϲ. ἴθι· λευκαίνει",
        [
            "156",
            "an2"
        ]
    ],
    [
        "S S L L L L L L L",
        "τόδε φῶϲ ἤδη λάμπουϲʼ ἠὼϲ",
        [
            "157",
            "an2"
        ]
    ],
    [
        "L S S L L L L S S L",
        "πῦρ τε τεθρίππων τῶν Ἀελίου.",
        [
            "158",
            "an2"
        ]
    ],
    [
        "L S S L L",
        "ϲύλλαβε μόχθων.",
        [
            "160",
            "an"
        ]
    ],
    [
        "L L L S S L S S L L",
        "θνητῶν δʼ ὄλβιοϲ ἐϲ τέλοϲ οὐδεὶϲ",
        [
            "161",
            "an2"
        ]
    ],
    [
        "L L L L",
        "οὐδʼ εὐδαίμων·",
        [
            "162",
            "an"
        ]
    ],
    [
        "L L S S L S S L N",
        "οὔπω γὰρ ἔφυ τιϲ ἄλυποϲ.",
        [
            "163",
            "par||B"
        ]
    ],
    [
        "S S S L S S L S L",
        "ἔμολον ἀμφὶ παρακτίαν",
        [
            "164",
            "gly"
        ]
    ],
    [
        "S S S L S S S S S L",
        "ψάμαθον Αὐλίδος ἐναλίας,",
        [
            "165",
            "gly"
        ]
    ],
    [
        "L L L S S L S L",
        "Εὐρίπου διὰ χευμάτων",
        [
            "166",
            "gly"
        ]
    ],
    [
        "L S L S S L L",
        "κέλσασα στενοπόρθμων,",
        [
            "167",
            "ph||"
        ]
    ],
    [
        "L S S S S S L S S L",
        "Χαλκίδα πόλιν ἐμὰν προλιποῦσ᾽,",
        [
            "168",
            "?"
        ]
    ],
    [
        "L S S L S S L S L",
        "ἀγχιάλων ὑδάτων τροφὸν",
        [
            "169",
            "ibycean"
        ]
    ],
    [
        "L L L S S L L",
        "τᾶς κλεινᾶς Ἀρεθούσας,",
        [
            "170",
            "ph||"
        ]
    ],
    [
        "S L L S S L L S S L L",
        "Ἀχαιῶν στρατιὰν ὡς ἐσιδοίμαν",
        [
            "171",
            "ba+2ion[^1]"
        ]
    ],
    [
        "S L L S S L L S S L L",
        "Ἀχαιῶν τε πλάτας ναυσιπόρους ἡ-",
        [
            "172",
            "ba+2ion∫"
        ]
    ],
    [
        "S S L L S S L L",
        "μιθέων, οὓς ἐπὶ Τροίαν",
        [
            "173",
            "2ion"
        ]
    ],
    [
        "S S L L S S L L",
        "ἐλάταις χιλιόναυσιν",
        [
            "174",
            "2ion"
        ]
    ],
    [
        "L S S L S L",
        "ἁμέτεροι πόσεις",
        [
            "176",
            "dodrans"
        ]
    ],
    [
        "S S L S S L S S L S S L L L",
        "ἐνέπουσ᾽ Ἀγαμέμνονά τ᾽ εὐπατρίδαν στέλλειν",
        [
            "177",
            "A+sp"
        ]
    ],
    [
        "S S L S S L S L",
        "ἐπὶ τὰν Ἑλέναν, ἀπ᾽Εὐρ-",
        [
            "178",
            "T∫"
        ]
    ],
    [
        "L L S S L S L",
        "ώτα δονακοτρόφου",
        [
            "179",
            "tel"
        ]
    ],
    [
        "S S S L S S L S S S",
        "Πάρις ὁ βουκόλος ἃν ἔλαβε",
        [
            "180",
            "gly"
        ]
    ],
    [
        "L L L S S L L",
        "δῶρον τᾶς Ἀφροδίτας,",
        [
            "181",
            "ph||"
        ]
    ],
    [
        "S S S L L L S S L",
        "ὅτ᾽ ἐπὶ κρηναίαισι δρόσοις",
        [
            "182",
            "wil"
        ]
    ],
    [
        "L L L S S S S S L",
        "Ἥρᾳ Παλλάδι τ᾽ ἔριν ἔριν",
        [
            "183",
            "gly"
        ]
    ],
    [
        "L L L S S L L",
        "μορφᾶς ἁ Κύπρις ἔσχεν.",
        [
            "184",
            "ph"
        ]
    ],
    [
        "S S S L S S L S L",
        "πολύθυτον δὲ δι᾽ ἄλσος Ἀρ-",
        [
            "185",
            "gly∫"
        ]
    ],
    [
        "S S S L S S S S S L",
        "τέμιδος ἤλυθον ὀρομένα,",
        [
            "186",
            "gly"
        ]
    ],
    [
        "L L L S S L S L",
        "φοινίσσουσα παρῇδ᾽ ἐμὰν",
        [
            "187",
            "gly"
        ]
    ],
    [
        "L S L S S L L",
        "αἰσχύνᾳ νεοθαλεῖ,",
        [
            "188",
            "ph"
        ]
    ],
    [
        "L S S S S S L S S L",
        "ἀσπίδος ἔρυμα καὶ κλισίας",
        [
            "189",
            "?"
        ]
    ],
    [
        "L S S L S S L S L",
        "ὁπλοφόρους Δαναῶν θέλουσ᾽",
        [
            "190",
            "ibyc"
        ]
    ],
    [
        "L L L S S L L",
        "ἵππων τ᾽ ὄχλον ἰδέσθαι.",
        [
            "191",
            "ph||"
        ]
    ],
    [
        "S L L S S L L S S L L",
        "κατεῖδον δὲ δύ᾽ Αἴαντε συνέδρω,",
        [
            "192",
            "ba+2ion"
        ]
    ],
    [
        "S L L S S L L S S L L",
        "τὸν Οἰλέως Τελαμῶνός τε γόνον, τὸν",
        [
            "193",
            "ba+2ion"
        ]
    ],
    [
        "S S L L S S L L",
        "Σαλαμῖνος στέφανον: Πρω-",
        [
            "194",
            "2ion"
        ]
    ],
    [
        "S S L L S S L L",
        "τεσίλαόν τ᾽ ἐπὶ θάκοις",
        [
            "195",
            "2ion"
        ]
    ],
    [
        "L L L S S L L",
        "πεσσῶν ἡδομένους μορ-",
        [
            "196",
            "ph∫"
        ]
    ],
    [
        "L S S L S L",
        "φαῖσι πολυπλόκοις",
        [
            "197",
            "dodrans"
        ]
    ],
    [
        "S S L S S L S S L S S L L L",
        "Παλαμήδεά θ᾽, ὃν τέκε παῖς ὁ Ποσειδᾶνος,",
        [
            "198",
            "A+sp"
        ]
    ],
    [
        "S S L S S L S L",
        "Διομήδεά θ᾽ ἡδοναῖς",
        [
            "199",
            "T"
        ]
    ],
    [
        "L L S S L S L",
        "δίσκου κεχαρημένον,",
        [
            "200",
            "tel"
        ]
    ],
    [
        "S S S L S S L S S S",
        "παρὰ δὲ Μηριόνην, Ἄρεος",
        [
            "201",
            "gly"
        ]
    ],
    [
        "L L L S S L L",
        "ὄζον, θαῦμα βροτοῖσιν,",
        [
            "202",
            "ph||"
        ]
    ],
    [
        "S S S L L L S S L",
        "τὸν ἀπὸ νησαίων τ᾽ ὀρέων",
        [
            "203",
            "wil"
        ]
    ],
    [
        "L L L S S S S S L",
        "Λαέρτα τόκον, ἅμα δὲ Νι-",
        [
            "204",
            "gly∫"
        ]
    ],
    [
        "L L L S S L L",
        "ρέα, κάλλιστον Ἀχαιῶν.",
        [
            "205",
            "ph"
        ]
    ],
    [
        "S L L S L S S L",
        "τὸν ἰσάνεμόν τε ποδοῖν",
        [
            "206",
            "wil"
        ]
    ],
    [
        "L L S S S S L L",
        "λαιψηροδρόμον Ἀχιλλέα,",
        [
            "207",
            "ia+ba"
        ]
    ],
    [
        "S L S L S S L",
        "τὸν ἁ Θέτις τέκε καὶ",
        [
            "208",
            "heptasyllable"
        ]
    ],
    [
        "L L L S S L N",
        "Χείρων ἐξεπόνησεν,",
        [
            "209",
            "ph||B"
        ]
    ],
    [
        "S S L S S L S S L S S L",
        "ἴδον αἰγιαλοῖς παρά τε κροκάλαις",
        [
            "210",
            "A"
        ]
    ],
    [
        "S S S L S S L L",
        "δρόμον ἔχοντα σὺν ὅπλοις:",
        [
            "211",
            "ph||"
        ]
    ],
    [
        "L L L S S L S L",
        "ἅμιλλαν δ᾽ ἐπόνει ποδοῖν",
        [
            "212",
            "gly"
        ]
    ],
    [
        "S L S S L N",
        "πρὸς ἅρμα τέτρωρον",
        [
            "213",
            "reiz||B"
        ]
    ],
    [
        "S L L S S L L",
        "ἑλίσσων περὶ νίκας.",
        [
            "215",
            "ph||"
        ]
    ],
    [
        "S S L L S L S S L",
        "ὁ δὲ διφρηλάτας ἐβοᾶτ᾽,",
        [
            "216",
            "wil"
        ]
    ],
    [
        "L L L S L S S L",
        "Εὔμηλος Φερητιάδας,",
        [
            "217",
            "wil"
        ]
    ],
    [
        "L L L L S S L",
        "ᾧ καλλίστους ἰδόμαν",
        [
            "218",
            "hept"
        ]
    ],
    [
        "S S L L L S S L",
        "χρυσοδαιδάλτους στομίοις",
        [
            "219",
            "wil"
        ]
    ],
    [
        "L L L L L S S L",
        "πώλους κέντρῳ θεινομένους,",
        [
            "220",
            "wil"
        ]
    ],
    [
        "L L S L S S L",
        "τοὺς μὲν μέσους ζυγίους",
        [
            "221",
            "hept"
        ]
    ],
    [
        "L L L L S S S S L",
        "λευκοστίκτῳ τριχὶ βαλιούς,",
        [
            "222",
            "wil[^2]"
        ]
    ],
    [
        "L L L L S S L",
        "τοὺς δ᾽ ἔξω σειροφόρους",
        [
            "223",
            "hept"
        ]
    ],
    [
        "L L L L L S S L",
        "ἀντήρεις καμπαῖσι δρόμων,",
        [
            "224",
            "wil"
        ]
    ],
    [
        "L S S L S S L S S L S S",
        "πυρσότριχας, μονόχαλα δ᾽ ὑπὸ σφυρὰ",
        [
            "225-6",
            "4da"
        ]
    ],
    [
        "L S S L S S L S S L S S",
        "ποικιλοδέρμονας: οἷς παρεπάλλετο",
        [
            "227-8",
            "4da"
        ]
    ],
    [
        "L S S L S S L S S L S S",
        "Πηλεΐδας σὺν ὅπλοισι παρ᾽ ἄντυγα",
        [
            "229",
            "4da"
        ]
    ],
    [
        "L L L S L S L L",
        "καὶ σύριγγας ἁρματείους.",
        [
            "230",
            "sp+ith"
        ]
    ],
    [
        "L L L S L S L S L",
        "ναῶν δ᾽ εἰς ἀριθμὸν ἤλυθον",
        [
            "231",
            "sp+lek"
        ]
    ],
    [
        "L S L S L S L",
        "καὶ θέαν ἀθέσφατον,",
        [
            "232",
            "lek||Ba"
        ]
    ],
    [
        "L S L L S L S L S L",
        "τὰν γυναικεῖον ὄψιν ὀμμάτων",
        [
            "233",
            "cr+lek"
        ]
    ],
    [
        "L L L S L S S L S L",
        "ὡς πλήσαιμι, †μείλινον† ἁδονάν.",
        [
            "234",
            "?"
        ]
    ],
    [
        "L S L S L",
        "καὶ κέρας μὲν ἦν",
        [
            "235",
            "hypodoc"
        ]
    ],
    [
        "L S L S L S L",
        "δεξιὸν πλάτας ἔχων",
        [
            "236",
            "lek"
        ]
    ],
    [
        "L L S L S L S L",
        "Φθιώτας ὁ Μυρμιδὼν Ἄρης",
        [
            "237",
            "sp+lek"
        ]
    ],
    [
        "L L L S L S L S L",
        "πεντήκοντα ναυσὶ θουρίαις.",
        [
            "238",
            "sp+lek"
        ]
    ],
    [
        "L S L L S L S L S L",
        "χρυσέαις δ᾽ εἰκόσιν κατ᾽ ἄκρα Νη-",
        [
            "239",
            "cr+lek∫"
        ]
    ],
    [
        "L S L S L S L",
        "ρῇδες ἕστασαν θεαί,",
        [
            "240",
            "lek||Ba"
        ]
    ],
    [
        "L L L S L L L S L",
        "πρύμναις σῆμ᾽ Ἀχιλλείου στρατοῦ.",
        [
            "241",
            "sp+lek"
        ]
    ],
    [
        "L L L S L S L S L",
        "Ἀργείων δὲ ταῖσδ᾽ ἰσήρετμοι",
        [
            "242",
            "sp+lek"
        ]
    ],
    [
        "L S L S L S N",
        "νᾶες ἕστασαν πέλας,",
        [
            "243",
            "lek|B"
        ]
    ],
    [
        "L S L L S L S L S L",
        "ὧν ὁ Μηκιστέως στρατηλάτας",
        [
            "244",
            "cr+lek"
        ]
    ],
    [
        "L L S S S L S L S L",
        "παῖς ἦν, Ταλαὸς ὃν τρέφει πατήρ,",
        [
            "245",
            "sp+lek"
        ]
    ],
    [
        "L S L S L",
        "Καπανέως τε παῖς",
        [
            "246",
            "hypodoc"
        ]
    ],
    [
        "S S S L S L S L",
        "Σθένελος: Ἀτθίδας δ᾽ ἄγων",
        [
            "247",
            "lek"
        ]
    ],
    [
        "L L L S L S L S L",
        "ἑξήκοντα ναῦς ὁ Θησέως",
        [
            "248",
            "sp+lek"
        ]
    ],
    [
        "L L L S L S L S L",
        "παῖς ἑξῆς ἐναυλόχει, θεὰν",
        [
            "249",
            "sp+lek"
        ]
    ],
    [
        "L S L L S L S L S L",
        "Παλλάδ᾽ ἐν μωνύχοις ἔχων πτερω-",
        [
            "250",
            "cr+lek∫"
        ]
    ],
    [
        "L S L S L S N",
        "τοῖσιν ἅρμασιν θετόν,",
        [
            "251",
            "lek||B"
        ]
    ],
    [
        "L L L S L S L S L",
        "εὔσημόν γε φάσμα ναυβάταις.",
        [
            "252",
            "sp+lek"
        ]
    ],
    [
        "L L L S L S L S L",
        "Βοιωτῶν δ᾽ ὅπλισμα πόντιον",
        [
            "253",
            "sp+lek"
        ]
    ],
    [
        "L L L S L S L S L",
        "πεντήκοντα νῆας εἰδόμαν",
        [
            "254",
            "sp+lek"
        ]
    ],
    [
        "L L L S L S L S L",
        "σημείοισιν ἐστολισμένας:",
        [
            "255",
            "sp+lek"
        ]
    ],
    [
        "L S L S L",
        "τοῖς δὲ Κάδμος ἦν",
        [
            "256",
            "hypodoc"
        ]
    ],
    [
        "L S L S L S L",
        "χρύσεον δράκοντ᾽ ἔχων",
        [
            "257",
            "lek"
        ]
    ],
    [
        "L S L L S L S",
        "ἀμφὶ ναῶν κόρυμβα:",
        [
            "258",
            "cr+tr"
        ]
    ],
    [
        "L S L S L S L",
        "Λήιτος δ᾽ ὁ γηγενὴς",
        [
            "259",
            "lek"
        ]
    ],
    [
        "L S L S L S L",
        "ἆρχε ναΐου στρατοῦ:",
        [
            "260",
            "lek||Ha"
        ]
    ],
    [
        "L S L S L S L",
        "Φωκίδος δ᾽ ἀπὸ χθονὸς",
        [
            "261",
            "lek"
        ]
    ],
    [
        "S L S L S L S L",
        "Λοκρᾶς τε τοῖσδ᾽ ἴσας ἄγων",
        [
            "262",
            "2ia"
        ]
    ],
    [
        "S S S L S L S L",
        "Θρονιάδ᾽ ἐκλιπὼν πόλιν.",
        [
            "264",
            "lek"
        ]
    ],
    [
        "L S L L S L S L S L",
        "ἐκ Μυκήνας δὲ τᾶς Κυκλωπίας",
        [
            "265",
            "sp+lek"
        ]
    ],
    [
        "L L L S L S L S L",
        "παῖς Ἀτρέως ἔπεμπε ναυβάτας",
        [
            "266",
            "sp+lek"
        ]
    ],
    [
        "L L S S S L S L S L",
        "ναῶν ἑκατὸν ἠθροϊσμένους:",
        [
            "267",
            "sp+lek"
        ]
    ],
    [
        "L S L S L",
        "σὺν δ᾽ Ἄδραστος ἦν",
        [
            "268",
            "hypodoc"
        ]
    ],
    [
        "L S L S L S L",
        "ταγός, ὡς φίλος φίλῳ,",
        [
            "269",
            "lek"
        ]
    ],
    [
        "L S L L S L S",
        "τᾶς φυγούσας μέλαθρα",
        [
            "270",
            "cr+tr"
        ]
    ],
    [
        "L S L S L S L",
        "βαρβάρων χάριν γάμων",
        [
            "271",
            "lek"
        ]
    ],
    [
        "L S L S L S L",
        "πρᾶξιν Ἑλλὰς ὡς λάβοι.",
        [
            "272",
            "lek||H"
        ]
    ],
    [
        "L S L S L S L",
        "ἐκ Πύλου δὲ Νέστορος",
        [
            "273",
            "lek"
        ]
    ],
    [
        "S L S L S L S L",
        "Γερηνίου κατειδόμαν",
        [
            "274",
            "2ia"
        ]
    ],
    [
        "L L L S L S L S L",
        "πρύμνας σῆμα ταυρόπουν ὁρᾶν,",
        [
            "275",
            "sp+lek"
        ]
    ],
    [
        "L S L S L S L",
        "τὸν πάροικον Ἀλφεόν.",
        [
            "276",
            "lek"
        ]
    ],
    [
        "L S L L S L S L S L",
        "Αἰνιάνων δὲ δωδεκάστολοι",
        [
            "277",
            "cr+lek"
        ]
    ],
    [
        "L S L S L S L",
        "νᾶες ἦσαν, ὧν ἄναξ",
        [
            "278",
            "lek"
        ]
    ],
    [
        "L L L S L S L S N",
        "Γουνεὺς ἆρχε: τῶνδε δ᾽ αὖ πέλας",
        [
            "279",
            "sp+lek||B"
        ]
    ],
    [
        "L S L S L S L",
        "Ἤλιδος δυνάστορες,",
        [
            "280",
            "lek||B"
        ]
    ],
    [
        "L S L L L S L S L L S L",
        "οὓς Ἐπειοὺς ὠνόμαζε πᾶς λεώς:",
        [
            "280",
            "tr+lek"
        ]
    ],
    [
        "L S L S L S L S",
        "Εὔρυτος δ᾽ ἄνασσε τῶνδε,",
        [
            "281",
            "2tr"
        ]
    ],
    [
        "L L S L S L",
        "λευκήρετμον δ᾽ Ἄρη",
        [
            "282",
            "palimbacchiac+cr"
        ]
    ],
    [
        "S S S L S L S L S L S L",
        "Τάφιον †ἦγεν, ὧν Μέγης ἄνασσε†,",
        [
            "283",
            "?"
        ]
    ],
    [
        "L S L S L N",
        "Φυλέως λόχευμα,",
        [
            "285",
            "ith||B"
        ]
    ],
    [
        "L S L L S L",
        "τὰς Ἐχίνας λιπὼν",
        [
            "286",
            "2cr"
        ]
    ],
    [
        "L L L S L S L S L",
        "νήσους ναυβάταις ἀπροσφόρους.",
        [
            "287",
            "sp+lek"
        ]
    ],
    [
        "L L S S S L S L S L",
        "Αἴας δ᾽ ὁ Σαλαμῖνος ἔντροφος",
        [
            "288",
            "sp+lek"
        ]
    ],
    [
        "L S L S L",
        "†δεξιὸν κέρας",
        [
            "289",
            "?"
        ]
    ],
    [
        "L S L L S S S",
        "πρὸς τὸ λαιὸν ξυνᾶγε,",
        [
            "290",
            "?"
        ]
    ],
    [
        "L L S L L S L S",
        "τῶν ἆσσον ὥρμει πλάταισιν†",
        [
            "291",
            "?"
        ]
    ],
    [
        "L S L S L S L",
        "ἐσχάταισι συμπλέκων",
        [
            "292",
            "lek"
        ]
    ],
    [
        "L S L S L S L S L S L",
        "δώδεκ᾽ εὐστροφωτάταισι ναυσίν. ὣς",
        [
            "293",
            "tr+lek"
        ]
    ],
    [
        "L S L L L S L",
        "ἄιον καὶ ναυβάταν",
        [
            "294",
            "lek"
        ]
    ],
    [
        "L S L S L",
        "εἰδόμαν λεών:",
        [
            "295",
            "hypodoc"
        ]
    ],
    [
        "L S L S L S L",
        "ᾧ τις εἰ προσαρμόσει",
        [
            "296",
            "lek"
        ]
    ],
    [
        "L S L L S L",
        "βαρβάρους βάριδας,",
        [
            "297",
            "2cr"
        ]
    ],
    [
        "L S L S L S L",
        "νόστον οὐκ ἀποίσεται,",
        [
            "298",
            "lek||H"
        ]
    ],
    [
        "L S L S L S L",
        "ἐνθάδ᾽ οἷον εἰδόμαν",
        [
            "299",
            "lek"
        ]
    ],
    [
        "L S L S L N",
        "νάιον πόρευμα,",
        [
            "300",
            "ith||B"
        ]
    ],
    [
        "S S S L L S L S L L L",
        "τὰ δὲ κατ᾽ οἴκους κλύουσα συγκλήτου",
        [
            "301",
            "cr+tr+mol"
        ]
    ],
    [
        "L L L S L S L S L",
        "μνήμην σῴζομαι στρατεύματος.",
        [
            "302",
            "sp+lek"
        ]
    ],
    [
        "S S S L S S L S L",
        "μάκαρες οἳ μετρίας θεοῦ",
        [
            "543",
            "gly"
        ]
    ],
    [
        "S S S L S S L S L",
        "μετά τε σωφροσύνας μετέ-",
        [
            "544",
            "gly∫"
        ]
    ],
    [
        "L S L S S L L",
        "σχον λέκτρων Ἀφροδίτας,",
        [
            "545",
            "ph||"
        ]
    ],
    [
        "L S L L L S S L",
        "γαλανείᾳ χρησάμενοι",
        [
            "546",
            "wil"
        ]
    ],
    [
        "L S S L L L S S L",
        "μανιάδων οἴστρων, ὅθι δὴ",
        [
            "547",
            "wil"
        ]
    ],
    [
        "S S S L S S L S L",
        "δίδυμ᾽ ὁ χρυσοκόμας Ἔρως",
        [
            "548",
            "gly"
        ]
    ],
    [
        "L L L S L S S L",
        "τόξ᾽ ἐντείνεται χαρίτων,",
        [
            "549",
            "wil"
        ]
    ],
    [
        "S S S L L L S S L",
        "τὸ μὲν ἐπ᾽ εὐαίωνι πότμῳ,",
        [
            "550",
            "wil"
        ]
    ],
    [
        "S S S L S L S S L",
        "τὸ δ᾽ ἐπὶ συγχύσει βιοτᾶς.",
        [
            "551",
            "wil"
        ]
    ],
    [
        "S S S L S L S S L",
        "ἀπενέπω νιν ἁμετέρων,",
        [
            "552",
            "wil"
        ]
    ],
    [
        "L S S L L L S S L",
        "ὦ Κύπρι καλλίστα, θαλάμων.",
        [
            "553",
            "wil"
        ]
    ],
    [
        "L L S L S S L",
        "εἴη δέ μοι μετρία",
        [
            "554",
            "hept"
        ]
    ],
    [
        "L S L S L S S L",
        "μὲν χάρις, πόθοι δ᾽ ὅσιοι,",
        [
            "555",
            "wil"
        ]
    ],
    [
        "L S S L S L S S L",
        "καὶ μετέχοιμι τᾶς Ἀφροδί-",
        [
            "556",
            "wil∫"
        ]
    ],
    [
        "L L L S S L L",
        "τας, πολλὰν δ᾽ ἀποθείμαν.",
        [
            "557",
            "ph"
        ]
    ],
    [
        "S S S L S S L S L",
        "διάφοροι δὲ φύσεις βροτῶν,",
        [
            "558",
            "gly"
        ]
    ],
    [
        "S S S L S S L S L",
        "διάφοροι δὲ τρόποι: τὸ δ᾽ ὀρ-",
        [
            "559",
            "gly∫"
        ]
    ],
    [
        "L L L S S L L",
        "θῶς ἐσθλὸν σαφὲς αἰεί:",
        [
            "560",
            "ph||"
        ]
    ],
    [
        "S L L L L S S L",
        "τροφαί θ᾽ αἱ παιδευόμεναι",
        [
            "561",
            "wil"
        ]
    ],
    [
        "S S S L L L S S L",
        "μέγα φέρουσ᾽ ἐς τὰν ἀρετάν:",
        [
            "562",
            "wil"
        ]
    ],
    [
        "S S S L L L S S L",
        "τό τε γὰρ αἰδεῖσθαι σοφία,",
        [
            "563",
            "wil"
        ]
    ],
    [
        "L L L L L L S L",
        "†τάν τ᾽ ἐξαλλάσσουσαν ἔχει",
        [
            "564",
            "?"
        ]
    ],
    [
        "S S S L L L S S L",
        "χάριν ὑπὸ γνώμας ἐσορᾶν†",
        [
            "565",
            "wil?"
        ]
    ],
    [
        "S S S L S L S S L",
        "τὸ δέον, ἔνθα δόξα φέρει",
        [
            "566",
            "wil"
        ]
    ],
    [
        "S S S L S L S S L",
        "κλέος ἀγήρατον βιοτᾷ.",
        [
            "567",
            "wil"
        ]
    ],
    [
        "S S S L L L S S L",
        "μέγα τι θηρεύειν ἀρετάν,",
        [
            "568",
            "wil"
        ]
    ],
    [
        "S L S L S S L",
        "γυναιξὶ μὲν κατὰ Κύπ-",
        [
            "569",
            "hept∫"
        ]
    ],
    [
        "L L L S L S S L",
        "ριν κρυπτάν, ἐν ἀνδράσι δ᾽ αὖ",
        [
            "570",
            "wil"
        ]
    ],
    [
        "L S S L S L S S L",
        "†κόσμος ἐνὼν ὁ μυριοπλη-",
        [
            "571",
            "?"
        ]
    ],
    [
        "L L L S S L L",
        "θὴς† μείζω πόλιν αὔξει.",
        [
            "572",
            "ph"
        ]
    ],
    [
        "S S S L S S L S S S",
        "†ἔμολες, ὦ Πάρις, ᾗτε σύ γε†",
        [
            "573",
            "gly"
        ]
    ],
    [
        "L S S L L L S S L",
        "βουκόλος ἀργενναῖς ἐτράφης",
        [
            "574",
            "wil"
        ]
    ],
    [
        "L L L S S L L",
        "Ἰδαίαις παρὰ μόσχοις,",
        [
            "575",
            "ph||"
        ]
    ],
    [
        "L S S L L L S S L",
        "βάρβαρα συρίζων, Φρυγίων",
        [
            "576",
            "wil"
        ]
    ],
    [
        "L L L L L S S L",
        "αὐλῶν Οὐλύμπου καλάμοις",
        [
            "577",
            "wil"
        ]
    ],
    [
        "S L S S S L",
        "μιμήματα †πνέων†.",
        [
            "578",
            "?"
        ]
    ],
    [
        "L L L S S L S S S",
        "εὔθηλοι δὲ τρέφοντο βόες,",
        [
            "579",
            "gly"
        ]
    ],
    [
        "S S S L S S S S L",
        "†ὅτι σε κρίσις ἔμενε† θεᾶν,",
        [
            "580",
            "lek?"
        ]
    ],
    [
        "L S L S S L L",
        "ἅ σ᾽ ἐς Ἑλλάδα πέμπει:",
        [
            "581",
            "ph||H"
        ]
    ],
    [
        "S S L S S L S L",
        "ἐλεφαντοδέτων πάροι-",
        [
            "582",
            "T∫"
        ]
    ],
    [
        "L S L L L S S L",
        "θεν δόμων δὲ στὰς Ἑλένας",
        [
            "583",
            "wil"
        ]
    ],
    [
        "S L L L S S L",
        "ἐν ἀντωποῖς βλεφάροις",
        [
            "584",
            "hept"
        ]
    ],
    [
        "S L S S L L S L S",
        "ἔρωτά τ᾽ ἔδωκας, ἔρωτι τ᾽",
        [
            "585",
            "erasm"
        ]
    ],
    [
        "L S L S L L",
        "αὐτὸς ἐπτοήθης.",
        [
            "586",
            "ith||"
        ]
    ],
    [
        "S S S S S S",
        "ὅθεν ἔριν ἔριν",
        [
            "587",
            "tr"
        ]
    ],
    [
        "L S S L S S L S S L",
        "Ἑλλάδα σὺν δορὶ ναυσί τ᾽ ἄγεις",
        [
            "588",
            "4da\\^"
        ]
    ],
    [
        "L L L L S N",
        "†ἐς Τροίας πέργαμα†.",
        [
            "589",
            "?"
        ]
    ],
    [
        "L L L L S S L S S L",
        "ἰὼ ἰώ· μεγάλαι μεγάλων",
        [
            "590",
            "an2"
        ]
    ],
    [
        "L L S S L L L S S L",
        "εὐδαιμονίαι· τὴν τοῦ βαϲιλέωϲ",
        [
            "591",
            "an2"
        ]
    ],
    [
        "S S L S S L S S L S S L",
        "ἴδετʼ Ἰφιγένειαν, ἄναϲϲαν ἐμήν,",
        [
            "592",
            "an2"
        ]
    ],
    [
        "L L S S L S S L L L",
        "τὴν Τυνδάρεω τε Κλυταιμήϲτραν,",
        [
            "593",
            "an2"
        ]
    ],
    [
        "L L S S L L L L L",
        "ὡϲ ἐκ μεγάλων ἐβλαϲτήκαϲʼ",
        [
            "594",
            "an2"
        ]
    ],
    [
        "S S L L L L L S S L",
        "ἐπί τʼ εὐμήκειϲ ἥκουϲι τύχαϲ.",
        [
            "595",
            "an2"
        ]
    ],
    [
        "L L L L L L S S L",
        "θεοί γʼ οἱ κρείϲϲουϲ οἵ τʼ ὀλβοφόροι",
        [
            "596",
            "an2"
        ]
    ],
    [
        "L L L L S S L L",
        "τοῖϲ οὐκ εὐδαίμοϲι θνητῶν.",
        [
            "597",
            "par"
        ]
    ],
    [
        "L L L S S L S S L S S",
        "ϲτῶμεν, Χαλκίδοϲ ἔκγονα θρέμματα,",
        [
            "598",
            "an2"
        ]
    ],
    [
        "L S S L L L L S S L",
        "τὴν βαϲίλειαν δεξώμεθʼ ὄχων",
        [
            "599",
            "an2"
        ]
    ],
    [
        "S S L S S L S S L L",
        "ἄπο μὴ ϲφαλερῶϲ ἐπὶ γαῖαν,",
        [
            "600",
            "an2"
        ]
    ],
    [
        "S S L S S L S S L L L",
        "ἀγανῶϲ δὲ χεροῖν, μαλακῆι γνώμηι,",
        [
            "601",
            "an2"
        ]
    ],
    [
        "L L L L L L L S S",
        "μὴ ταρβήϲηι νεωϲτί μοι μολὸν",
        [
            "602",
            "an2"
        ]
    ],
    [
        "L L S S S S L S S",
        "κλεινὸν τέκνον Ἀγαμέμνονοϲ,",
        [
            "603",
            "(verse",
            "doesn’t",
            "appear",
            "to",
            "scan)"
        ]
    ],
    [
        "L S S L L L L L L",
        "μηδὲ θόρυβον μηδʼ ἔκπληξιν",
        [
            "604",
            "an2"
        ]
    ],
    [
        "L L L L",
        "ταῖϲ Ἀργείαιϲ",
        [
            "605",
            "an"
        ]
    ],
    [
        "L L L L S S L N",
        "ξεῖναι ξείναιϲ παρέχωμεν.",
        [
            "606",
            "par||B"
        ]
    ],
    [
        "L L L S S L S L",
        "ἥξει δὴ Σιμόεντα καὶ",
        [
            "751",
            "gly"
        ]
    ],
    [
        "L L L S S L L",
        "δίνας ἀργυροειδεῖς",
        [
            "752",
            "ph"
        ]
    ],
    [
        "L S S L L L S S L",
        "ἄγυρις Ἑλλάνων στρατιᾶς",
        [
            "753",
            "wil"
        ]
    ],
    [
        "S S S L L L S S L",
        "ἀνά τε ναυσὶν καὶ σὺν ὅπλοις",
        [
            "754",
            "wil"
        ]
    ],
    [
        "L S S L S L L",
        "Ἴλιον ἐς τὸ Τροίας",
        [
            "755",
            "arist"
        ]
    ],
    [
        "L L S L S S L",
        "Φοιβήιον δάπεδον,",
        [
            "756",
            "hept"
        ]
    ],
    [
        "L L L L S S L",
        "τὰν Κασάνδραν ἵν᾽ ἀκού-",
        [
            "757",
            "hept∫"
        ]
    ],
    [
        "L L L L L S S L",
        "ω ῥίπτειν ξανθοὺς πλοκάμους",
        [
            "758",
            "wil"
        ]
    ],
    [
        "L S S L S S L S L",
        "χλωροκόμῳ στεφάνῳ δάφνας",
        [
            "759",
            "ibyc"
        ]
    ],
    [
        "L L L S S L S L",
        "κοσμηθεῖσαν, ὅταν θεοῦ",
        [
            "760",
            "gly"
        ]
    ],
    [
        "L S S L L L S L L",
        "μαντόσυνοι πνεύσωσ᾽ ἀνάγκαι.",
        [
            "761",
            "?[^5]"
        ]
    ],
    [
        "L L L S S L S L",
        "στάσονται δ᾽ ἐπὶ περγάμων",
        [
            "762",
            "gly"
        ]
    ],
    [
        "L L L S S L L",
        "Τροίας ἀμφί τε τείχη",
        [
            "763",
            "ph"
        ]
    ],
    [
        "L S S L L L S S L",
        "Τρῶες, ὅταν χάλκασπις Ἄρης",
        [
            "764",
            "wil"
        ]
    ],
    [
        "L S S L L L S S L",
        "πόντιος εὐπρῴροιο πλάτας",
        [
            "765",
            "wil"
        ]
    ],
    [
        "L S S L S L L",
        "εἰρεσίᾳ πελάζῃ",
        [
            "766",
            "arist"
        ]
    ],
    [
        "S L S L S S L",
        "Σιμουντίοις ὀχετοῖς,",
        [
            "767",
            "hept"
        ]
    ],
    [
        "L L S L S S L",
        "τὰν τῶν ἐν αἰθέρι δισ-",
        [
            "768",
            "hept∫"
        ]
    ],
    [
        "L S L L L S S L",
        "σῶν Διοσκούρων Ἑλέναν",
        [
            "769",
            "wil"
        ]
    ],
    [
        "L S S L S S L S L",
        "ἐκ Πριάμου κομίσαι θέλων",
        [
            "770",
            "ibyc"
        ]
    ],
    [
        "L L L S S S S S L",
        "ἐς γᾶν Ἑλλάδα δοριπόνων",
        [
            "771",
            "gly"
        ]
    ],
    [
        "L S S L L L S L L",
        "ἀσπίσι καὶ λόγχαις Ἀχαιῶν.",
        [
            "772",
            "?"
        ]
    ],
    [
        "L S L S S L S L",
        "Πέργαμον δὲ Φρυγῶν πόλιν",
        [
            "773",
            "gly"
        ]
    ],
    [
        "L S L S S L L",
        "λαΐνους περὶ πύργους",
        [
            "774",
            "ph"
        ]
    ],
    [
        "L L L S L S S L",
        "κυκλώσας Ἄρει φονίῳ,",
        [
            "775",
            "wil"
        ]
    ],
    [
        "L S S L S S L L L",
        "λαιμοτόμου κεφαλᾶς †σπάσας",
        [
            "776",
            "4da\\^?"
        ]
    ],
    [
        "S L S L L",
        "πόλισμα Τρόιας†",
        [
            "777",
            "?"
        ]
    ],
    [
        "L L S S L S L",
        "πέρσας κατ᾽ ἄκρας πόλιν,",
        [
            "778",
            "tel"
        ]
    ],
    [
        "L L S L S S L",
        "θήσει κόρας πολυκλαύ-",
        [
            "779",
            "hept∫"
        ]
    ],
    [
        "L S L S L S S L",
        "τους δάμαρτά τε Πριάμου.",
        [
            "780",
            "wil||H"
        ]
    ],
    [
        "L S S S S S L S L",
        "ἁ δὲ Διὸς Ἑλένα κόρα",
        [
            "781",
            "gly"
        ]
    ],
    [
        "S S L S S L L",
        "πολύκλαυτος ἑσεῖται",
        [
            "782",
            "reiz"
        ]
    ],
    [
        "S L S S L N",
        "πόσιν προλιποῦσα.",
        [
            "783",
            "reiz||B"
        ]
    ],
    [
        "L S L L S L S S L S L",
        "μήτ᾽ ἐμοὶ μήτ᾽ ἐμοῖσι τέκνων τέκνοις",
        [
            "784-5",
            "cr+gly"
        ]
    ],
    [
        "L S L S S L L",
        "ἐλπὶς ἅδε ποτ᾽ ἔλθοι,",
        [
            "786",
            "ph||H"
        ]
    ],
    [
        "L L L S S L L",
        "οἵαν αἱ πολύχρυσοι",
        [
            "787",
            "ph"
        ]
    ],
    [
        "S L L S L S S L",
        "Λυδαὶ καὶ Φρυγῶν ἄλοχοι",
        [
            "788",
            "wil"
        ]
    ],
    [
        "L L S S L L",
        "σχήσουσι παρ᾽ ἱστοῖς",
        [
            "789",
            "reiz"
        ]
    ],
    [
        "L L L S S L L L",
        "μυθεῦσαι τάδ᾽ ἐς ἀλλήλας:",
        [
            "790",
            "gly"
        ]
    ],
    [
        "S S S L S S L S L",
        "Τίς ἄρα μ᾽ εὐπλοκάμους κόμας",
        [
            "791",
            "gly"
        ]
    ],
    [
        "S S S S S S L S S L",
        "†ἔρυμα δακρυόεν τανύσας†",
        [
            "792",
            "ia+cho?"
        ]
    ],
    [
        "S S S S S S L S S L S L",
        "πατρίδος ὀλυμένας ἀπολωτιεῖ;",
        [
            "793",
            "ia+dod"
        ]
    ],
    [
        "S S S L S L S S L S L S N",
        "διὰ σέ, τὰν κύκνου δολιχαύχενος γόνον,",
        [
            "794",
            "wil+ia||B"
        ]
    ],
    [
        "L L L S S S S L",
        "εἰ δὴ φάτις ἔτυμος ὡς",
        [
            "795",
            "ph"
        ]
    ],
    [
        "S S S L L L S L L S L",
        "†ἔτυχε, Λήδα† ὄρνιθι πταμένῳ",
        [
            "795",
            "?"
        ]
    ],
    [
        "S S S L L L S S L",
        "Διὸς ὅτ᾽ ἠλλάχθη δέμας, εἴτ᾽",
        [
            "796",
            "wil"
        ]
    ],
    [
        "L L L L S S L",
        "ἐν δέλτοις Πιερίσιν",
        [
            "797",
            "hept"
        ]
    ],
    [
        "L L S S L L L",
        "μῦθοι τάδ᾽ ἐς ἀνθρώπους",
        [
            "798",
            "tel"
        ]
    ],
    [
        "L L L S S L S L L",
        "ἤνεγκαν παρὰ καιρὸν ἄλλως.",
        [
            "800",
            "hipponactean"
        ]
    ],
    [
        "S S S S L L S S L L S S L",
        "τίν᾽ ἄρ᾽ Ὑμέναιος διὰ λωτοῦ Λίβυος",
        [
            "1036",
            "3cho"
        ]
    ],
    [
        "S S S S S S L S S L",
        "μετά τε φιλοχόρου κιθάρας",
        [
            "1037",
            "ia+cho"
        ]
    ],
    [
        "L L L S S S S S L",
        "συρίγγων θ᾽ ὑπὸ καλαμοεσ-",
        [
            "1038",
            "gly∫"
        ]
    ],
    [
        "L L L S S L L",
        "σᾶν ἔστασεν ἰαχάν,",
        [
            "1039",
            "ph||"
        ]
    ],
    [
        "S S S L S S L L L S S L",
        "ὅτ᾽ ἀνὰ Πήλιον αἱ καλλιπλόκαμοι",
        [
            "1040",
            "ph+cho[^6]"
        ]
    ],
    [
        "L S S S L L S S L",
        "Πιερίδες †ἐν δαιτὶ θεῶν†",
        [
            "1041",
            "?"
        ]
    ],
    [
        "L S S L S S L S",
        "χρυσεοσάνδαλον ἴχνος",
        [
            "1042",
            "D⏑"
        ]
    ],
    [
        "S",
        "‒ ‒ ‒ ‒ ‒",
        []
    ],
    [
        "L L L L L",
        "ἐν γᾷ κρούουσαι",
        [
            "1043",
            "pentamakron"
        ]
    ],
    [
        "L L L S S L L",
        "Πηλέως ἐς γάμον ἦλθον,",
        [
            "1044",
            "ph||Ba"
        ]
    ],
    [
        "S L L S S L L S S L L S S L",
        "μελῳδοῖς Θέτιν ἀχήμασι τόν τ᾽ Αἰακίδαν,",
        [
            "1045-6",
            "hexasyllable+2cho"
        ]
    ],
    [
        "L L L S S S S S L L",
        "Κενταύρων ἐν ὄρεσι κλέουσαι",
        [
            "1047",
            "hipponactean"
        ]
    ],
    [
        "L S S S S L L",
        "Πηλιάδα καθ᾽ ὕλαν;",
        [
            "1048",
            "ith"
        ]
    ],
    [
        "S S L S S L S L",
        "ὁ δὲ Δαρδανίδας, Διὸς",
        [
            "1049",
            "T"
        ]
    ],
    [
        "L L S L S S L",
        "λέκτρων τρύφημα φίλον,",
        [
            "1050",
            "hept"
        ]
    ],
    [
        "S S L S S L S L",
        "χρυσέοισιν ἄφυσσε λοι-",
        [
            "1051",
            "T∫"
        ]
    ],
    [
        "L L L L L S S L",
        "βὰν ἐν κρατήρων γυάλοις,",
        [
            "1052",
            "wil"
        ]
    ],
    [
        "S S S L S S L L",
        "ὁ Φρύγιος Γανυμήδης.",
        [
            "1053",
            "ph||"
        ]
    ],
    [
        "S S S L S S L S S S",
        "παρὰ δὲ λευκοφαῆ ψάμαθον",
        [
            "1054",
            "gly"
        ]
    ],
    [
        "L L S S L S S S",
        "εἱλισσόμεναι κύκλια",
        [
            "1055",
            "tel"
        ]
    ],
    [
        "L L L S S L L L",
        "πεντήκοντα κόραι Νηρέως",
        [
            "1056",
            "gly"
        ]
    ],
    [
        "S L S S L L",
        "γάμους ἐχόρευσαν.",
        [
            "1057",
            "reiz"
        ]
    ],
    [
        "S S S S L L S S L L S S L",
        "ἀνὰ δ᾽ ἐλάταισι στεφανώδει τε χλόᾳ",
        [
            "1058",
            "3cho"
        ]
    ],
    [
        "S S S S S S L S S L",
        "θίασος ἔμολεν ἱπποβάτας",
        [
            "1059",
            "ia+cho"
        ]
    ],
    [
        "L L L S S L S L",
        "Κενταύρων ἐπὶ δαῖτα τὰν",
        [
            "1060",
            "gly"
        ]
    ],
    [
        "L S L S S L L",
        "θεῶν κρατῆρά τε Βάκχου.",
        [
            "1061",
            "ph"
        ]
    ],
    [
        "S S S L S S L L L S S L",
        "μέγα δ᾽ ἀνέκλαγον: Ὦ Νηρηὶ κόρα,",
        [
            "1062",
            "ph+cho"
        ]
    ],
    [
        "L S S L S S L S S L",
        "παῖδα σὲ Θεσσαλίᾳ μέγα φῶς",
        [
            "1063",
            "4da\\^"
        ]
    ],
    [
        "L S S L S S L L",
        "μάντις ὁ φοιβάδα μοῦσαν",
        [
            "1064",
            "D⏑"
        ]
    ],
    [
        "S",
        "‒ ‒ ‒ ‒ ‒",
        []
    ],
    [
        "L L L L L",
        "εἰδὼς γεννάσειν",
        [
            "1065",
            "pentamakron"
        ]
    ],
    [
        "L L L S S L N",
        "Χείρων ἐξονόμαζεν,",
        [
            "1066",
            "ph||B"
        ]
    ],
    [
        "S L L S S L L S S L L S S L",
        "ὃς ἥξει χθόνα λογχήρεσι σὺν Μυρμιδόνων",
        [
            "1067-8",
            "hex+2cho"
        ]
    ],
    [
        "L L L S S L S L L",
        "ἀσπισταῖς Πριάμοιο κλεινὰν",
        [
            "1069",
            "hipponactean"
        ]
    ],
    [
        "L S L S L L",
        "γαῖαν ἐκπυρώσων,",
        [
            "1070",
            "ith"
        ]
    ],
    [
        "S S L S S L S L",
        "περὶ σώματι χρυσέων",
        [
            "1071",
            "T"
        ]
    ],
    [
        "L L L L S S L",
        "ὅπλων Ἡφαιστοπόνων",
        [
            "1072",
            "hept"
        ]
    ],
    [
        "S S L S S L S L",
        "κεκορυθμένος ἔνδυτ᾽, ἐκ",
        [
            "1073",
            "T"
        ]
    ],
    [
        "L L L L L S S L",
        "θεᾶς ματρὸς δωρήματ᾽ ἔχων",
        [
            "1074",
            "wil"
        ]
    ],
    [
        "S S S L S S L L",
        "Θέτιδος, ἅ νιν ἔτικτεν.",
        [
            "1075",
            "ph||"
        ]
    ],
    [
        "S S S L S S L S L",
        "μακάριον τότε δαίμονες",
        [
            "1076",
            "gly"
        ]
    ],
    [
        "L L S S L S L",
        "τᾶς εὐπάτριδος γάμον",
        [
            "1077",
            "tel"
        ]
    ],
    [
        "L L L S S L L L",
        "Νηρῄδων ἔθεσαν πρώτας",
        [
            "1078",
            "gly"
        ]
    ],
    [
        "L L S S L L",
        "Πηλέως θ᾽ ὑμεναίους.",
        [
            "1079",
            "reiz"
        ]
    ],
    [
        "S S S S L L L S L S S L",
        "σὲ δ᾽ ἐπὶ κάρα στέψουσι καλλικόμαν",
        [
            "1080",
            "ia+hept"
        ]
    ],
    [
        "S S S L L L S S L",
        "πλόκαμον Ἀργεῖοι, βαλιὰν",
        [
            "1081",
            "wil"
        ]
    ],
    [
        "L S S L L",
        "ὥστε πετραίων",
        [
            "1082a",
            "adonean"
        ]
    ],
    [
        "S L L L L S S L",
        "ἀπ᾽ ἄντρων ἐλθοῦσαν ὀρέων",
        [
            "1082b",
            "wil"
        ]
    ],
    [
        "L S S L S L S S S",
        "μόσχον ἀκήρατον, βρότειον",
        [
            "1083",
            "cho+ia?"
        ]
    ],
    [
        "L L L L L N",
        "αἱμάσσοντες λαιμόν:",
        [
            "1084",
            "hexamakron||B"
        ]
    ],
    [
        "L L L S S L S L",
        "οὐ σύριγγι τραφεῖσαν οὐδ᾽",
        [
            "1085",
            "gly"
        ]
    ],
    [
        "L L L S S L S L",
        "ἐν ῥοιβδήσεσι βουκόλων,",
        [
            "1086",
            "gly"
        ]
    ],
    [
        "S S S L S S L S S S",
        "παρὰ δὲ ματέρι νυμφοκόμον",
        [
            "1087-8",
            "gly"
        ]
    ],
    [
        "L S S L S L",
        "Ἰναχίδαις γάμον.",
        [
            "1089",
            "dod||"
        ]
    ],
    [
        "L S L L L L S L S S L",
        "ποῦ τὸ τᾶς Αἰδοῦς ἢ τὸ τᾶς Ἀρετᾶς",
        [
            "1090",
            "cr+wil"
        ]
    ],
    [
        "S L S S L N",
        "σθένει τι πρόσωπον,",
        [
            "1091",
            "reiz||B"
        ]
    ],
    [
        "S S S S S S L S S L",
        "ὁπότε τὸ μὲν ἄσεπτον ἔχει",
        [
            "1092",
            "ia+cho"
        ]
    ],
    [
        "S S S L S S L S S S",
        "δύνασιν, ἁ δ᾽ Ἀρετὰ κατόπι-",
        [
            "1093",
            "gly∫"
        ]
    ],
    [
        "L L L S S L L",
        "σθεν θνατοῖς ἀμελεῖται,",
        [
            "1094",
            "ph||H"
        ]
    ],
    [
        "S S S L S S L S L",
        "Ἀνομία δὲ νόμων κρατεῖ,",
        [
            "1095",
            "gly"
        ]
    ],
    [
        "L L L S S L L",
        "μή τις θεῶν φθόνος ἔλθῃ;",
        [
            "1097",
            "ph"
        ]
    ],
    [
        "L S S L S L",
        "ὦ τέκνον, ὦ ξέναι,",
        [
            "1276[^7]",
            "doc"
        ]
    ],
    [
        "L L S S L L L S S L",
        "οἲ 'γὼ θανάτου τοῦ σοῦ μελέα.",
        [
            "1277",
            "an2"
        ]
    ],
    [
        "L L S S L L L S S L",
        "φεύγει σε πατὴρ Ἅιδῃ παραδούς.",
        [
            "1278",
            "an2"
        ]
    ],
    [
        "L L L L L L L L L",
        "οἲ 'γώ, μᾶτερ: ταὐτὸν †ταὐτὸν γὰρ†",
        [
            "1279",
            "?"
        ]
    ],
    [
        "S S L L L L L S S L",
        "μέλος εἰς ἄμφω πέπτωκε τύχης,",
        [
            "1280",
            "an2"
        ]
    ],
    [
        "L S S L L",
        "κοὐκέτι μοι φῶς",
        [
            "1281",
            "an"
        ]
    ],
    [
        "L L S S L S S L N",
        "οὐδ᾽ ἀελίου τόδε φέγγος.",
        [
            "1282",
            "par||B"
        ]
    ],
    [
        "S L S L",
        "ἰὼ ἰώ.",
        [
            "1283",
            "ia"
        ]
    ],
    [
        "S S S L S L S N",
        "νιφόβολον Φρυγῶν νάπος",
        [
            "1284[^8]",
            "lek||B"
        ]
    ],
    [
        "L L S S S S S S",
        "Ἴδας τ᾽ ὄρεα, Πρίαμος",
        [
            "1285",
            "sp+tr"
        ]
    ],
    [
        "S S S S S S S S S S S S",
        "ὅθι ποτὲ βρέφος ἁπαλὸν ἔβαλε",
        [
            "1286",
            "2tr"
        ]
    ],
    [
        "L S S S S L S L",
        "ματρὸς ἀποπρὸ νοσφίσας",
        [
            "1287",
            "lek"
        ]
    ],
    [
        "S S S L S S S L S",
        "ἐπὶ μόρῳ θανατόεντι",
        [
            "1288",
            "cr+tr"
        ]
    ],
    [
        "S S S L L S L",
        "Πάριν, ὃς Ἰδαῖος Ἰ-",
        [
            "1289",
            "2cr∫"
        ]
    ],
    [
        "L S S S S S S S L S L S L",
        "δαῖος ἐλέγετ᾽ ἐλέγετ᾽ ἐν Φρυγῶν πόλει,",
        [
            "1290",
            "2tr+cr"
        ]
    ],
    [
        "L S L S L S L S",
        "μή ποτ᾽ ὤφελες τὸν ἀμφὶ",
        [
            "1291",
            "2tr"
        ]
    ],
    [
        "L S L S L S L S",
        "βουσὶ βουκόλον τραφέντ᾽ Ἀ-",
        [
            "1292",
            "2tr∫"
        ]
    ],
    [
        "L L S L S L",
        "λέξανδρον οἰκίσαι",
        [
            "1293",
            "palimbacchiac+cr||H"
        ]
    ],
    [
        "L S S L S S L S S L L",
        "ἀμφὶ τὸ λευκὸν ὕδωρ, ὅθι κρῆναι",
        [
            "1294",
            "4da"
        ]
    ],
    [
        "L L L L",
        "Νυμφᾶν κεῖνται",
        [
            "1295",
            "2sp"
        ]
    ],
    [
        "L L L S S L L",
        "λειμών τ᾽ ἔρνεσι θάλλων",
        [
            "1296",
            "sp+da+sp?"
        ]
    ],
    [
        "L L L S S L",
        "χλωροῖς καὶ ῥοδόεντ᾽",
        [
            "1297",
            "D?"
        ]
    ],
    [
        "L S S S L S S S L S L L S S S",
        "ἄνθε᾽ ὑακίνθινά τε θεαῖς δρέπειν: ἔνθα ποτὲ",
        [
            "1298-9",
            "4cr"
        ]
    ],
    [
        "L S S S S L S S S L S N",
        "Παλλὰς ἔμολε καὶ δολιόφρων Κύπρις",
        [
            "1300",
            "tr+2cr?"
        ]
    ],
    [
        "L L L L S S S L S N",
        "†Ἥρα θ᾽ Ἑρμᾶς θ᾽, ὁ Διὸς ἄγγελος†,",
        [
            "1301-2",
            "?"
        ]
    ],
    [
        "L S S S S L S L S",
        "ἃ μὲν ἐπὶ πόθῳ τρυφῶσα",
        [
            "1303",
            "2tr"
        ]
    ],
    [
        "L S L S S S L N",
        "Κύπρις, ἃ δὲ δορὶ Παλλάς,",
        [
            "1304",
            "cr+tr||B?"
        ]
    ],
    [
        "L L S S S S L S",
        "Ἥρα τε Διὸς ἄνακτος",
        [
            "1305",
            "palimb+tr"
        ]
    ],
    [
        "L L S S S S L",
        "εὐναῖσι βασιλίσιν,",
        [
            "1306",
            "palimb+cr"
        ]
    ],
    [
        "S S S L L L S L S",
        "κρίσιν ἐπὶ στυγνὰν ἔριν τε",
        [
            "1307",
            "2tr"
        ]
    ],
    [
        "L S L S L S S S S",
        "καλλονᾶς, ἐμοὶ δὲ θάνατον,",
        [
            "1308",
            "2tr"
        ]
    ],
    [
        "S S S L S L S S S S",
        "ὄνομα μὲν φέροντα Δαναΐ-",
        [
            "1309",
            "2tr∫"
        ]
    ],
    [
        "L S L S S S S S S",
        "σιν, κόραις, πρόθυμα δ᾽ ἔλαβεν",
        [
            "1310",
            "lek"
        ]
    ],
    [
        "L S L S L S N",
        "Ἄρτεμις πρὸς Ἴλιον.",
        [
            "1311",
            "lek||B"
        ]
    ],
    [
        "S S S L S L S L S",
        "ὁ δὲ τεκών με τὰν τάλαιναν,",
        [
            "1312",
            "2tr"
        ]
    ],
    [
        "L L S L L S",
        "ὦ μᾶτερ ὦ μᾶτερ,",
        [
            "1313",
            "2",
            "palimb"
        ]
    ],
    [
        "L S L S L S L L",
        "οἴχεται προδοὺς ἔρημον.",
        [
            "1314",
            "2tr"
        ]
    ],
    [
        "L S L S L S L",
        "δυστάλαιν᾽ ἐγώ, πικρὰν",
        [
            "1315",
            "lek"
        ]
    ],
    [
        "S L S L S S S S L",
        "πικρὰν ἰδοῦσα δυσελέναν,",
        [
            "1316",
            "2ia"
        ]
    ],
    [
        "S L S L S L S L",
        "φονεύομαι διόλλυμαι",
        [
            "1317",
            "2ia"
        ]
    ],
    [
        "S L S S S S L S S S S L S L",
        "σφαγαῖσιν ἀνοσίοισιν ἀνοσίου πατρός.",
        [
            "1318",
            "3ia||"
        ]
    ],
    [
        "L L L L L L S S L",
        "μή μοι ναῶν χαλκεμβολάδων",
        [
            "1319",
            "2an"
        ]
    ],
    [
        "L L L L L L L L",
        "πρύμνας ἅδ᾽ Αὐλὶς δέξασθαι",
        [
            "1320",
            "2an"
        ]
    ],
    [
        "L L L L L L L",
        "τούσδ᾽ εἰς ὅρμους †εἰς Τροίαν",
        [
            "1321",
            "(par?)"
        ]
    ],
    [
        "L S S S S L L L L",
        "ὤφελεν ἐλάταν πομπαίαν†,",
        [
            "1322",
            "(par?)"
        ]
    ],
    [
        "L L L L L L L",
        "μηδ᾽ ἀνταίαν Εὐρίπῳ",
        [
            "1323",
            "par"
        ]
    ],
    [
        "L L L L L L L L",
        "πνεῦσαι πομπὰν Ζεύς, εἱλίσσων",
        [
            "1324",
            "2an"
        ]
    ],
    [
        "L L L L L L L L",
        "αὔραν ἄλλοις ἄλλαν θνατῶν",
        [
            "1325",
            "2an"
        ]
    ],
    [
        "L S S L L",
        "λαίφεσι χαίρειν,",
        [
            "1326",
            "an"
        ]
    ],
    [
        "L S S L L L S S L L",
        "τοῖσι δὲ λύπαν, τοῖσι δ᾽ ἀνάγκαν,",
        [
            "1327",
            "2an"
        ]
    ],
    [
        "L L L L L L L L",
        "τοῖς δ᾽ ἐξορμᾶν, τοῖς δὲ στέλλειν,",
        [
            "1328",
            "2an"
        ]
    ],
    [
        "L S S L L",
        "τοῖσι δὲ μέλλειν.",
        [
            "1329",
            "an"
        ]
    ],
    [
        "L S S L S S L S S L S S L N",
        "ἦ πολύμοχθον ἄρ᾽ ἦν γένος, ἦ πολύμοχθον",
        [
            "1330",
            "da?[^9]"
        ]
    ],
    [
        "L S S S L L",
        "ἀνδράσιν ἀνευρεῖν.",
        [
            "1333",
            "cr+sp"
        ]
    ],
    [
        "S L",
        "ἰὼ,",
        [
            "1334a",
            "extra",
            "metric"
        ]
    ],
    [
        "S S S S S S S S S S S S",
        "μεγάλα πάθεα, μεγάλα δ᾽ ἄχεα",
        [
            "1334b",
            "2tr"
        ]
    ],
    [
        "S S S L S L S L S L S L",
        "Δαναΐδαις τιθεῖσα Τυνδαρὶς κόρα.",
        [
            "1335",
            "tr+lek"
        ]
    ],
    [
        "S S S S L L S L",
        "ἄγετέ με τὰν Ἰλίου",
        [
            "1475",
            "ia+cr"
        ]
    ],
    [
        "L S L S L S L",
        "καὶ Φρυγῶν ἑλέπτολιν.",
        [
            "1476",
            "lek||"
        ]
    ],
    [
        "S S S S S S S S S S S S",
        "στέφεα περίβολα δίδοτε, φέρε-",
        [
            "1477",
            "2ia∫"
        ]
    ],
    [
        "S S S S S S S L S L",
        "τε — πλόκαμος ὅδε καταστέφειν —",
        [
            "1478",
            "2ia"
        ]
    ],
    [
        "L S L S L L",
        "χερνίβων τε παγάς.",
        [
            "1479",
            "ith||"
        ]
    ],
    [
        "S L S L S L N",
        "ἑλίσσετ᾽ ἀμφὶ ναὸν",
        [
            "1480",
            "ia+ba||B"
        ]
    ],
    [
        "L S L S L S L",
        "ἀμφὶ βωμὸν Ἄρτεμιν,",
        [
            "1481",
            "lek"
        ]
    ],
    [
        "L S L S L S L",
        "τὰν ἄνασσαν Ἄρτεμιν,",
        [
            "1482",
            "lek"
        ]
    ],
    [
        "L S L S L S L S L S L",
        "τὰν μάκαιραν: ὡς ἐμοῖσιν, εἰ χρεών,",
        [
            "1483-4",
            "2tr+cr"
        ]
    ],
    [
        "L S S L S S S",
        "αἵμασι θύμασί τε",
        [
            "1485",
            "doc?"
        ]
    ],
    [
        "L S L S L L",
        "θέσφατ᾽ ἐξαλείψω.",
        [
            "1486",
            "ith||H"
        ]
    ],
    [
        "L S S S S S S L S L S S S S L",
        "ὦ πότνια πότνια μᾶτερ, οὐ δάκρυά γέ σοι",
        [
            "1487-8",
            "3ia"
        ]
    ],
    [
        "L S S L S S S",
        "δώσομεν ἁμέτερα:",
        [
            "1489",
            "doc"
        ]
    ],
    [
        "S S S L S L S L",
        "παρ᾽ ἱεροῖς γὰρ οὐ πρέπει.",
        [
            "1490",
            "lek||H"
        ]
    ],
    [
        "S L S L S L S L",
        "ἰὼ ἰὼ νεάνιδες,",
        [
            "1491",
            "2ia"
        ]
    ],
    [
        "S S S L S L S L",
        "συνεπαείδετ᾽ Ἄρτεμιν",
        [
            "1492",
            "lek"
        ]
    ],
    [
        "L S S L S S S",
        "Χαλκίδος ἀντίπορον,",
        [
            "1493",
            "doc"
        ]
    ],
    [
        "S S S S S S S S S S S",
        "ἵνα τε δόρατα μέμονε νάϊ᾽",
        [
            "1494",
            "lek"
        ]
    ],
    [
        "S S S S S L L S L",
        "ὄνομα δι᾽ ἐμὸν Αὐλίδος",
        [
            "1495",
            "lek"
        ]
    ],
    [
        "S S S L S L L",
        "στενοπόροις ἐν ὅρμοις.",
        [
            "1496",
            "ith"
        ]
    ],
    [
        "S L L L S L S L S L",
        "ἰὼ γᾶ μᾶτερ ὦ Πελασγία,",
        [
            "1497",
            "ba+lek"
        ]
    ],
    [
        "S L L L S L S L L",
        "Μυκηναῖαί τ᾽ ἐμαὶ θεράπναι",
        [
            "1498",
            "ba+ith"
        ]
    ],
    [
        "S L S L S L S L",
        "καλεῖς πόλισμα Περσέως,",
        [
            "1500",
            "2ia"
        ]
    ],
    [
        "S L S L S L S L",
        "Κυκλωπίων πόνον χερῶν;",
        [
            "1501",
            "2ia||"
        ]
    ],
    [
        "S L S L S S S S L",
        "ἐθρέψαθ᾽ Ἑλλάδι με φάος:",
        [
            "1502",
            "2ia"
        ]
    ],
    [
        "S L S L S L S L",
        "θανοῦσα δ᾽ οὐκ ἀναίνομαι.",
        [
            "1503",
            "2ia"
        ]
    ],
    [
        "S L S L S L S L",
        "κλέος γὰρ οὔ σε μὴ λίπῃ.",
        [
            "1504",
            "2ia||"
        ]
    ],
    [
        "S L S L",
        "ἰὼ ἰώ.",
        [
            "1505",
            "ia"
        ]
    ],
    [
        "L S L S L S L",
        "λαμπαδοῦχος ἁμέρα",
        [
            "1506",
            "lek"
        ]
    ],
    [
        "S L S L S S S S L",
        "Διός τε φέγγος, ἕτερον αἰ-",
        [
            "1507",
            "2ia∫"
        ]
    ],
    [
        "L S L L S L L S L",
        "ῶνα καὶ μοῖραν οἰκήσομεν.",
        [
            "1508",
            "3cr"
        ]
    ],
    [
        "L S L S L S N",
        "χαῖρέ μοι, φίλον φάος[^",
        [
            "10].",
            "1509",
            "lek||B"
        ]
    ],
    [
        "S L S L",
        "ἰὼ ἰώ.",
        [
            "1510a",
            "ia"
        ]
    ],
    [
        "S L S L L S L",
        "ἴδεσθε τὰν Ἰλίου",
        [
            "1510b",
            "ia+cr"
        ]
    ],
    [
        "L S L S L S L",
        "καὶ Φρυγῶν ἑλέπτολιν",
        [
            "1511",
            "lek"
        ]
    ],
    [
        "L L S S S S L S L",
        "στείχουσαν, ἐπὶ κάρα στέφη",
        [
            "1512",
            "2ia"
        ]
    ],
    [
        "S L S L L S L S L L",
        "βαλουμέναν χερνίβων τε παγάς,",
        [
            "1513",
            "ia+ith"
        ]
    ],
    [
        "L L S L S L S L",
        "βωμόν γε δαίμονος θεᾶς",
        [
            "1514",
            "2ia"
        ]
    ],
    [
        "S S S L S L S L",
        "ῥανίσιν αἱματορρύτοις",
        [
            "1515",
            "lek"
        ]
    ],
    [
        "S L S L S L S L S L S L",
        "†θανοῦσαν εὐφυῆ τε σώματος δέρην",
        [
            "1516",
            "3ia"
        ]
    ],
    [
        "S L S L S L L L",
        "σφαγεῖσαν. εὔδροσοι παγαὶ",
        [
            "1517",
            "?"
        ]
    ],
    [
        "S L L S L S S L S L S",
        "πατρῷαι μένουσι σεχέρνιβές τέ†",
        [
            "1518",
            "?"
        ]
    ],
    [
        "S L S L L S L",
        "στρατός τ᾽ Ἀχαιῶν θέλων",
        [
            "1519",
            "ia+cr"
        ]
    ],
    [
        "L S L S L S S",
        "Ἰλίου πόλιν μολεῖν.",
        [
            "1520",
            "lek||"
        ]
    ],
    [
        "L S L S L S L",
        "ἀλλὰ τὰν Διὸς κόραν",
        [
            "1521",
            "lek"
        ]
    ],
    [
        "L L S L S L",
        "κλῄσωμεν Ἄρτεμιν,",
        [
            "1522",
            "paeon+cr"
        ]
    ],
    [
        "S L S L S L S L S L S L",
        "θεῶν ἄνασσαν, ὡς ἐπ᾽ εὐτυχεῖ πότμῳ.",
        [
            "1523",
            "3ia||H"
        ]
    ],
    [
        "S L S L S L S L",
        "χαρεῖσα, πέμψον ἐς Φρυγῶν",
        [
            "1525",
            "2ia"
        ]
    ],
    [
        "L S L S L S L",
        "γαῖαν Ἑλλάνων στρατὸν",
        [
            "1526",
            "cr+ia=lek"
        ]
    ],
    [
        "L S S L S L L S L",
        "†καὶ δολόεντα Τροίας ἕδη,",
        [
            "1527",
            "?"
        ]
    ],
    [
        "S S L S S S L L",
        "Ἀγαμέμνονά τε λόγχαις",
        [
            "1528",
            "?"
        ]
    ],
    [
        "L S S L S S L S S L",
        "Ἑλλάδι κλεινότατον στέφανον",
        [
            "1529",
            "?"
        ]
    ],
    [
        "S L S S S S L",
        "δὸς ἀμφὶ κάρα ἑὸν†",
        [
            "1530",
            "?"
        ]
    ],
    [
        "S S S L L S L S L L",
        "κλέος ἀείμνηστον ἀμφιθεῖναι.",
        [
            "1531",
            "cr+ith||"
        ]
    ],
    [
        "L L L L L S S S L",
        "ΚΛ. ὦ παῖ, θεῶν τοῦ κλέμμα γέγοναϲ;",
        [
            "1615",
            "verse",
            "doesn’t",
            "appear",
            "to",
            "scan"
        ]
    ],
    [
        "L S S L L L L L",
        "πῶϲ ϲε προϲείπω; πῶϲ δʼ οὐ φῶ",
        [
            "1616",
            "par"
        ]
    ],
    [
        "S S L L L L S S L L L",
        "παραμυθεῖϲθαι τούϲδε μάτην μύθουϲ,",
        [
            "1617",
            "verse",
            "doesn’t",
            "appear",
            "to",
            "scan"
        ]
    ],
    [
        "L L L L L L L L L",
        "ὥϲ ϲου πένθουϲ λυγροῦ παυϲαίμην;",
        [
            "1618",
            "verse",
            "doesn’t",
            "appear",
            "to",
            "scan"
        ]
    ],
    [
        "L L S S L L S L L L",
        "ΧΟ. καὶ μὴν Ἀγαμέμνων ἄναξ ϲτείχει,",
        [
            "1619",
            "?"
        ]
    ],
    [
        "L L L S L L L L L L",
        "τούϲδʼ αὐτοὺϲ ἔχων ϲοι φράζειν μύθουϲ.",
        [
            "1620",
            "?"
        ]
    ],
    [
        "L L L L L L L L",
        "ΧΟ. χαίρων, Ἀτρείδη, γῆν ἱκοῦ",
        [
            "1627",
            "an2"
        ]
    ],
    [
        "S S L L L S S L N",
        "Φρυγίαν, χαίρων δʼ ἐπάνηκε,",
        [
            "1628",
            "par||B"
        ]
    ],
    [
        "L L S L L S S L L S L",
        "κάλλιϲτά μοι ϲκῦλʼ ἀπὸ Τροίαϲ ἑλών.",
        [
            "1629",
            "verse",
            "doesn’t",
            "appear",
            "to",
            "scan"
        ]
    ]
]