[
    [
        "L S S L S S L S S L S S L S S L L",
        "Ελ. ὦ μεγάλων ἀχέων καταβαλλομένα μέγαν οἶκτον",
        [
            "164",
            "dac6"
        ]
    ],
    [
        "L S S L L L S S L S S L S S L L",
        "ποῖον ἁμιλλαθῶ γόον ἢ τίνα μοῦϲαν ἐπέλθω",
        [
            "165",
            "dac6"
        ]
    ],
    [
        "L S S L L L L L S S L L",
        "δάκρυϲιν ἢ θρήνοιϲ ἢ πένθεϲιν; αἰαῖ.",
        [
            "166",
            "dac5"
        ]
    ],
    [
        "S S S L S L S L",
        "Ελ. πτεροφόροι νεάνιδεϲ,",
        [
            "167",
            "lek"
        ]
    ],
    [
        "L S L S L S L",
        "παρθένοι Χθονὸϲ κόραι,",
        [
            "168",
            "lek"
        ]
    ],
    [
        "L L S L S L",
        "Ϲειρῆνεϲ, εἴθʼ ἐμοῖϲ",
        [
            "169",
            "pa",
            "+",
            "cr"
        ]
    ],
    [
        "S L S L S L L S L",
        "†γόοιϲ μόλοιτʼ ἔχουϲαι Λίβυν",
        [
            "170[^1]"
        ]
    ],
    [
        "L S L S L S L",
        "λωτὸν ἢ ϲύριγγαϲ ἢ",
        [
            "171a"
        ]
    ],
    [
        "L L S L S L S L",
        "φόρμιγγαϲ αἰλίνοιϲ κακοῖϲ†",
        [
            "171b",
            "?lek||Ba"
        ]
    ],
    [
        "L S L S S S S S S S",
        "τοῖϲ ἐμοῖϲι ϲύνοχα δάκρυα,",
        [
            "172",
            "tr2"
        ]
    ],
    [
        "S S S S S S S S S S S S",
        "πάθεϲι πάθεα, μέλεϲι μέλεα,",
        [
            "173",
            "tr2"
        ]
    ],
    [
        "L L S L L S",
        "μουϲεῖα θρηνήμα-",
        [
            "174a",
            "pa",
            "+pa∫"
        ]
    ],
    [
        "L S L S L L S",
        "ϲι ξυνωιδά, πέμψαιτε",
        [
            "174b",
            "tr",
            "+",
            "pa"
        ]
    ],
    [
        "L S L S S S S S S S",
        "Φερϲέφαϲϲα †φονία χάριταϲ†",
        [
            "175",
            "tr2"
        ]
    ],
    [
        "S S S S S S S S S S S S",
        "ἵνʼ ἐπὶ δάκρυϲι παρʼ ἐμέθεν ὑπὸ",
        [
            "176",
            "tr2"
        ]
    ],
    [
        "S S S S S S L L S",
        "μέλαθρα νύχια παιᾶνα",
        [
            "177",
            "tr",
            "+",
            "pa"
        ]
    ],
    [
        "S S S S S S L S L",
        "νέκυϲιν ὀλομένοιϲ λάβηι.",
        [
            "178",
            "lek"
        ]
    ],
    [
        "S S S L S L S L",
        "Χο. κυανοειδὲϲ ἀμφ' ὕδωρ",
        [
            "179",
            "lek"
        ]
    ],
    [
        "S S S S S S S S S L",
        "ἔτυχον ἕλικά τ' ἀνὰ χλόαν",
        [
            "180",
            "lek"
        ]
    ],
    [
        "L L S L S L",
        "φοίνικαϲ ἁλίωι",
        [
            "181",
            "pa",
            "+",
            "cr"
        ]
    ],
    [
        "L L S S L S L L",
        "†πέπλουϲ χρυϲέαιϲιν αὐγαῖϲ",
        [
            "182a[^2]"
        ]
    ],
    [
        "L L",
        "θάλπουϲʼ†",
        [
            "182b"
        ]
    ],
    [
        "L S S S S L S N",
        "ἀμφὶ δόνακοϲ ἔρνεϲιν·",
        [
            "183",
            "lek||B"
        ]
    ],
    [
        "L S L S S S S S S S",
        "ἔνθεν οἰκτρὸν ὃμαδον ἔκλυον,",
        [
            "184",
            "tr2"
        ]
    ],
    [
        "S S S S S S S S S S S S",
        "ἄλυρον ἔλεγον, ὅτι ποτʼ ἔλακεν",
        [
            "185",
            "tr2"
        ]
    ],
    [
        "L L S L L S",
        "αἰάγμα-",
        [
            "186a",
            "pa",
            "+",
            "pa∫[^3]"
        ]
    ],
    [
        "L S L S L L S",
        "ϲι ϲτένουϲα νύμφα τιϲ",
        [
            "186b",
            "tr",
            "+",
            "pa"
        ]
    ],
    [
        "L S L S S S S S S S",
        "οἷα Ναῒϲ ὄρεϲι †φυγάδα",
        [
            "187",
            "tr2"
        ]
    ],
    [
        "S L S L S S S S S S S",
        "γάμων† ἱεῖϲα γοερόν, ὑπὸ[^",
        [
            "4]",
            "δὲ",
            "188",
            "?[^5]"
        ]
    ],
    [
        "S S S S S S L L S",
        "πέτρινα γύαλα κλαγγαῖϲι",
        [
            "189",
            "tr",
            "+",
            "pa"
        ]
    ],
    [
        "L S S S S L S L",
        "Πανὸϲ ἀναβοᾶι γάμουϲ.",
        [
            "190",
            "lek"
        ]
    ],
    [
        "L L L S L S L S L",
        "Ελ. ὦ θήραμα βαρβάρου πλάταϲ,",
        [
            "191",
            "sp",
            "+",
            "lek"
        ]
    ],
    [
        "L L S L S L",
        "Ἑλλανίδεϲ κόραι,",
        [
            "192",
            "pa",
            "+",
            "cr||Ha"
        ]
    ],
    [
        "L L S L L S",
        "ναύταϲ Ἀχαιῶν τιϲ",
        [
            "193",
            "pa",
            "+",
            "pa"
        ]
    ],
    [
        "S S S S S S S S S S S S L S L",
        "ἔμολεν ἔμολε δάκρυα δάκρυϲί μοι φέρων·",
        [
            "194-5",
            "tr2",
            "+",
            "cr"
        ]
    ],
    [
        "L S L S L S L",
        "Ἰλίου καταϲκαφαὶ",
        [
            "196",
            "lek"
        ]
    ],
    [
        "S S S L S L S L",
        "πυρὶ μέλουϲι δαΐωι",
        [
            "197",
            "lek"
        ]
    ],
    [
        "S S S L S L S L",
        "διʼ ἐμὲ τὰν πολυκτόνον,",
        [
            "198",
            "lek"
        ]
    ],
    [
        "S S S S S S S S S L",
        "διʼ ἐμὸν ὄνομα πολύπονον,",
        [
            "199",
            "lek"
        ]
    ],
    [
        "L L S L S L",
        "Λήδα δʼ ἐν ἀγχόναιϲ",
        [
            "200",
            "pa",
            "+",
            "cr"
        ]
    ],
    [
        "S S S S S S L L",
        "θάνατον ἔλαβεν αἰϲχύ-",
        [
            "201",
            "tr",
            "+",
            "sp∫"
        ]
    ],
    [
        "L S L S L S L",
        "ναϲ ἐμᾶϲ ὑπʼ ἀλγέων,",
        [
            "202",
            "lek"
        ]
    ],
    [
        "S S S S S S S S S L",
        "ὁ δʼ ἐμὸϲ ἐν ἁλὶ πολυπλανὴϲ",
        [
            "203",
            "lek"
        ]
    ],
    [
        "S S S S S S L S L",
        "πόϲιϲ ὀλόμενοϲ οἴχεται,",
        [
            "204",
            "lek"
        ]
    ],
    [
        "L S L S L S L S",
        "Κάϲτορόϲ τε ϲυγγόνου τε",
        [
            "205",
            "tr2"
        ]
    ],
    [
        "S S S S S S L S S S S",
        "διδυμογενὲϲ ἄγαλμα πατρίδοϲ",
        [
            "206",
            "tr2"
        ]
    ],
    [
        "S S S S S S L S S S S",
        "ἀφανὲϲ ἀφανὲϲ ἱππόκροτα λέ-",
        [
            "207",
            "tr2∫"
        ]
    ],
    [
        "L S S S S L S S S S",
        "λοιπε δάπεδα γυμνάϲιά τε",
        [
            "208",
            "tr2"
        ]
    ],
    [
        "S S S L S L L",
        "δονακόεντοϲ Εὐρώ-",
        [
            "209",
            "tr",
            "+",
            "sp∫"
        ]
    ],
    [
        "L S L S L S N",
        "τα, νεανιᾶν πόνον.",
        [
            "210",
            "lek"
        ]
    ],
    [
        "L L L S L S L S L",
        "Χο. αἰαῖ δαίμονοϲ πολυϲτόνου",
        [
            "211",
            "sp",
            "+",
            "lek"
        ]
    ],
    [
        "L L S L S L",
        "μοίραϲ τε ϲᾶϲ, γύναι.",
        [
            "212",
            "pa",
            "+",
            "cr||H"
        ]
    ],
    [
        "L L S L L S",
        "αἰὼν δυϲαίων τιϲ",
        [
            "213",
            "pa",
            "+",
            "pa"
        ]
    ],
    [
        "S S S S S S S S S S S S L S L",
        "ἔλαχεν ἔλαχεν, ὅτε ϲʼ ἐτέκετο ματρόθεν",
        [
            "214",
            "tr2",
            "+cr"
        ]
    ],
    [
        "S S S L S L S L",
        "χιονόχρωι κύκνου πτερῶι",
        [
            "215",
            "lek"
        ]
    ],
    [
        "L S L S L S L",
        "Ζεὺϲ πρέπων διʼ αἰθέροϲ.",
        [
            "216",
            "lek"
        ]
    ],
    [
        "S S S L S L S L",
        "τί γὰρ ἄπεϲτί ϲοι κακῶν;",
        [
            "217",
            "lek"
        ]
    ],
    [
        "S S S S S S L S L",
        "τί δʼ ἀνὰ βίοτον οὐκ ἔτλαϲ;",
        [
            "218",
            "lek"
        ]
    ],
    [
        "L L S L S L",
        "μάτηρ μὲν οἴχεται,",
        [
            "219",
            "pa",
            "+",
            "cr"
        ]
    ],
    [
        "S S S S S S L L",
        "δίδυμά τε Διὸϲ οὐκ εὐ-",
        [
            "220",
            "tr",
            "+",
            "sp∫"
        ]
    ],
    [
        "L S L S S S S L",
        "δαιμονεῖ τέκεα φίλα,",
        [
            "221",
            "lek"
        ]
    ],
    [
        "S S S S S S L S L",
        "χθόνα δὲ πάτριον οὐχ ὁρᾶιϲ,",
        [
            "222",
            "lek"
        ]
    ],
    [
        "S S S S S S L S L",
        "διὰ δὲ πόλιαϲ ἔρχεται",
        [
            "223",
            "lek"
        ]
    ],
    [
        "L S L S L S L S",
        "βάξιϲ ἅ ϲε βαρβάροιϲι,",
        [
            "224",
            "tr2"
        ]
    ],
    [
        "S S S S S S L S S S S",
        "πότνια, παραδίδωϲι λέχεϲιν,",
        [
            "225",
            "tr2"
        ]
    ],
    [
        "S S S S S S L S S S S",
        "ὁ δὲ ϲὸϲ ἐν ἁλὶ κύμαϲί τε λέ-",
        [
            "226a",
            "tr2∫"
        ]
    ],
    [
        "L S S S S L S S S S",
        "λοιπε βίοτον, οὐδέ ποτʼ ἔτι",
        [
            "226b",
            "tr2"
        ]
    ],
    [
        "S S S S S S L L",
        "πάτρια μέλαθρα καὶ τὰν",
        [
            "227",
            "tr",
            "+",
            "sp"
        ]
    ],
    [
        "L S L S L S L",
        "Χαλκίοικον ὀλβιεῖ.",
        [
            "228",
            "lek"
        ]
    ],
    [
        "L L S L S L",
        "Ελ. φεῦ φεῦ, τίϲ ἢ Φρυγῶν",
        [
            "229",
            "pa",
            "+",
            "cr"
        ]
    ],
    [
        "L S L L S L S L S N",
        "ἢ τίϲ Ἑλλανίαϲ ἀπὸ χθονὸϲ",
        [
            "230",
            "cr2",
            "+",
            "ia||B"
        ]
    ],
    [
        "S S S L S S S L S",
        "ἔτεμε τὰν δακρυόεϲϲαν",
        [
            "231a",
            "cr",
            "+",
            "tr"
        ]
    ],
    [
        "L S L L L",
        "Ἰλίωι πεύκαν;",
        [
            "231b",
            "cr",
            "+",
            "sp"
        ]
    ],
    [
        "L S S S S L S L",
        "ἔνθεν ὀλόμενον ϲκάφοϲ",
        [
            "232",
            "lek"
        ]
    ],
    [
        "S L S L S S S S L",
        "ϲυναρμόϲαϲ ὁ Πριαμίδαϲ",
        [
            "233",
            "ia2"
        ]
    ],
    [
        "S L S L S L S L",
        "ἔπλευϲε βαρβάρωι πλάται",
        [
            "234",
            "ia2"
        ]
    ],
    [
        "L S L S L S L",
        "τὰν ἐμὰν ἐφʼ ἑϲτίαν",
        [
            "235",
            "lek"
        ]
    ],
    [
        "S S S L S L S L",
        "[ἐπὶ τὸ δυϲτυχέϲτατον",
        [
            "236",
            "lek"
        ]
    ],
    [
        "L S L S L S L S L",
        "κάλλοϲ ὡϲ ἕλοι γάμων ἐμῶν]",
        [
            "237",
            "lek[^6]"
        ]
    ],
    [
        "L S S S S L S L S L S L",
        "ἅ τε δόλιοϲ ἁ πολυκτόνοϲ Κύπριϲ",
        [
            "238",
            "tr2",
            "+",
            "cr"
        ]
    ],
    [
        "S S S L S L S S S L S S S L",
        "Δαναΐδαιϲ ἄγουϲα θάνατον [Πριαμίδαιϲ]·",
        [
            "239",
            "tr2[^7]"
        ]
    ],
    [
        "L S L S L S L",
        "ὦ τάλαινα ϲυμφορᾶϲ.",
        [
            "240",
            "lek"
        ]
    ],
    [
        "L S L S L S L S",
        "ἁ δὲ χρυϲέοιϲ θρόνοιϲι",
        [
            "241",
            "tr2"
        ]
    ],
    [
        "S S S L S L S L S",
        "Διὸϲ ὑπαγκάλιϲμα ϲεμνὸν",
        [
            "242",
            "tr2"
        ]
    ],
    [
        "L L S L S L",
        "Ἥρα τὸν ὠκύπουν",
        [
            "243a",
            "pa",
            "+",
            "cr"
        ]
    ],
    [
        "S L S L S L S N",
        "ἔπεμψε Μαιάδοϲ γόνον·",
        [
            "243b",
            "ia2||B"
        ]
    ],
    [
        "L S S S S S S S L S L S L",
        "ὅϲ με χλοερὰ δρεπομέναν ἔϲω πέπλων",
        [
            "244",
            "tr2",
            "+",
            "cr"
        ]
    ],
    [
        "S S S S S S L S L S",
        "ῥόδεα πέταλα Χαλκίοικον",
        [
            "245",
            "tr2"
        ]
    ],
    [
        "L S L L S L",
        "ὡϲ Ἀθάναν μόλοιμʼ",
        [
            "246a",
            "cr2"
        ]
    ],
    [
        "S L S L S L S L",
        "ἀναρπάϲαϲ διʼ αἰθέροϲ",
        [
            "246b",
            "ia2"
        ]
    ],
    [
        "L S L S L S L S",
        "τάνδε γαῖαν εἰϲ ἄνολβον",
        [
            "247",
            "tr2"
        ]
    ],
    [
        "S S S L S L S S S S",
        "ἔριν ἔριν τάλαιναν ἔθετο",
        [
            "248",
            "tr2"
        ]
    ],
    [
        "S S S L S L S L",
        "Πριαμίδαιϲιν Ἑλλάδοϲ.",
        [
            "249",
            "lek"
        ]
    ],
    [
        "S S S S S S S S S L S L S L S",
        "τὸ δʼ ἐμὸν ὄνομα παρὰ Ϲιμουντίοιϲ ῥοαῖϲι",
        [
            "250-1",
            "tr3"
        ]
    ],
    [
        "L S S S S L S N",
        "μαψίδιον ἔχει φάτιν.",
        [
            "252",
            "lek"
        ]
    ],
    [
        "S L S L S L S L",
        "Ελ. φίλαι, λόγουϲ ἐδεξάμαν·",
        [
            "330",
            "ia2"
        ]
    ],
    [
        "L S L S L S L",
        "βᾶτε βᾶτε δʼ ἐϲ δόμουϲ,",
        [
            "331",
            "lek"
        ]
    ],
    [
        "S L S L S L L",
        "ἀγῶναϲ ἐντὸϲ οἴκων",
        [
            "332",
            "ia",
            "+",
            "ba"
        ]
    ],
    [
        "L S L S L S L",
        "ὡϲ πύθηϲθε τοὺϲ ἐμούϲ.",
        [
            "333",
            "lek||"
        ]
    ],
    [
        "S L S L S L S L",
        "Χο. θέλουϲαν οὔ με δὶϲ καλεῖϲ.",
        [
            "334",
            "ia2||"
        ]
    ],
    [
        "S L S S S L S L",
        "Ελ. ἰὼ μέλεοϲ ἁμέρα.",
        [
            "335",
            "ia",
            "+",
            "cr[^8]"
        ]
    ],
    [
        "S S S S L S S S S L",
        "τίνʼ ἄρα τάλαινα τίνα λόγον",
        [
            "336",
            "ia2"
        ]
    ],
    [
        "S S S L S L S L",
        "δακρυόεντʼ ἀκούϲομαι;",
        [
            "337",
            "lek||"
        ]
    ],
    [
        "L S L S L S L",
        "Χο. μὴ πρόμαντιϲ ἀλγέων",
        [
            "338",
            "lek"
        ]
    ],
    [
        "S L S L S S S L",
        "προλάμβανʼ, ὦ φίλα, γόουϲ.",
        [
            "339",
            "ia2||"
        ]
    ],
    [
        "S L S L S S S S L",
        "Ελ. τί μοι πόϲιϲ μέλεοϲ ἔτλα;",
        [
            "340",
            "ia2"
        ]
    ],
    [
        "S S S L S L S L S",
        "πότερα δέρκεται φάοϲ τέ-",
        [
            "341",
            "tr2∫"
        ]
    ],
    [
        "L S L S L S L S L S L",
        "θριππά θʼ ἁλίου κέλευθά τʼ ἀϲτέρων",
        [
            "342-3[^10]",
            "tr",
            "+",
            "lek"
        ]
    ],
    [
        "L S S S S L S L",
        "ἢ ʼν νέκυϲι κατὰ χθονὸϲ",
        [
            "344",
            "lek"
        ]
    ],
    [
        "L S S S S L S L",
        "τὰν χρόνιον ἔχει τύχαν;",
        [
            "345",
            "lek"
        ]
    ],
    [
        "L S L S L S L",
        "Χο. ἐϲ τὸ φέρτερον τίθει",
        [
            "346[^11]",
            "lek"
        ]
    ],
    [
        "S L S S S S L S L",
        "τὸ μέλλον ὅτι γενήϲεται.",
        [
            "347",
            "ia2||"
        ]
    ],
    [
        "S S S S S S S S S S S S",
        "Ελ. ϲὲ γὰρ ἐκάλεϲα, ϲὲ δὲ κατόμοϲα",
        [
            "348",
            "ia2"
        ]
    ],
    [
        "S S S L S S S S L S",
        "τὸν ὑδρόεντι δόνακι χλωρὸν",
        [
            "349",
            "tr2"
        ]
    ],
    [
        "L L L S L S",
        "Εὐρώταν, θανόντοϲ",
        [
            "350",
            "sp",
            "+",
            "tr"
        ]
    ],
    [
        "L L S S S S L S",
        "εἰ βάξιϲ ἔτυμοϲ ἀνδρὸϲ",
        [
            "351",
            "pa",
            "+",
            "tr"
        ]
    ],
    [
        "L S L S S S S S S",
        "†ἅδε μοι τί τάδʼ ἀϲύνετα†,",
        [
            "352[^12]"
        ]
    ],
    [
        "S S S L L L S",
        "φόνιον αἰώρημα",
        [
            "353a",
            "cr",
            "+",
            "pa"
        ]
    ],
    [
        "S S S L S L S L",
        "διὰ δέραϲ ὀρέξομαι,",
        [
            "353b",
            "lek||H"
        ]
    ],
    [
        "L S L S L S L S",
        "ἢ ξιφοκτόνον διωγμὸν",
        [
            "354",
            "tr2"
        ]
    ],
    [
        "L L S L S L",
        "αἱμορρύτου ϲφαγᾶϲ",
        [
            "355",
            "pa",
            "+",
            "cr||"
        ]
    ],
    [
        "L S S L S S L S S L S S L S S L L",
        "αὐτοϲίδαρον ἔϲω πελάϲω διὰ ϲαρκὸϲ ἅμιλλαν,",
        [
            "356",
            "da6||"
        ]
    ],
    [
        "L S L S L S L S",
        "θῦμα τριζύγοιϲ θεαῖϲι",
        [
            "357a",
            "tr2"
        ]
    ],
    [
        "L S L L S L",
        "τῶι τε ϲήραγγαϲ Ἴ-",
        [
            "357b",
            "cr2∫"
        ]
    ],
    [
        "S S L L S S S S",
        "δαϲ ἐνίζοντι Πριαμί-",
        [
            "358",
            "cr",
            "+",
            "tr∫"
        ]
    ],
    [
        "L S L S L S L",
        "δαι ποτʼ ἀμφὶ βουϲτάθμουϲ.",
        [
            "359",
            "lek||"
        ]
    ],
    [
        "L S S S S L S L",
        "Χο. ἄλλοϲʼ ἀποτροπὰ κακῶν",
        [
            "360",
            "lek"
        ]
    ],
    [
        "S L S S S S L S L",
        "γένοιτο, τὸ δὲ ϲὸν εὐτυχέϲ.",
        [
            "361",
            "ia2||"
        ]
    ],
    [
        "S L S L S L L",
        "Ελ. ἰὼ τάλαινα Τροία,",
        [
            "362",
            "ia",
            "+",
            "ba||"
        ]
    ],
    [
        "S L S L L S L S S S S L",
        "διʼ ἔργʼ ἄνεργʼ ὄλλυϲαι μέλεά τʼ ἔτλαϲ.",
        [
            "363",
            "ia",
            "+",
            "cr",
            "+",
            "ia"
        ]
    ],
    [
        "S S S L S S S S S S S",
        "τὰ δʼ ἐμὰ δῶρα Κύπριδοϲ ἔτεκε",
        [
            "364",
            "tr2"
        ]
    ],
    [
        "S S S L S S S S S S S",
        "πολὺ μὲν αἷμα, πολὺ δὲ δάκρυον",
        [
            "365",
            "tr2"
        ]
    ],
    [
        "S S S S S S S S S S S S S S S S S S",
        "†ἄχεά τʼ ἄχεϲι δάκρυα δάκρυϲιν ἔλαβε πάθεα†,",
        [
            "366[^13]",
            "?"
        ]
    ],
    [
        "L S L S L S S S S",
        "ματέρεϲ τε παῖδαϲ ὄλεϲαν,",
        [
            "367",
            "tr2"
        ]
    ],
    [
        "S S S L S L S L S",
        "ἀπὸ δὲ παρθένοι κόμαϲ ἔ-",
        [
            "368",
            "tr2∫"
        ]
    ],
    [
        "L S L S L S L S L S S",
        "θεντο ϲύγγονοι νεκρῶν Ϲκαμάνδριον",
        [
            "369a[^14]",
            "lek"
        ]
    ],
    [
        "L S S S S L S",
        "ἀμφὶ Φρύγιον οἶδμα.",
        [
            "369b[^15]",
            "tr",
            "+",
            "sp||B"
        ]
    ],
    [
        "S L S L L S L",
        "βοὰν βοὰν δʼ Ἑλλὰϲ 〈αἶʼ〉",
        [
            "370",
            "ia",
            "+",
            "cr"
        ]
    ],
    [
        "S S S L S S S S L S",
        "ἐκελάδηϲεν ἀνοτότυξεν,",
        [
            "371",
            "tr2"
        ]
    ],
    [
        "S S S L S S S S L S",
        "ἐπὶ δὲ κρατὶ χέραϲ ἔθηκεν,",
        [
            "372",
            "tr2"
        ]
    ],
    [
        "S S S S S S S S S L",
        "ὄνυχι δʼ ἁπαλόχροα γένυν",
        [
            "373",
            "lek[^16]"
        ]
    ],
    [
        "S L L L S L S L L",
        "ἔδευϲεν φοινίαιϲι πλαγαῖϲ.",
        [
            "374",
            "ba",
            "+",
            "ith||"
        ]
    ],
    [
        "L S S L S S L S S L S S",
        "ὦ μάκαρ Ἀρκαδίαι ποτὲ παρθένε",
        [
            "375",
            "da4"
        ]
    ],
    [
        "L L L S S L S S L S S",
        "Καλλιϲτοῖ, Διὸϲ ἃ λεχέων ἀπέ-",
        [
            "376a",
            "da4∫"
        ]
    ],
    [
        "L S S L S S L L",
        "βαϲ τετραβάμοϲι γυίοιϲ,",
        [
            "376b[^17]",
            "3da"
        ]
    ],
    [
        "L S S L S S L S S L S S",
        "ὡϲ πολὺ κηρὸϲ ἐμᾶϲ ἔλαχεϲ πλέον,",
        [
            "377",
            "da4"
        ]
    ],
    [
        "L L L L L S S L L",
        "ἁ μορφᾶι θηρῶν λαχνογυίων",
        [
            "378",
            "da4"
        ]
    ],
    [
        "L S S L L L S S L L",
        "†ὄμματι λάβρωι ϲχῆμα λεαίνηϲ†",
        [
            "379",
            "da4"
        ]
    ],
    [
        "L L L L L S S L L",
        "ἐξαλλάξαϲʼ ἄχθεα λύπαϲ·",
        [
            "380",
            "da4"
        ]
    ],
    [
        "L S S L S S L S S L S S",
        "ἅν τέ ποτʼ Ἄρτεμιϲ ἐξεχορεύϲατο",
        [
            "381",
            "da4"
        ]
    ],
    [
        "L S S L S S L S S L L L S S L L",
        "χρυϲοκέρατʼ ἔλαφον Μέροποϲ Τιτανίδα κούραν",
        [
            "382",
            "da6"
        ]
    ],
    [
        "L S S L S S L S S L S S",
        "καλλοϲύναϲ ἕνεκεν· τὸ δʼ ἐμὸν δέμαϲ",
        [
            "383",
            "da4"
        ]
    ],
    [
        "L S S L S S L S S L L L L",
        "ὤλεϲεν ὤλεϲε πέργαμα Δαρδανίαϲ",
        [
            "384",
            "da5"
        ]
    ],
    [
        "S S S L S L L",
        "ὀλομένουϲ τʼ Ἀχαιούϲ.",
        [
            "385",
            "ith"
        ]
    ],
    [
        "L L S L L S L L S L",
        "Χο. ἤκουϲα τᾶϲ θεϲπιωιδοῦ κόραϲ",
        [
            "515",
            "ia",
            "+",
            "cr2"
        ]
    ],
    [
        "S L L S L L S L L S L N",
        "ἃ χρήιζουϲʼ ἐπλάθην τυράννοιϲ δόμοιϲιν,",
        [
            "516",
            "ba4||B"
        ]
    ],
    [
        "L S S L S L",
        "ὡϲ Μενέλαοϲ οὔ-",
        [
            "517",
            "dod∫"
        ]
    ],
    [
        "L S L S S L S L",
        "πω μελαμφαὲϲ οἴχεται",
        [
            "518",
            "gly"
        ]
    ],
    [
        "S S S L S S L L",
        "διʼ ἔρεβοϲ χθονὶ κρυφθείϲ,",
        [
            "519",
            "pher"
        ]
    ],
    [
        "L S S S L S S L",
        "ἀλλʼ ἔτι κατʼ οἶδμʼ ἅλιον",
        [
            "520",
            "cr",
            "+",
            "chor"
        ]
    ],
    [
        "L S S S L L S S L",
        "τρυχόμενοϲ οὔπω λιμένων",
        [
            "521",
            "ia",
            "+",
            "chor"
        ]
    ],
    [
        "L L L S S L L",
        "ψαύϲειεν πατρίαϲ γᾶϲ,",
        [
            "522",
            "pher"
        ]
    ],
    [
        "S L L L S S L",
        "ἀλατείαι βιότου",
        [
            "523",
            "hept"
        ]
    ],
    [
        "S L L S S L S L",
        "ταλαίφρων, ἄφιλοϲ φίλων,",
        [
            "524",
            "gly"
        ]
    ],
    [
        "L S S L S S L S L",
        "παντοδαπᾶϲ ἐπὶ γᾶϲ πέδον",
        [
            "525[^18]",
            "gly"
        ]
    ],
    [
        "L S S S L S S L",
        "χριμπτόμενοϲ εἰναλίωι",
        [
            "526",
            "cr",
            "+",
            "chor"
        ]
    ],
    [
        "L L L S S L L",
        "κώπαι Τρωιάδοϲ ἐκ γᾶϲ.",
        [
            "527",
            "pher"
        ]
    ],
    [
        "L L S L L S S S L S L S L",
        "Ελ. ὦ φίλτατʼ ἀνδρῶν Μενέλεωϲ, ὁ μὲν χρόνοϲ",
        [
            "625",
            "ia3"
        ]
    ],
    [
        "S L S L S L S L S L S N",
        "παλαιόϲ, ἡ δὲ τέρψιϲ ἀρτίωϲ πάρα.",
        [
            "626",
            "ia3||BH"
        ]
    ],
    [
        "S S S L S L S S S L S L",
        "ἔλαβον ἀϲμένα πόϲιν ἐμόν, φίλαι,",
        [
            "627",
            "doc2"
        ]
    ],
    [
        "S S S S S S S S S S S L S L",
        "περί τʼ ἐπέταϲα χέρα φίλιον ἐν μακρᾶι",
        [
            "628",
            "doc2"
        ]
    ],
    [
        "S S S L S L",
        "φλογὶ φαεϲφόρωι.",
        [
            "629",
            "doc"
        ]
    ],
    [
        "L L S L L L S L S L S L",
        "Με. κἀγὼ ϲέ· πολλοὺϲ δʼ ἐν μέϲωι λόγουϲ ἔχων",
        [
            "630",
            "ia3"
        ]
    ],
    [
        "L L S L L L S L L L S L",
        "οὐκ οἶδʼ ὁποίου πρῶτον ἄρξωμαι τὰ νῦν.",
        [
            "631",
            "ia3"
        ]
    ],
    [
        "S L S L S L S L S L L",
        "Ελ. γέγηθα, κρατὶ δʼ ὀρθίουϲ ἐθείραϲ",
        [
            "632",
            "ia2",
            "+",
            "ba"
        ]
    ],
    [
        "S L S L S L S L S L L",
        "ἀνεπτέρωϲα καὶ δάκρυ ϲταλάϲϲω,",
        [
            "633",
            "ia2",
            "+",
            "ba"
        ]
    ],
    [
        "S S S L S S S S S S L S L",
        "περὶ δὲ γυῖα χέραϲ ἔβαλον ἡδονάν,",
        [
            "634",
            "doc2"
        ]
    ],
    [
        "L S S L S L",
        "ὦ πόϲιϲ, ὡϲ λάβω.",
        [
            "635",
            "doc"
        ]
    ],
    [
        "L L S L S L S L S L L",
        "Με. ὦ φιλτάτα πρόϲοψιϲ, οὐκ ἐμέμφθην·",
        [
            "636",
            "ia2",
            "+",
            "ba"
        ]
    ],
    [
        "S L S L S L L S L L N",
        "†ἔχω τὰ τοῦ Διὸϲ λέκτρα Λήδαϲ τε.†",
        [
            "637",
            "?"
        ]
    ],
    [
        "L S S L S L S L L L L",
        "Ελ. ἃν ὑπὸ λαμπάδων κόροι λεύκιπποι",
        [
            "638",
            "doc2"
        ]
    ],
    [
        "S S L S S L S S L S L",
        "ξυνομαίμονεϲ ὤλβιϲαν ὤλβιϲαν …",
        [
            "639-40",
            "enop"
        ]
    ],
    [
        "S L S L S L S L S L S L",
        "Με. τὸ πρόϲθεν, ἐκ δόμων δὲ ναϲφίϲαϲ ϲʼ ἐμοῦ",
        [
            "641",
            "ia3"
        ]
    ],
    [
        "S L L S L L",
        "πρὸϲ ἄλλαν ἐλαύνει",
        [
            "642",
            "ba2"
        ]
    ],
    [
        "S L L S L L S L L",
        "θεὸϲ ϲυμφορὰν τᾶϲδε κρείϲϲω.",
        [
            "643",
            "ba3"
        ]
    ],
    [
        "S S L S S L S S L S S L S S L S N",
        "Ελ. τὸ κακὸν δʼ ἀγαθὸν ϲέ τε κἀμὲ ϲυνάγαγεν, ὦ πόϲι,",
        [
            "644",
            "enop||"
        ]
    ],
    [
        "S S S L S L S L L S L",
        "χρόνιον, ἀλλʼ ὅμωϲ· ὀναίμαν τύχαϲ.",
        [
            "645",
            "doc2"
        ]
    ],
    [
        "S L S L S L S L S L S L",
        "Με. ὄναιο δῆτα· ταὐτὰ δὲ ξυνεύχομαι·",
        [
            "646",
            "ia3"
        ]
    ],
    [
        "S L S L L L S L L L S L",
        "δυοῖν γὰρ ὄντοιν οὐχ ὁ μὲν τλήμων, ὁ δʼ οὔ.",
        [
            "647",
            "ia3"
        ]
    ],
    [
        "S L S L",
        "Ελ. φίλαι φίλαι,",
        [
            "648",
            "ia"
        ]
    ],
    [
        "S S S L S L S S S L L L",
        "τὰ πάροϲ οὐκέτι ϲτένομεν οὐδʼ ἀλγῶ.",
        [
            "649",
            "doc2"
        ]
    ],
    [
        "S S S S S S S S S S S S S S S S",
        "πόϲιν ἔχομεν ἔχομεν ἐμὸν 〈ἐμὸν〉 ὃν ἔμενον",
        [
            "650",
            "doc2"
        ]
    ],
    [
        "S S S L L L S S S L S L",
        "ἔμενον ἐκ Τροίαϲ πολυετῆ μολεῖν.",
        [
            "651",
            "doc2"
        ]
    ],
    [
        "S L S L S L S L S L S L",
        "Με. ἔχειϲ, ἔχω τε ϲʼ· ἡλίουϲ δὲ μυρίουϲ",
        [
            "652",
            "ia3"
        ]
    ],
    [
        "S L S L L L S L S L S L",
        "μόλιϲ διελθὼν ἠιϲθόμην τὰ τῆϲ θεοῦ.",
        [
            "653",
            "ia3"
        ]
    ],
    [
        "S S S L S L S S S S S S L",
        "Ελ. ἐμὰ δὲ χαρμονᾶι δάκρυα πλέον ἔχει",
        [
            "654",
            "doc2"
        ]
    ],
    [
        "S S S L S L",
        "χάριτοϲ ἢ λύπαϲ.",
        [
            "655",
            "doc"
        ]
    ],
    [
        "S L S L S L S L S L S N",
        "Με. τί φῶ; τίϲ ἂν τάδʼ ἤλπιϲεν βροτῶν ποτε;",
        [
            "656",
            "ia3"
        ]
    ],
    [
        "S S L S S L S L L L",
        "Ελ. ἀδόκητον ἔχω ϲε πρὸϲ ϲτέρνοιϲ.",
        [
            "657",
            "cyren^chol^"
        ]
    ],
    [
        "L L S L S L S L L L S L",
        "Με. κἀγὼ ϲέ, τὴν δοκοῦϲαν Ἰδαίαν πόλιν",
        [
            "658",
            "ia3"
        ]
    ],
    [
        "S L L S L S S S L L L",
        "μολεῖν Ἰλίου τε μελέουϲ πύργουϲ.",
        [
            "659",
            "doc2"
        ]
    ],
    [
        "L L S L L L S L S L S L",
        "πρὸϲ θεῶν, δόμων πῶϲ τῶν ἐμῶν ἀπεϲτάληϲ;",
        [
            "660",
            "ia3"
        ]
    ],
    [
        "S S S L S L L L L",
        "Ελ. ἒ ἔ· πικρὰϲ ἐϲ ἀρχὰϲ βαίνειϲ·",
        [
            "661",
            "cr",
            "+",
            "doc"
        ]
    ],
    [
        "S S S L S L L S L",
        "ἒ ἔ· πικρὰν δʼ ἐρευνᾶιϲ φάτιν.",
        [
            "662",
            "cr",
            "+",
            "doc"
        ]
    ],
    [
        "S L S L S L S L S L S L",
        "Με. λέγʼ, ὡϲ ἀκουϲτά· πάντα δῶρα δαιμόνων.",
        [
            "663",
            "ia3"
        ]
    ],
    [
        "S L S S L S S L S",
        "Ελ. ἀπέπτυϲα μὲν λόγον οἷον",
        [
            "664a",
            "erasm"
        ]
    ],
    [
        "L S S L S S N",
        "οἷον ἐϲοιϲόμεθα.",
        [
            "664b",
            "D||"
        ]
    ],
    [
        "S L S L S L S L L L S L",
        "Με. ὅμωϲ δὲ λέξον· ἡδύ τοι μόχθων κλύειν.",
        [
            "665",
            "ia3"
        ]
    ],
    [
        "L S S L S L L S S L S L",
        "Ελ. οὐκ ἐπὶ βαρβάρου λέκτρα νεανία",
        [
            "666",
            "doc2"
        ]
    ],
    [
        "S S S L L L S S S L S L",
        "πετομέναϲ κώπαϲ, πετομένου δʼ ἔρω-",
        [
            "667",
            "doc2∫"
        ]
    ],
    [
        "S S S L S L",
        "τοϲ ἀδίκων γάμων …",
        [
            "668",
            "doc"
        ]
    ],
    [
        "S L S L L L S L L L S L",
        "Με. τίϲ 〈—〉 ϲε δαίμων ἢ πότμοϲ ϲυλᾶι πάτραϲ;",
        [
            "669",
            "ia3"
        ]
    ],
    [
        "S S S S S S L S S S L L L",
        "Ελ. ὁ Διὸϲ ὁ Διὸϲ ὦ πόϲι με παῖϲ 〈Μαίαϲ τʼ〉",
        [
            "670",
            "doc2"
        ]
    ],
    [
        "S S S L L L",
        "ἐπέλαϲεν Νείλωι.",
        [
            "671",
            "doc"
        ]
    ],
    [
        "L L S L L L S L L L S L",
        "Με. θαυμαϲτά· τοῦ πέμψαντοϲ; ὦ δεινοὶ λόγοι.",
        [
            "672",
            "ia3"
        ]
    ],
    [
        "S S S L S L S S S L L L",
        "Ελ. κατεδάκρυϲα καὶ βλέφαρον ὑγραίνω",
        [
            "673",
            "doc2"
        ]
    ],
    [
        "S S S L S L S S S L S L",
        "δάκρυϲιν· ἁ Διόϲ μʼ ἄλοχοϲ ὤλεϲεν.",
        [
            "674",
            "doc2"
        ]
    ],
    [
        "L L S L L L S L L L S N",
        "Με. Ἥρα; τί νῶιν χρήιζουϲα προϲθεῖναι κακόν;",
        [
            "675",
            "ia3"
        ]
    ],
    [
        "L S S L L L L L L L L",
        "Ελ. ὤμοι ἐγὼ κείνων λουτρῶν καὶ κρηνᾶν,",
        [
            "676",
            "doc2"
        ]
    ],
    [
        "S S S L L L S L L S L",
        "ἵνα θεαὶ μορφὰν ἐφαίδρυναν, εὖτʼ",
        [
            "677",
            "doc2"
        ]
    ],
    [
        "S S S L S L",
        "ἔμολον ἐϲ κρίϲιν.",
        [
            "678",
            "doc"
        ]
    ],
    [
        "S L S L L L S L L S S L",
        "Με. †τὰ δʼ εἰϲ κρίϲιν ϲοι τῶνδʼ ἔθηχʼ Ἥρα κακῶν;†",
        [
            "679[^20]",
            "?"
        ]
    ],
    [
        "S S L S S L S L L L",
        "Ελ. Πάριν ὡϲ ἀφέλοιτο …Με. πῶϲ; αὔδα.",
        [
            "680",
            "cyren^chol^"
        ]
    ],
    [
        "S S L S S L S L L L",
        "Ελ. Κύπριϲ ὧι μʼ ἐπένευϲεν …Με. ὦ τλᾶμον.",
        [
            "681",
            "cyren^chol^"
        ]
    ],
    [
        "L S S L S L S S S L L L",
        "Ελ. τλάμονα τλάμονʼ ὧδʼ ἐπέλαϲ' Αἰγύπτωι.",
        [
            "682",
            "doc2||H"
        ]
    ],
    [
        "L L S L L L S L S L S L",
        "Με. εἶτʼ ἀντέδωκʼ εἴδωλον, ὡϲ ϲέθεν κλύω.",
        [
            "683",
            "ia3"
        ]
    ],
    [
        "S S S S S S S S S S S S S S L",
        "Ελ. τὰ δὲ 〈ϲὰ〉 κατὰ μέλαθρα πάθεα πάθεα, μᾶ-",
        [
            "684",
            "doc2∫"
        ]
    ],
    [
        "S L L S L",
        "τερ, οἲ ʼγώ. Με. τί φήιϲ;",
        [
            "685",
            "doc"
        ]
    ],
    [
        "L L S L L L S S L S S L",
        "Ελ. οὐκ ἔϲτι μάτηρ· ἀγχόνιον δὲ βρόχον",
        [
            "686[^22]"
        ]
    ],
    [
        "S S L S S L S S L S S L S L",
        "διʼ ἐμὰν κατεδήϲατο δύϲγαμον αἰϲχύναν.",
        [
            "687",
            "enop"
        ]
    ],
    [
        "L L S L L L S S L L L S N",
        "Με. ὤμοι· θυγατρὸϲ δʼ Ἑρμιόνηϲ ἔϲτιν λόγοϲ;",
        [
            "688[^23]",
            "ia3"
        ]
    ],
    [
        "S S S S S S L S S S L S L",
        "Ελ. ἄγαμοϲ ἄτεκνοϲ, ὦ πόϲι, καταϲτένει",
        [
            "689",
            "doc2"
        ]
    ],
    [
        "S S S S S L S L",
        "γάμον ἄγαμον †αἰϲχύνα†.",
        [
            "690",
            "?"
        ]
    ],
    [
        "L L S L L L S L L L S L",
        "Με. ὦ πᾶν κατʼ ἄκραϲ δῶμʼ ἐμὸν πέρϲαϲ Πάριϲ.",
        [
            "691",
            "ia3"
        ]
    ],
    [
        "S S L S S L S S L S S L S",
        "Ελ. τάδε καὶ ϲὲ διώλεϲε μυριάδαϲ τε",
        [
            "692",
            "A",
            "⏑"
        ]
    ],
    [
        "L S S L S S L",
        "χαλκεόπλων Δαναῶν.",
        [
            "693",
            "D"
        ]
    ],
    [
        "S S S S S S S S S S S S S S L",
        "ἐμὲ δὲ πατρίδοϲ ἀπο 〈πρὸ〉 κακόποτμον ἀραῖ-",
        [
            "694",
            "doc2∫"
        ]
    ],
    [
        "S S S S S S S S S S S S S S S S",
        "ον ἔβαλε θεὸϲ ἀπὸ πόλεοϲ ἀπό τε ϲέθεν,",
        [
            "695",
            "doc2"
        ]
    ],
    [
        "S S S S S S S S S S S L S L",
        "ὅτε μέλαθρα λέχεά τʼ ἔλιπον οὐ λιποῦϲʼ",
        [
            "696",
            "doc2"
        ]
    ],
    [
        "S L L S L",
        "ἐπʼ αἰϲχροῖϲ γάμοιϲ.",
        [
            "697",
            "doc"
        ]
    ],
    [
        "S L S L L S S L S S L",
        "Χο. ϲὲ τὰν ἐναύλοιϲ ὑπὸ δενδροκόμοιϲ",
        [
            "1107",
            "ia",
            "+",
            "D"
        ]
    ],
    [
        "L L S L L L S L",
        "μουϲεῖα καὶ θάκουϲ ἐνί-",
        [
            "1108a",
            "ia2∫"
        ]
    ],
    [
        "L S S S S L L",
        "ζουϲαν ἀναβοάϲω,",
        [
            "1108b",
            "ith||"
        ]
    ],
    [
        "L S L S S L",
        "τὰν ἀοιδοτάταν",
        [
            "1109a",
            "hex"
        ]
    ],
    [
        "L L S S L N",
        "ὄρνιθα μελωιδὸν",
        [
            "1109b",
            "reiz||B?[^24]"
        ]
    ],
    [
        "S L S S S S S L N",
        "ἀηδόνα δακρυόεϲϲαν,",
        [
            "1110",
            "hag||B"
        ]
    ],
    [
        "L L S L L L S S L S S L S S L",
        "ἔλθʼ ὦ διὰ ξουθᾶν γενύων ἐλελιζομένα",
        [
            "1111",
            "‒e",
            "‒Dd[^25]"
        ]
    ],
    [
        "L L S L S L N",
        "θρήνων ἐμοὶ ξυνεργόϲ,",
        [
            "1112",
            "ia",
            "+",
            "ba||Bs"
        ]
    ],
    [
        "S S L S S L S N",
        "Ἑλέναϲ μελέουϲ πόνουϲ",
        [
            "1113",
            "T"
        ]
    ],
    [
        "S L S S L S L",
        "τὸν Ἰλιάδων τʼ ἀει-",
        [
            "1114",
            "tel∫"
        ]
    ],
    [
        "L L L S S L S S S",
        "δούϲαι δακρυόεντα πότμον",
        [
            "1115",
            "gly"
        ]
    ],
    [
        "S L L S S L L",
        "Ἀχαιῶν ὑπὸ λόγχαιϲ,",
        [
            "1116",
            "pher||Ba"
        ]
    ],
    [
        "S S S S S S S S S S L S L S L",
        "ὅτʼ ἔδραμε ῥόθια πολιὰ βαρβάρωι πλάται",
        [
            "1117",
            "ia3||Hs"
        ]
    ],
    [
        "S S S S S S S S S S S S S L S L",
        "ὃϲ ἔμολεν ἔμολε μέλεα Πριαμίδαιϲ ἄγων",
        [
            "1118",
            "ia3"
        ]
    ],
    [
        "S S L S S S S S S S",
        "Λακεδαίμονοϲ ἄπο λέχεα",
        [
            "1119",
            "T"
        ]
    ],
    [
        "S S L S S L S S L S S L",
        "ϲέθεν, ὦ Ἑλένα, Πάριϲ αἰνόγαμοϲ",
        [
            "1120",
            "A"
        ]
    ],
    [
        "L L S L S L L",
        "πομπαῖϲιν Ἀφροδίταϲ.",
        [
            "1121",
            "ia",
            "+",
            "ba"
        ]
    ],
    [
        "L L S L L S S L S S L",
        "πολλοὶ δʼ Ἀχαιῶν δορὶ καὶ πετρίναιϲ",
        [
            "1122",
            "ia",
            "+",
            "D"
        ]
    ],
    [
        "S L S L L L S L",
        "ῥιπαῖϲιν ἐκπνεύϲαντεϲ Ἅι-",
        [
            "1123a",
            "ia2∫"
        ]
    ],
    [
        "L S S S S L L",
        "δαν μέλεον ἔχουϲιν,",
        [
            "1123b",
            "ith||"
        ]
    ],
    [
        "S L L S S L",
        "ταλαινᾶν ἀλόχων",
        [
            "1124a",
            "hex"
        ]
    ],
    [
        "L L S S L N",
        "κείραντεϲ ἔθειραν,",
        [
            "1124b",
            "reiz||B?"
        ]
    ],
    [
        "S L S S S S S L L",
        "ἄνυμφα δὲ μέλαθρα κεῖται·",
        [
            "1125",
            "hag||Bs"
        ]
    ],
    [
        "L L S L L L S S L S S L S S L",
        "πολλοὺϲ δὲ πυρϲεύϲαϲ φλογερὸν ϲέλαϲ ἀμφιρύταν",
        [
            "1126",
            "‒e",
            "‒Dd"
        ]
    ],
    [
        "L L S L S L L",
        "Εὔβοιαν εἷλʼ Ἀχαιῶν",
        [
            "1127",
            "ia",
            "+",
            "ba||Bs"
        ]
    ],
    [
        "S S L S S L S L",
        "μονόκωποϲ ἀνὴρ πέτραιϲ",
        [
            "1128",
            "T"
        ]
    ],
    [
        "S L S S L S L",
        "Καφηρίϲιν ἐμβαλών,",
        [
            "1129",
            "tel"
        ]
    ],
    [
        "L L L S S L S S S",
        "Αἰγαίαιϲ ἐνάλοιϲ δόλιον",
        [
            "1130",
            "gly"
        ]
    ],
    [
        "L L L S S L N",
        "ἀκταῖϲ ἀϲτέρα λάμψαϲ·",
        [
            "1131",
            "pher||B"
        ]
    ],
    [
        "S S S S S S S S S S L S L S L",
        "ἀλίμενα δʼ ὅρια μέλεα βαρβάρου ϲτολᾶϲ",
        [
            "1132",
            "ia3||Hs"
        ]
    ],
    [
        "S S S S S S S S S S L S L S L",
        "τότʼ ἔϲυτο πατρίδοϲ ἀποπρὸ χειμάτων πνοᾶι",
        [
            "1133",
            "ia3"
        ]
    ],
    [
        "S S L S S L S L",
        "γέραϲ οὐ γέραϲ ἀλλʼ ἔριν",
        [
            "1134",
            "T"
        ]
    ],
    [
        "S S L S S L S S L S S L",
        "Δαναῶν Μενέλαϲ ἐπὶ ναυϲὶν ἄγων",
        [
            "1135",
            "A"
        ]
    ],
    [
        "L L S S S S L L",
        "εἴδωλον ἱερὸν Ἥραϲ.",
        [
            "1136",
            "ia",
            "+",
            "ba"
        ]
    ],
    [
        "S S S S L L S S L S S L",
        "ὅτι θεὸϲ ἢ μὴ θεὸϲ ἢ τὸ μέϲον",
        [
            "1137",
            "ia",
            "+",
            "D"
        ]
    ],
    [
        "S L S L L L S L",
        "τίϲ φηϲʼ ἐρευνάϲαϲ βροτῶν;",
        [
            "1138",
            "ia2"
        ]
    ],
    [
        "L S S L S S L S L S S L S S L",
        "μακρότατον πέραϲ ηὗρεν ὃϲ τὰ θεῶν ἐϲορᾶι",
        [
            "1139-40",
            "D⏑D||Ha"
        ]
    ],
    [
        "L S S L S S L S L S S L S S L",
        "δεῦρο καὶ αὖθιϲ ἐκεῖϲε καὶ πάλιν ἀμφιλόγοιϲ",
        [
            "1141-42",
            "D⏑D"
        ]
    ],
    [
        "L L S L L L S L",
        "πηδῶντʼ ἀνελπίϲτοιϲ τύχαιϲ.",
        [
            "1143",
            "ia2||"
        ]
    ],
    [
        "S S S S L L S S L S S L",
        "ϲὺ Διὸϲ ἔφυϲ, ὦ Ἑλένα, θυγάτηρ·",
        [
            "1144",
            "ia",
            "+",
            "D"
        ]
    ],
    [
        "L L S L L L S L",
        "πτανὸϲ γὰρ ἐν κόλποιϲ ϲε Λή-",
        [
            "1145",
            "ia2∫"
        ]
    ],
    [
        "L S S L S S L",
        "δαϲ ἐτέκνωϲε πατήρ·",
        [
            "1146",
            "D||"
        ]
    ],
    [
        "L L S L L S L L S L",
        "κἆιτʼ ἰαχήθηϲ καθʼ Ἑλλανίαν",
        [
            "1147",
            "ia",
            "+",
            "cr2"
        ]
    ],
    [
        "S S S S L S S S S S S S L S L",
        "προδότιϲ ἄπιϲτοϲ ἄδικοϲ ἄθεοϲ· οὐδʼ ἔχω",
        [
            "1148",
            "ia3"
        ]
    ],
    [
        "S S S S S S S L S L S L S L",
        "†τί τὸ ϲαφὲϲ ὅτι ποτʼ ἐν βροτοῖϲ τὸ τῶν θεῶν",
        [
            "1149",
            "?[^26]"
        ]
    ],
    [
        "S S S L S L N",
        "ἔποϲ ἀλαθὲϲ εὖρον†",
        [
            "1150",
            "ith?"
        ]
    ],
    [
        "S S S S L L S S L S S L",
        "ἄφρονεϲ ὅϲοι τὰϲ ἀρετὰϲ πολέμωι",
        [
            "1151",
            "ia",
            "+",
            "D"
        ]
    ],
    [
        "L L S L L L S L",
        "λόγχαιϲί τʼ ἀλκαίου δορὸϲ",
        [
            "1152",
            "ia2"
        ]
    ],
    [
        "L S S L S S L S L S S L S S L",
        "κτᾶϲθʼ, ἀμαθῶϲ θανάτωι πόνουϲ καταλυόμενοι.",
        [
            "1153-4",
            "D⏑D||H"
        ]
    ],
    [
        "L S S L S S L S L S S L S S L",
        "εἰ γὰρ ἅμιλλα κρινεῖ νιν αἵματοϲ, οὔποτʼ ἔριϲ",
        [
            "1155-6",
            "D⏑D"
        ]
    ],
    [
        "L L S L L L S L",
        "λείψει κατʼ ἀνθρώπων πόλειϲ·",
        [
            "1157",
            "ia2||"
        ]
    ],
    [
        "L S S S L L S S L S S L",
        "†αἳ Πριαμίδοϲ γᾶϲ ἔλιπον θαλάμουϲ†,",
        [
            "1158",
            "?[^27]"
        ]
    ],
    [
        "L L S L L L S L",
        "ἐξὸν διορθῶϲαι λόγοιϲ",
        [
            "1159",
            "ia2"
        ]
    ],
    [
        "L S S L S S L",
        "ϲὰν ἔριν, ὦ Ἑλένα.",
        [
            "1160",
            "D||"
        ]
    ],
    [
        "L L S L L S L L S L",
        "νῦν δʼ οἱ μὲν Ἅιδαι μέλονται κάτω,",
        [
            "1161",
            "ia",
            "+",
            "cr2"
        ]
    ],
    [
        "L S S S S S S L S S S S S S S L",
        "τείχεα δὲ †φλογερὸϲ† ὥϲτε Διὸϲ ἐπέϲυτο φλόξ,",
        [
            "1162",
            "?[^28]"
        ]
    ],
    [
        "S S S S S S S S S S L L S L",
        "ἐπὶ δὲ πάθεα πάθεϲι φέρειϲ †ἀθλίοιϲ",
        [
            "1163",
            "?"
        ]
    ],
    [
        "L S L L S L",
        "ϲυμφοραῖϲ αἰλίνοιϲ†",
        [
            "1164",
            "?"
        ]
    ],
    [
        "S L L S S S S S L",
        "Χο. ὀρεία ποτὲ δρομάδι κώ-",
        [
            "1301",
            "gly∫"
        ]
    ],
    [
        "L L L S S L S L",
        "λωι Μάτηρ ἐϲύθη θεῶν",
        [
            "1302",
            "gly"
        ]
    ],
    [
        "S L L S S L",
        "ἀνʼ ὑλᾶντα νάπη",
        [
            "1303",
            "hex"
        ]
    ],
    [
        "S S S L S L S S L",
        "ποτάμιόν τε χεῦμʼ ὑδάτων",
        [
            "1304",
            "wil||?"
        ]
    ],
    [
        "S S S L S L S S L",
        "βαρύβρομόν τε κῦμʼ ἅλιον",
        [
            "1305",
            "wil"
        ]
    ],
    [
        "S L L S L S S L",
        "πόθωι τᾶϲ ἀποιχομέναϲ",
        [
            "1306",
            "wil"
        ]
    ],
    [
        "L L L L L",
        "ἀρρήτου κούραϲ.",
        [
            "1307",
            "pentemakron"
        ]
    ],
    [
        "S S S S S S S S S S S S",
        "κρόταλα δὲ βρόμια διαπρύϲιον",
        [
            "1308",
            "ia2"
        ]
    ],
    [
        "S L S S S S S S S L",
        "ἱέντα κέλαδον ἀνεβόα,",
        [
            "1309",
            "ia2"
        ]
    ],
    [
        "L L S L S S L",
        "θηρῶν ὅτε ζυγίουϲ",
        [
            "1310",
            "hept"
        ]
    ],
    [
        "L L S L S S L",
        "ζεύξαϲα θεὰ ϲατίναϲ",
        [
            "1311",
            "hept"
        ]
    ],
    [
        "L L L L L S S L",
        "τὰν ἁρπαϲθεῖϲαν κυκλίων",
        [
            "1312",
            "wil"
        ]
    ],
    [
        "S L L L L S S L",
        "χορῶν ἔξω παρθενίων",
        [
            "1313",
            "wil"
        ]
    ],
    [
        "S S L L",
        "†μετὰ κουρᾶν δʼ†",
        [
            "1314a",
            "?[^29]"
        ]
    ],
    [
        "L L L L L S S L",
        "ἁ μὲν τόξοιϲ Ἄρτεμιϲ, ἁ δʼ",
        [
            "1315",
            "wil"
        ]
    ],
    [
        "L L L L L S S N",
        "ἔγχει Γοργῶπιϲ πάνοπλοϲ.",
        [
            "1316",
            "wil||"
        ]
    ],
    [
        "L L L L L S S L",
        "αὐγάζων δʼ ἐξ οὐρανίων",
        [
            "1317a",
            "wil"
        ]
    ],
    [
        "L L L S S L L",
        "ἄλλαν μοῖραν ἔκραινεν.",
        [
            "1318",
            "pher"
        ]
    ],
    [
        "S L L S S S S S L",
        "δρομαῖον δʼ ὅτε πολυπλάνη-",
        [
            "1319",
            "gly∫"
        ]
    ],
    [
        "L L L S L S S L",
        "τον μάτηρ ἔπαυϲε πόνον",
        [
            "1320",
            "wil"
        ]
    ],
    [
        "S L L S S L",
        "ματεύουϲα †πόνουϲ†",
        [
            "1321",
            "?[^30]"
        ]
    ],
    [
        "S S S L S L S S L",
        "θυγατρὸϲ ἁρπαγὰϲ δολίουϲ,",
        [
            "1322",
            "wil||?"
        ]
    ],
    [
        "S S S L S L S S L",
        "χιονοθρέμμονάϲ τʼ ἐπέραϲʼ",
        [
            "1323",
            "wil"
        ]
    ],
    [
        "L L L L L S S L",
        "Ἰδαιᾶν Νυμφᾶν ϲκοπιὰϲ",
        [
            "1324",
            "wil[^31]"
        ]
    ],
    [
        "L L L L L",
        "ῥίπτει τʼ ἐν πένθει",
        [
            "1325",
            "pentamakron"
        ]
    ],
    [
        "S S S S S S S S S S S S",
        "πέτρινα κατὰ δρία πολυνιφέα.",
        [
            "1326",
            "ia2"
        ]
    ],
    [
        "S L S S S S S S S L",
        "βροτοῖϲι δʼ ἄχλοα πεδία γᾶϲ",
        [
            "1327a",
            "ia2"
        ]
    ],
    [
        "L L L L S S L",
        "οὐ καρπίζουϲʼ ἀρότοιϲ,",
        [
            "1328",
            "hept"
        ]
    ],
    [
        "L L L L L S S L",
        "λαῶν δὲ φθείρει γενεάν,",
        [
            "1329",
            "wil"
        ]
    ],
    [
        "L L L L L S S L",
        "ποίμναιϲ δʼ οὐχ ἵει θαλερὰϲ",
        [
            "1330",
            "wil"
        ]
    ],
    [
        "L L L L L S S L",
        "βοϲκὰϲ εὐφύλλων ἑλίκων·",
        [
            "1331",
            "wil"
        ]
    ],
    [
        "S S L S S L S S S",
        "πόλεων δʼ ἀπέλειπε βίοϲ,",
        [
            "1332",
            "T"
        ]
    ],
    [
        "L L L S L S S L",
        "οὐδʼ ἦϲαν θεῶν θυϲίαι,",
        [
            "1333",
            "wil"
        ]
    ],
    [
        "L L L L L S S L",
        "βωμοῖϲ δʼ ἄφλεκτοι πελανοί·",
        [
            "1334",
            "wil||"
        ]
    ],
    [
        "L L L L L S S L",
        "παγὰϲ δʼ ἀμπαύει δροϲερὰϲ",
        [
            "1335",
            "wil"
        ]
    ],
    [
        "L L L L L S S L",
        "λευκῶν ἐκβάλλειν ὑδάτων",
        [
            "1336a",
            "wil"
        ]
    ],
    [
        "L L L S S L L",
        "πένθει παιδὸϲ ἀλάϲτωι.",
        [
            "1336b",
            "pher"
        ]
    ],
    [
        "S L S L L S S L",
        "ἐπεὶ δʼ ἔπαυϲʼ εἰλαπίναϲ",
        [
            "1337",
            "ia",
            "+",
            "chor"
        ]
    ],
    [
        "S L S L L S S L",
        "θεοῖϲ βροτείωι τε γένει,",
        [
            "1338",
            "ia",
            "+",
            "chor"
        ]
    ],
    [
        "L L L L S S L",
        "Ζεὺϲ μειλίϲϲων ϲτυγίουϲ",
        [
            "1339",
            "hept"
        ]
    ],
    [
        "L S L L S S L",
        "Ματρὸϲ ὀργὰϲ ἐνέπει·",
        [
            "1340",
            "cr",
            "+",
            "chor[^32]"
        ]
    ],
    [
        "L S L L S S N",
        "Βᾶτε, ϲεμναὶ Χάριτεϲ,",
        [
            "1341",
            "cr",
            "+",
            "chor||"
        ]
    ],
    [
        "S S L S S L S L",
        "ἴτε, τὰν περὶ παρθένωι",
        [
            "1342",
            "T"
        ]
    ],
    [
        "L L L L S S L",
        "Δηὼ θυμωϲαμέναν",
        [
            "1343",
            "hept"
        ]
    ],
    [
        "L S L L L L S S L",
        "†λύπαν ἐξαλλάξατʼ† ἀλαλᾶι",
        [
            "1344",
            "?[^33]"
        ]
    ],
    [
        "L L L L S S L",
        "Μοῦϲαί θʼ ὕμνοιϲι χορῶν.",
        [
            "1345",
            "hept"
        ]
    ],
    [
        "L L L L S S L",
        "χαλκοῦ δʼ αὐδὰν χθονίαν",
        [
            "1346",
            "hept"
        ]
    ],
    [
        "S S S S S S L S S L",
        "τύπανά τʼ ἔλαβε βυρϲοτενῆ",
        [
            "1347",
            "ia",
            "+",
            "chor"
        ]
    ],
    [
        "L L L S S L S S S",
        "καλλίϲτα τότε πρῶτα μακά-",
        [
            "1348",
            "gly∫"
        ]
    ],
    [
        "L L L S S L S S S",
        "ρων Κύπριϲ· γέλαϲεν δὲ θεὰ",
        [
            "1349",
            "gly"
        ]
    ],
    [
        "L S S L S L",
        "δέξατό τʼ ἐϲ χέραϲ",
        [
            "1350",
            "dod"
        ]
    ],
    [
        "S L S S L L",
        "βαρύβρομον αὐλὸν",
        [
            "1351",
            "reiz"
        ]
    ],
    [
        "L L S S L L",
        "τερφθεῖϲʼ ἀλαλαγμῶι.",
        [
            "1352",
            "reiz"
        ]
    ],
    [
        "L L S S L S S S",
        "†ὧν οὐ θέμιϲ οὔθʼ ὅϲια",
        [
            "1353",
            "?"
        ]
    ],
    [
        "S L L L L S S L",
        "ἐπύρωϲαϲ ἐν θαλάμοιϲ,†",
        [
            "1354",
            "?[^34]"
        ]
    ],
    [
        "L L S L S S L",
        "μῆνιν δʼ ἔχειϲ μεγάλαϲ",
        [
            "1355",
            "hept"
        ]
    ],
    [
        "L S L L S S L",
        "Ματρόϲ, ὦ παῖ, θυϲίαϲ",
        [
            "1356",
            "cr",
            "+",
            "chor"
        ]
    ],
    [
        "L S L L S S L",
        "οὐ ϲεβίζουϲα θεᾶϲ.",
        [
            "1357",
            "cr",
            "+",
            "chor"
        ]
    ],
    [
        "S S L S S L S L",
        "μέγα τοι δύναται νεβρῶν",
        [
            "1358",
            "T"
        ]
    ],
    [
        "L L S L S S L",
        "παμποίκιλοι ϲτολίδεϲ",
        [
            "1359",
            "hept"
        ]
    ],
    [
        "L L L L L S S L",
        "κιϲϲοῦ τε ϲτεφθεῖϲα χλόα",
        [
            "1360",
            "wil"
        ]
    ],
    [
        "L L S L S S L",
        "νάρθηκαϲ εἰϲ ἱεροὺϲ",
        [
            "1361",
            "hept"
        ]
    ],
    [
        "L L L L S S L",
        "ῥόμβου θʼ εἱλιϲϲομένα",
        [
            "1362",
            "hept"
        ]
    ],
    [
        "S S S S S S L S S L",
        "κύκλιοϲ ἔνοϲιϲ αἰθερία",
        [
            "1363",
            "ia",
            "+",
            "chor"
        ]
    ],
    [
        "L L L S S L S S S",
        "βακχεύουϲά τʼ ἔθειρα Βρομί-",
        [
            "1364",
            "gly∫"
        ]
    ],
    [
        "L L L S S L S L",
        "ωι καὶ παννυχίδεϲ θεᾶϲ.",
        [
            "1365",
            "gly"
        ]
    ],
    [
        "L S S L S S",
        "†εὖ δέ νιν ἄμαϲιν",
        [
            "1366",
            "?[^35]"
        ]
    ],
    [
        "S L S S S L S",
        "ὑπέρβαλε ϲελάνα",
        [
            "1367",
            "?"
        ]
    ],
    [
        "L L S S L L",
        "μορφᾶ μόνον ηὔχειϲ.†",
        [
            "1368",
            "?"
        ]
    ],
    [
        "S L S L L S S L S L L",
        "ταχεῖα κώπα, ῥοθίοιϲι Νηρέωϲ",
        [
            "1452",
            "ia",
            "+",
            "ar"
        ]
    ],
    [
        "L S S L S L",
        "εἰρεϲία φίλα,",
        [
            "1453",
            "dod"
        ]
    ],
    [
        "S L S L L S S L",
        "χοραγὲ τῶν καλλιχόρων",
        [
            "1454",
            "ia",
            "+",
            "chor"
        ]
    ],
    [
        "L L L S S L",
        "δελφίνων, ὅταν αὐ-",
        [
            "1455",
            "hex∫"
        ]
    ],
    [
        "L S S S S L S S L",
        "ρᾶν πέλαγοϲ ἀνήνεμον ἦι,",
        [
            "1456",
            "wil"
        ]
    ],
    [
        "L L S L L S S L",
        "γλαυκὰ δὲ Πόντου θυγάτηρ",
        [
            "1457",
            "ia",
            "+",
            "chor"
        ]
    ],
    [
        "S L L S S L L",
        "Γαλάνεια τάδʼ εἴπηι·",
        [
            "1458",
            "pher||Ha?"
        ]
    ],
    [
        "S S S L S S S S S L",
        "Κατὰ μὲν ἱϲτία πετάϲατʼ, αὔ-",
        [
            "1459",
            "gly∫"
        ]
    ],
    [
        "L S L S L S S L",
        "ραϲ λιπόντεϲ εἰναλίαϲ,",
        [
            "1460",
            "wil"
        ]
    ],
    [
        "S S S L S S L S L",
        "λάβετε δʼ εἰλατίναϲ πλάταϲ,",
        [
            "1461",
            "gly"
        ]
    ],
    [
        "L L L L L",
        "ὦ ναῦται ναῦται,",
        [
            "1462",
            "pentamakron"
        ]
    ],
    [
        "L L S L S S L",
        "πέμποντεϲ εὐλιμένουϲ",
        [
            "1463",
            "hept"
        ]
    ],
    [
        "L L L L L S S L S L L",
        "Περϲείων οἴκων Ἑλέναν ἐπʼ ἀκτάϲ.",
        [
            "1464",
            "wil",
            "+",
            "ba"
        ]
    ],
    [
        "L L S L L S S L",
        "ἦ που κόραϲ ἂν ποταμοῦ",
        [
            "1465",
            "ia",
            "+",
            "chor"
        ]
    ],
    [
        "S L S L L S S L S L L",
        "παρʼ οἶδμα Λευκιππίδαϲ ἢ πρὸ ναοῦ",
        [
            "1466",
            "ia",
            "+",
            "ar"
        ]
    ],
    [
        "L S S L S L",
        "Παλλάδοϲ ἂν λάβοι",
        [
            "1467",
            "dod"
        ]
    ],
    [
        "S L S L L S S L",
        "χρόνωι ξυνελθοῦϲα χοροῖϲ",
        [
            "1468",
            "ia",
            "+",
            "chor"
        ]
    ],
    [
        "L L L S S L",
        "ἢ κώμοιϲ Ὑακίν-",
        [
            "1469",
            "hex∫"
        ]
    ],
    [
        "L S S S S L S S L",
        "θου νύχιον ἐϲ εὐφροϲύναν,",
        [
            "1470",
            "wil"
        ]
    ],
    [
        "S L S L L S S L",
        "ὃν ἐξαμιλλαϲάμενοϲ",
        [
            "1471",
            "ia",
            "+",
            "chor"
        ]
    ],
    [
        "S L L S S L L",
        "†τροχῶ τέρμονι δίϲκου†",
        [
            "1472",
            "pher||H?"
        ]
    ],
    [
        "S S S L L L S L",
        "ἔκανε Φοῖβοϲ, †τᾶ† Λακαί-",
        [
            "1473",
            "wil∫[^36]"
        ]
    ],
    [
        "L L L S S L S L",
        "ναι γᾶι βούθυτον ἁμέραν",
        [
            "1474",
            "gly"
        ]
    ],
    [
        "S S S L S S L S L",
        "ὁ Διὸϲ εἶπε ϲέβειν γόνοϲ·",
        [
            "1475",
            "gly"
        ]
    ],
    [
        "L L L S L L L",
        "μόϲχον θʼ ἃν †λίποιτʼ οἴκοιϲ†",
        [
            "1476",
            "pentamakron?[^37]"
        ]
    ],
    [
        "L L L L L S S L S L L",
        "ἇϲ οὔπω πεῦκαι πρὸ γάμων ἔλαμψαν.",
        [
            "1477",
            "wil",
            "+",
            "ba"
        ]
    ],
    [
        "S L S S L S S L L",
        "διʼ αἰθέροϲ εἴθε ποτανοὶ",
        [
            "1478",
            "erasm||[^38]"
        ]
    ],
    [
        "S L S S L S S L",
        "γενοίμεθʼ ὅπαι Λιβύαϲ",
        [
            "1479",
            "⏑",
            "D"
        ]
    ],
    [
        "L L L S S N",
        "οἰωνῶν ϲτιχάδεϲ",
        [
            "1480",
            "D^contr^||Bs"
        ]
    ],
    [
        "L L L S S L S L",
        "ὄμβρον χειμέριον λιποῦ-",
        [
            "1481gly∫"
        ]
    ],
    [
        "L L L L L S S L",
        "ϲαι νίϲονται πρεϲβυτάτου",
        [
            "1482",
            "wil"
        ]
    ],
    [
        "L L S L S S L",
        "ϲύριγγι πειθόμεναι",
        [
            "1483",
            "hept"
        ]
    ],
    [
        "L S S L S S L",
        "ποιμένοϲ, ἄβροχά θʼ ὃϲ",
        [
            "1484",
            "D"
        ]
    ],
    [
        "S S S L S S S S L",
        "πεδία καρποφόρα τε γᾶϲ",
        [
            "1485",
            "lek"
        ]
    ],
    [
        "S S S S S S S L L",
        "ἐπιπετόμενοϲ ἰαχεῖ.",
        [
            "1486",
            "ia",
            "+",
            "ba||H"
        ]
    ],
    [
        "L L L S S L S L",
        "ὦ πταναὶ δολιχαύχενεϲ,",
        [
            "1487",
            "gly"
        ]
    ],
    [
        "L S L S S L S L",
        "ϲύννομοι νεφέων δρόμωι,",
        [
            "1488",
            "gly"
        ]
    ],
    [
        "L S L S S S S S L",
        "βᾶτε Πλειάδαϲ ὑπὸ μέϲαϲ",
        [
            "1489",
            "gly"
        ]
    ],
    [
        "L L L S L S S L",
        "Ὠρίωνά τʼ ἐννύχιον,",
        [
            "1490",
            "wil"
        ]
    ],
    [
        "L L L L S S L",
        "καρύξατʼ ἀγγελίαν",
        [
            "1491",
            "hept"
        ]
    ],
    [
        "L L L S L S S L",
        "Εὐρώταν ἐφεζόμεναι,",
        [
            "1492",
            "wil"
        ]
    ],
    [
        "S S S L S S L S L",
        "Μενέλεωϲ ὅτι Δαρδάνου",
        [
            "1493",
            "gly"
        ]
    ],
    [
        "S S S L S S L L",
        "πόλιν ἑλὼν δόμον ἥξει.",
        [
            "1494",
            "pher"
        ]
    ],
    [
        "S L S S L S S L L",
        "μόλοιτέ ποθʼ ἵππιον οἶμον",
        [
            "1495",
            "erasm||"
        ]
    ],
    [
        "S L S S L S S L",
        "διʼ αἰθέροϲ ἱέμενοι,",
        [
            "1496",
            "⏑",
            "D"
        ]
    ],
    [
        "L L L S S L",
        "παῖδεϲ Τυνδαρίδαι,",
        [
            "1497",
            "D^contr^||Bs"
        ]
    ],
    [
        "L L L S L S S L",
        "λαμπρῶν ἀϲτέρων ὑπʼ ἀέλ-",
        [
            "1498",
            "wil∫"
        ]
    ],
    [
        "L L L S L S S L",
        "λαιϲ οἳ ναίετʼ οὐράνιοι,",
        [
            "1499",
            "wil"
        ]
    ],
    [
        "L L S L S S L",
        "ϲωτῆρε τᾶϲ Ἑλέναϲ,",
        [
            "1500[^39]"
        ]
    ],
    [
        "L S S L S S L",
        "γλαυκὸν ἐπʼ οἶδμʼ ἅλιον",
        [
            "1501",
            "D"
        ]
    ],
    [
        "S S S S S S L S L",
        "κυανόχροά τε κυμάτων",
        [
            "1502",
            "lek"
        ]
    ],
    [
        "S S S S S S S L L",
        "ῥόθια πολιὰ θαλάϲϲαϲ,",
        [
            "1503",
            "ia",
            "+",
            "ba||Hs"
        ]
    ],
    [
        "L L L L L S S L",
        "ναύταιϲ εὐαεῖϲ ἀνέμων",
        [
            "1504",
            "wil"
        ]
    ],
    [
        "L L L S S L S L",
        "πέμποντεϲ Διόθεν πνοάϲ,",
        [
            "1505",
            "gly"
        ]
    ],
    [
        "L L L S S L S L",
        "δύϲκλειαν δʼ ἀπὸ ϲυγγόνου",
        [
            "1506",
            "gly"
        ]
    ],
    [
        "S S S L S L S S L",
        "βάλετε βαρβάρων λεχέων,",
        [
            "1507",
            "wil"
        ]
    ],
    [
        "L L L L S S L",
        "ἃν Ἰδαιᾶν ἐρίδων",
        [
            "1508",
            "hept"
        ]
    ],
    [
        "L L L L L S S L",
        "ποιναθεῖϲʼ ἐκτήϲατο, γᾶν",
        [
            "1509",
            "wil"
        ]
    ],
    [
        "L L L S S L S L",
        "οὐκ ἐλθοῦϲά ποτʼ Ἰλίου",
        [
            "1510",
            "gly[^40]"
        ]
    ],
    [
        "L L L S S L L",
        "Φοιβείουϲ ἐπὶ πύργουϲ.",
        [
            "1511",
            "pher"
        ]
    ],
    [
        "L S S L L L L S S L",
        "πολλὰ δʼ ἀέλπτωϲ κραίνουϲι θεοί·",
        [
            "1689",
            "an2"
        ]
    ],
    [
        "L S S L L L S S L L",
        "καὶ τὰ δοκηθέντʼ οὐκ ἐτελέϲθη,",
        [
            "1690",
            "an2"
        ]
    ],
    [
        "L S S L L S S L S S L",
        "τῶν δʼ ἀδοκήτων πόρον ηὗρε θεόϲ.",
        [
            "1691",
            "an2"
        ]
    ],
    [
        "L L S S L S S L L",
        "τοιόνδʼ ἀπέβη τόδε πρᾶγμα.]",
        [
            "1692",
            "par"
        ]
    ],
    [
        "L S S",
        "[^",
        [
            "18]:",
            "L.",
            "scans",
            "this",
            "line",
            "as:",
            "“‒",
            "⏑",
            "‒",
            "⏑",
            "⏑",
            "‒",
            "⏑",
            "‒”"
        ]
    ],
    [
        "L S L S S L S L",
        "[^",
        [
            "19]:",
            "L.",
            "scans",
            "this",
            "syllable",
            "as",
            "“⏑”"
        ]
    ],
    [
        "S",
        "[^",
        [
            "20]:",
            "L.",
            "does",
            "not",
            "scan",
            "this",
            "daggered",
            "line"
        ]
    ],
    [
        "L L L L S S L",
        "[^",
        [
            "32]:",
            "L.",
            "notes:",
            "“Rather",
            "than",
            "‘hept’",
            "(=\\^wil),",
            "which",
            "Euripides",
            "seems",
            "to"
        ]
    ],
    [
        "L L S S L",
        "[^",
        [
            "33]:",
            "L.",
            "does",
            "not",
            "scan",
            "this",
            "line"
        ]
    ]
]