{
    "type_override": [
        {
            "start": 1246,
            "end": 1310,
            "type": "mixed"
        }
    ],
    
    "abbreviations": [
    {
        "Louren\u00e7o abbreviation": "?",
        "Ours": "unknown",
        "name": "unknown",
        "type": "unknown",
        "paradigm": "changes",
        "metrical elements": "changes",
        "notes": "This is where Louren\u00e7o is unable to identify a meter, usually owing to problems in the text"
    },
    {
        "Louren\u00e7o abbreviation": "A",
        "Ours": "A",
        "name": "enoplian anapestic dimeter",
        "type": "enoplian",
        "paradigm": "\u23d1\u23d1\u2012\u23d1\u23d1\u2012\u23d1\u23d1\u2012\u23d1\u23d1\u2012",
        "metrical elements": 8,
        "notes": "same as anapestic dimeter, but in an enoplian context"
    },
    {
        "Louren\u00e7o abbreviation": "an",
        "Ours": "an",
        "name": "anapest",
        "type": "anapestic",
        "paradigm": "\u23d1\u23d1\u2012\u23d1\u23d1\u2012",
        "metrical elements": 4,
        "notes": null
    },
    {
        "Louren\u00e7o abbreviation": "ar",
        "Ours": "arist",
        "name": "aristophanean",
        "type": "aeolo-choriambic",
        "paradigm": "\u2012\u23d1\u23d1\u2012\u23d1\u2012 \u2012",
        "metrical elements": 7,
        "notes": null
    },
    {
        "Louren\u00e7o abbreviation": "ba",
        "Ours": "ba",
        "name": "bacchiac",
        "type": "bacchiac",
        "paradigm": "\u23d1 \u2012 \u2012",
        "metrical elements": 3,
        "notes": "same as ia^"
    },
    {
        "Louren\u00e7o abbreviation": "ch",
        "Ours": "chor",
        "name": "choriamb",
        "type": "aeolo-choriambic",
        "paradigm": "\u2012\u23d1\u23d1\u2012",
        "metrical elements": 4,
        "notes": "usually occurs in combination as part of various aeolo-choriambic cola"
    },
    {
        "Louren\u00e7o abbreviation": "cr",
        "Ours": "cr",
        "name": "cretic",
        "type": "iambic",
        "paradigm": "\u2012\u23d1\u2012",
        "metrical elements": 3,
        "notes": "same as ^ia; in other plays, cretics will not always be iambic"
    },
    {
        "Louren\u00e7o abbreviation": "D",
        "Ours": "D",
        "name": "D",
        "type": "must be determined from context",
        "paradigm": "\u2012 \u23d1 \u23d1 \u2012\u23d1\u23d1\u2012",
        "metrical elements": 5,
        "notes": "sometimes enoplian, sometimes dactylo-epitrite, sometimes dactylic, sometimes no type"
    },
    {
        "Louren\u00e7o abbreviation": "d",
        "Ours": "d",
        "name": "d",
        "type": "must be determined from context",
        "paradigm": "\u2012\u23d1\u23d1\u2012",
        "metrical elements": 3,
        "notes": "sometimes enoplian, sometimes dactylo-epitrite, sometimes dactylic, sometimes no type"
    },
    {
        "Louren\u00e7o abbreviation": "da",
        "Ours": "dac",
        "name": "dactyl",
        "type": "dactylic",
        "paradigm": "\u2012 \u23d1 \u23d1",
        "metrical elements": 2,
        "notes": "often occurs in groups of 4 (Louren\u00e7o's 4da= our dac4; 8 metrical elements), 6 (Louren\u00e7o's 6da= our dac6; 12 elements); 4 with catalexis (Louren\u00e7o's 4dacat=our dac4^; 7 elements), and 6 with catalexis (Louren\u00e7o's 6dacat=ourdac6^; 11 elements)"
    },
    {
        "Louren\u00e7o abbreviation": "diom",
        "Ours": "diom",
        "name": "diomedean",
        "type": "enoplian",
        "paradigm": "\u23d1\u23d1\u2012\u23d1\u23d1\u2012\u23d1\u2012x",
        "metrical elements": 9,
        "notes": null
    },
    {
        "Louren\u00e7o abbreviation": "e",
        "Ours": "e",
        "name": "epitrite",
        "type": "must be determined from context",
        "paradigm": "\u2012\u23d1\u2012",
        "metrical elements": 3,
        "notes": null
    },
    {
        "Louren\u00e7o abbreviation": "e.m.",
        "Ours": "e.m.",
        "name": "extra metrum",
        "type": "extra metrum",
        "paradigm": "none",
        "metrical elements": "changes",
        "notes": "an exclamation that breaks the metrical pattern: usually not numbered in the text: if that is the case, call the e.m. line a and the succeeding line b"
    },
    {
        "Louren\u00e7o abbreviation": "enop",
        "Ours": "enop",
        "name": "enoplian ",
        "type": "enoplian",
        "paradigm": "changes",
        "metrical elements": "changes",
        "notes": "Louren\u00e7o uses this abbreviation for rare enoplian verses; Orestes 1456: \u23d1\u23d1\u2012\u23d1\u23d1\u2012\u23d1\u23d1\u2012\u23d1\u2012\u23d1\u2012 \u2012: 14 elements"
    },
    {
        "Louren\u00e7o abbreviation": "erasm",
        "Ours": "erasm",
        "name": "erasmonidean",
        "type": "enoplian",
        "paradigm": "x\u2012\u23d1\u23d1\u2012\u23d1\u23d1\u2012x",
        "metrical elements": 9,
        "notes": "same as xDx"
    },
    {
        "Louren\u00e7o abbreviation": "gl",
        "Ours": "gly",
        "name": "glyconic",
        "type": "aeolo-choriambic",
        "paradigm": "oo \u2012\u23d1\u23d1\u2012 \u23d1\u2012",
        "metrical elements": 8,
        "notes": "on rare occasions dragged (oo \u2012\u23d1\u23d1\u2012 \u2012 \u2012)"
    },
    {
        "Louren\u00e7o abbreviation": "h\u03b4",
        "Ours": "hypodoc",
        "name": "hypodochmius",
        "type": "dochmiac",
        "paradigm": "\u2012\u23d1\u2012\u23d1\u2012",
        "metrical elements": 5,
        "notes": null
    },
    {
        "Louren\u00e7o abbreviation": "ia",
        "Ours": "ia",
        "name": "iambic",
        "type": "iambic",
        "paradigm": "x\u2012\u23d1\u2012",
        "metrical elements": 4,
        "notes": "often occurs in pairs (Louren\u00e7o's 2ia=our ia2; 8 metrical elements) and threes (Louren\u00e7o's 3ia=our ia3; 12 metrical elements)"
    },
    {
        "Louren\u00e7o abbreviation": "ibyc[superscript]chol",
        "Ours": "ibyc\/chol",
        "name": "ibycean with cholosis",
        "type": "enoplian",
        "paradigm": "\u2012\u23d1\u23d1\u2012\u23d1\u23d1\u2012 \u2012 \u2012",
        "metrical elements": 9,
        "notes": "ibycean (\u2012\u23d1\u23d1\u2012\u23d1\u23d1\u2012 \u23d1 \u2012) in which a long syllable replaces the last short syllable; in other plays this will sometimes be aeolo-choriambic"
    },
    {
        "Louren\u00e7o abbreviation": "ith",
        "Ours": "ith",
        "name": "ithyphallic",
        "type": "iambic",
        "paradigm": "\u2012\u23d1\u2012\u23d1\u2012 \u2012",
        "metrical elements": 6,
        "notes": null
    },
    {
        "Louren\u00e7o abbreviation": "kd",
        "Ours": "kdoc",
        "name": "Kaibelian dochmiac",
        "type": "dochmiac",
        "paradigm": "x\u2012 x\u2012\u23d1\u2012",
        "metrical elements": 6,
        "notes": null
    },
    {
        "Louren\u00e7o abbreviation": "lk",
        "Ours": "lek",
        "name": "lekythion",
        "type": "iambo-trochaic",
        "paradigm": "\u2012\u23d1\u2012x\u2012\u23d1\u2012",
        "metrical elements": 7,
        "notes": "I may decide to distinguish between iambic and trochaic lekythia; for now let's stick with iambo-trochaic"
    },
    {
        "Louren\u00e7o abbreviation": "mol",
        "Ours": "mol",
        "name": "molossus",
        "type": "iambic",
        "paradigm": "\u2012 \u2012 \u2012",
        "metrical elements": 3,
        "notes": "a syncopated ia; in other plays, molossi will not always be iambic"
    },
    {
        "Louren\u00e7o abbreviation": "prm",
        "Ours": "par",
        "name": "paroemiac",
        "type": "anapestic",
        "paradigm": "\u23d1\u23d1\u2012\u23d1\u23d1\u2012\u23d1\u23d1\u2012 \u2012",
        "metrical elements": 7,
        "notes": "same as an2^; in other plays will sometimes be enoplian"
    },
    {
        "Louren\u00e7o abbreviation": "pe",
        "Ours": "pe",
        "name": "penthemimeres",
        "type": "must be determined from context",
        "paradigm": "x\u2012\u23d1\u2012 \u2012",
        "metrical elements": 5,
        "notes": null
    },
    {
        "Louren\u00e7o abbreviation": "ph",
        "Ours": "pher",
        "name": "pherecratean",
        "type": "aeolo-choriambic",
        "paradigm": "oo \u2012\u23d1\u23d1\u2012  \u2012",
        "metrical elements": 7,
        "notes": "a syncopated glyconic"
    },
    {
        "Louren\u00e7o abbreviation": "phal",
        "Ours": "phal",
        "name": "phalaecian hendecasyllable",
        "type": "aeolo-choriambic",
        "paradigm": "oo \u2012\u23d1\u23d1\u2012 \u23d1\u2012 \u23d1 \u2012 \u2012",
        "metrical elements": 11,
        "notes": "same as gly + ba"
    },
    {
        "Louren\u00e7o abbreviation": "prax",
        "Ours": "prax",
        "name": "praxillean",
        "type": "enoplian",
        "paradigm": "\u2012\u23d1\u23d1\u2012\u23d1\u23d1\u2012 \u23d1\u23d1\u2012\u23d1\u2012 \u2012",
        "metrical elements": 13,
        "notes": null
    },
    {
        "Louren\u00e7o abbreviation": "reiz",
        "Ours": "reiz",
        "name": "reizianum",
        "type": "aeolo-choriambic",
        "paradigm": "x\u2012\u23d1\u23d1\u2012 \u2012",
        "metrical elements": 6,
        "notes": "a pher without its first syllable"
    },
    {
        "Louren\u00e7o abbreviation": "sp",
        "Ours": "sp",
        "name": "spondee",
        "type": "iambic",
        "paradigm": "\u2012 \u2012",
        "metrical elements": 2,
        "notes": "same as ^ia^; in other plays, spondees will not always be iambic"
    },
    {
        "Louren\u00e7o abbreviation": "T",
        "Ours": "T",
        "name": "enoplian telesillian",
        "type": "enoplian",
        "paradigm": "\u23d1\u23d1\u2012\u23d1\u23d1\u2012\u23d1\u2012",
        "metrical elements": 8,
        "notes": "like a telesillean (x\u2012\u23d1\u2012\u23d1\u2012) starting with resolution, in an enoplian context"
    },
    {
        "Louren\u00e7o abbreviation": "tr",
        "Ours": "tr",
        "name": "trochaic",
        "type": "trochaic",
        "paradigm": "\u2012 \u23d1 \u2012 x",
        "metrical elements": 4,
        "notes": "often occurs in pairs (Louren\u00e7o's 2tr=our tr2) and catalectic fours (tr4^)"
    },
    {
        "Louren\u00e7o abbreviation": "wil",
        "Ours": "wil",
        "name": "wilamowitzian",
        "type": "aeolo-choriambic",
        "paradigm": "oo\u2012x\u2012\u23d1\u23d1\u2012",
        "metrical elements": 8,
        "notes": "4 elements plus choriamb"
    },
    {
        "Louren\u00e7o abbreviation": "\u03b4",
        "Ours": "doc",
        "name": "dochmiac",
        "type": "dochmiac",
        "paradigm": "x\u2012 \u2012 x\u2012",
        "metrical elements": 5,
        "notes": "often occurs in pairs (Louren\u00e7o's 2\u03b4 = our doc2; 10 metrical elements)"
    },
    {
        "Louren\u00e7o abbreviation": "x",
        "Ours": "x",
        "name": "anceps",
        "type": null,
        "paradigm": null,
        "metrical elements": null,
        "notes": "element can be long or short"
    },
    {
        "Louren\u00e7o abbreviation": "\u222b",
        "Ours": "\u222b",
        "name": null,
        "type": null,
        "paradigm": null,
        "metrical elements": null,
        "notes": "word continues to next line"
    },
    {
        "Louren\u00e7o abbreviation": "\u2229",
        "Ours": "\u2229",
        "name": "brevis in longo",
        "type": null,
        "paradigm": null,
        "metrical elements": null,
        "notes": "short syllable where usually a long syllable is required"
    },
    {
        "Louren\u00e7o abbreviation": "cat",
        "Ours": "^",
        "name": "catalexis",
        "type": null,
        "paradigm": null,
        "metrical elements": null,
        "notes": "last element of metron is missing"
    },
    {
        "Louren\u00e7o abbreviation": "^",
        "Ours": "^",
        "name": "syncopation",
        "type": null,
        "paradigm": null,
        "metrical elements": null,
        "notes": "any part of metron is missing"
    },
    {
        "Louren\u00e7o abbreviation": "||",
        "Ours": "||",
        "name": "end of period",
        "type": null,
        "paradigm": null,
        "metrical elements": null,
        "notes": "sometimes marked with B for brevis in longo and\/or H for hiatus; after these are sometimes s for strophe or a for antistrophe"
    },
    {
        "Louren\u00e7o abbreviation": "o o",
        "Ours": "o o",
        "name": "aeolic base",
        "type": null,
        "paradigm": null,
        "metrical elements": null,
        "notes": "can be two longs, long+short, short+long, or 3 shorts, but not 2 shorts"
    },
    {
        "Louren\u00e7o abbreviation": "\u23d1",
        "Ours": "\u23d1",
        "name": "a single short syllable",
        "type": null,
        "paradigm": null,
        "metrical elements": 1,
        "notes": "sometimes mixed with full cola in identification"
    },
    {
        "Louren\u00e7o abbreviation": "\u2012",
        "Ours": "\u2012",
        "name": "a single long syllable",
        "type": null,
        "paradigm": null,
        "metrical elements": 1,
        "notes": "sometimes mixed with full cola in identification"
    },
    {
        "Louren\u00e7o abbreviation": "chol",
        "Ours": "chol",
        "name": "cholosis",
        "type": null,
        "paradigm": null,
        "metrical elements": null,
        "notes": "substititution of \u2012 for \u23d1"
    },
    {
        "Louren\u00e7o abbreviation": "?",
        "Ours": "?",
        "name": "unknown",
        "type": "unknown",
        "metrical elements": null,
        "notes": "This is where Louren\u00e7o is unable to identify a meter, usually owing to problems in the text"
    }
]
}
